memory,100,m
geomtyp=xyz
geometry={
9
  
C1    -0.69117770   0.00000000  -0.71233354
C2     0.69646947   0.00000000  -0.71233354
C3    -1.09829283   0.00000000   0.60180236
C4     1.09829283   0.00000000   0.60180236
O5    -0.00000000   0.00000000   1.42642658
H6    -1.33894115   0.00000000  -1.58003092
H7     1.33894115   0.00000000  -1.58003092
H8    -2.11150976   0.00000000   0.97734881
H9     2.11150976   0.00000000   0.97734881

}
basis=sto-3G
hf

