
 Primary working directories    : /scr/kumo
 Secondary working directories  : /scr/kumo
 Wavefunction directory         : /valhalla/home/kumo/wfu/
 Main file repository           : /scr/kumo/

 SHA1      : 5b1d074a25eef39b04831e9568c159f1d25e52e7
 ARCHNAME  : Linux/x86_64
 FC        : /opt/intel_2011p10/composer_xe_2011_sp1.10.319/bin/intel64/ifort
 FCVERSION : 12.1.4
 BLASLIB   : -L/opt/intel_2011p10/composer_xe_2011_sp1.10.319/mkl/lib/intel64 -lmkl_intel_ilp64 -lmkl_sequential -lmkl_core
 id        : kumo

 Nodes     nprocs
 hel06        1

 Using customized tuning parameters: mindgm=1; mindgv=20; mindgc=4; mindgr=1; noblas=0; minvec=7
 default implementation of scratch files=df  

 memory,100,m
 geomtyp=xyz
 geometry={
 9
 C1    -0.69646947   0.00000000  -0.71233354
 C2     0.69646947   0.00000000  -0.71233354
 C3    -1.09829283   0.00529177   0.60180236
 C4     1.09829283   0.00000000   0.60180236
 O5    -0.00000000   0.00000000   1.42642658
 H6    -1.33894115   0.00000000  -1.58003092
 H7     1.33894115   0.00000000  -1.58003092
 H8    -2.11150976   0.00000000   0.97734881
 H9     2.11150976   0.00000000   0.97734881
 }
 basis=sto-3G
 hf
 

 Variables initialized (801), CPU time= 0.01 sec
 Commands  initialized (611), CPU time= 0.01 sec, 523 directives.
 Default parameters read. Elapsed time= 0.97 sec

 Checking input...
 Passed
1


                                         ***  PROGRAM SYSTEM MOLPRO  ***
                         Copyright, University College Cardiff Consultants Limited, 2008

                                    Version 2099.9 linked 31 Mar 2014 17:15:48


 **********************************************************************************************************************************
 LABEL *                                                                                 
 Linux-3.13.0-24-generic/hel06(x86_64) 64 bit serial version                             DATE: 04-Mar-15          TIME: 17:52:45  
 **********************************************************************************************************************************

 SHA1:             5b1d074a25eef39b04831e9568c159f1d25e52e7

 Develop Directory: /home/kumo/development/regions_orbital_inp_parallel

 Included files:    ccmp2_loc3.F ccsd_loc.F ciinp.F local_init.F orbdom.F r12dom.F
                    region.F
 **********************************************************************************************************************************
 SETTING GEOMTYP        =    XYZ

 Variable memory set to  100000000 words,  buffer space   230000 words

 SETTING BASIS          =    STO-3G


 Recomputing integrals since basis changed


 Using spherical harmonics

 Library entry C      S STO-3G               selected for orbital group  1
 Library entry C      P STO-3G               selected for orbital group  1
 Library entry O      S STO-3G               selected for orbital group  2
 Library entry O      P STO-3G               selected for orbital group  2
 Library entry H      S STO-3G               selected for orbital group  3

1PROGRAM * SEWARD (Integral evaluation for generally contracted gaussian basis sets)     Author: Roland Lindh, 1990

 Geometry written to block  1 of record 700


 Point group  C1  



 ATOMIC COORDINATES

 NR  ATOM    CHARGE       X              Y              Z

   1  C1      6.00   -1.316136557    0.000000000   -1.346115305
   2  C2      6.00    1.316136557    0.000000000   -1.346115305
   3  C3      6.00   -2.075472661    0.009999996    1.137241646
   4  C4      6.00    2.075472661    0.000000000    1.137241646
   5  O5      8.00    0.000000000    0.000000000    2.695555583
   6  H6      1.00   -2.530232080    0.000000000   -2.985825718
   7  H7      1.00    2.530232080    0.000000000   -2.985825718
   8  H8      1.00   -3.990175170    0.000000000    1.846921586
   9  H9      1.00    3.990175170    0.000000000    1.846921586

 Bond lengths in Bohr (Angstrom)

 1-2  2.632273114  1-3  2.596873709  1-6  2.040264242  2-4  2.596854455  2-7  2.040264242
     ( 1.392938940)     ( 1.374206382)     ( 1.079661337)     ( 1.374196193)     ( 1.079661337)

 3-5  2.595386116  3-8  2.042016483  4-5  2.595366851  4-9  2.041991997
     ( 1.373419181)     ( 1.080588583)     ( 1.373408987)     ( 1.080575626)

 Bond angles

  1-2-4  107.00206122   1-2-7  126.51746446   1-3-5  109.89681501   1-3-8  127.33695901

  2-1-3  107.00193133   2-1-6  126.51746446   2-4-5  109.89802677   2-4-9  127.33916615

  3-1-6  126.48016020   3-5-4  106.19970045   4-2-7  126.48047432   5-3-8  122.76080568

  5-4-9  122.76280708

 NUCLEAR CHARGE:                   36
 NUMBER OF PRIMITIVE AOS:          87
 NUMBER OF SYMMETRY AOS:           87
 NUMBER OF CONTRACTIONS:           29   (  29A   )
 NUMBER OF CORE ORBITALS:           5   (   5A   )
 NUMBER OF VALENCE ORBITALS:       24   (  24A   )


 NUCLEAR REPULSION ENERGY  160.48354713


 Eigenvalues of metric

         1 0.174E+00 0.221E+00 0.271E+00 0.290E+00 0.300E+00 0.316E+00 0.348E+00 0.386E+00


 Contracted 2-electron integrals neglected if value below      1.0D-11
 AO integral compression algorithm  1   Integral accuracy      1.0D-11

     0.524 MB (compressed) written to integral file ( 85.5%)


 NUMBER OF SORTED TWO-ELECTRON INTEGRALS:      94830.     BUFFER LENGTH:  32768
 NUMBER OF SEGMENTS:   1  SEGMENT LENGTH:      94830      RECORD LENGTH: 524288

 Memory used in sort:       0.65 MW

 SORT1 READ      112495. AND WROTE       73918. INTEGRALS IN      1 RECORDS. CPU TIME:     0.00 SEC, REAL TIME:     0.01 SEC
 SORT2 READ       73918. AND WROTE       94830. INTEGRALS IN      2 RECORDS. CPU TIME:     0.02 SEC, REAL TIME:     0.01 SEC

 FILE SIZES:   FILE 1:     8.2 MBYTE,  FILE 4:     4.2 MBYTE,   TOTAL:     12.4 MBYTE

 OPERATOR DM      FOR CENTER  0  COORDINATES:    0.000000    0.000000    0.000000


 **********************************************************************************************************************************
 DATASETS  * FILE   NREC   LENGTH (MB)   RECORD NAMES
              1      19        8.03       500      610      700      900      950      970     1000      129      960     1100   
                                          VAR    BASINP    GEOM    SYMINP    ZMAT    AOBASIS   BASIS     P2S    ABASIS      S 
                                         1400     1410     1200     1210     1080     1600     1650     1300     1700   
                                           T        V       H0       H01     AOSYM     SMH    MOLCAS    ERIS     OPER   

 PROGRAMS   *        TOTAL       INT
 CPU TIMES  *         0.34      0.24
 REAL TIME  *         6.08 SEC
 DISK USED  *        12.84 MB      
 **********************************************************************************************************************************

1PROGRAM * RHF-SCF (CLOSED SHELL)       Authors: W. Meyer, H.-J. Werner


 NUMBER OF ELECTRONS:      18+   18-    SPACE SYMMETRY=1    SPIN SYMMETRY: Singlet 
 CONVERGENCE THRESHOLDS:    1.00E-05 (Density)    1.00E-07 (Energy)
 MAX. NUMBER OF ITERATIONS:       60
 INTERPOLATION TYPE:            DIIS
 INTERPOLATION STEPS:              2 (START)      1 (STEP)
 LEVEL SHIFTS:                  0.00 (CLOSED)  0.00 (OPEN) 



 Orbital guess generated from atomic densities. Full valence occupancy:   18

 Molecular orbital dump at record        2100.2

 Initial occupancy:  18

 ITERATION    DDIFF          GRAD             ENERGY        2-EL.EN.            DIPOLE MOMENTS         DIIS   ORB.
    1      0.000D+00      0.000D+00      -225.66996018    484.882181    0.00001    0.00153   -0.34735    0    start
    2      0.000D+00      0.156D-01      -225.74042111    479.793819    0.00003   -0.00127   -0.27337    1    diag
    3      0.307D-01      0.407D-02      -225.74390491    479.822200    0.00003    0.00006   -0.12615    2    diag
    4      0.678D-02      0.104D-02      -225.74420554    479.806961    0.00003   -0.00027   -0.19327    3    diag
    5      0.183D-02      0.278D-03      -225.74422767    479.792405    0.00003   -0.00025   -0.17874    4    diag
    6      0.470D-03      0.831D-04      -225.74423239    479.797913    0.00003   -0.00025   -0.18573    5    diag
    7      0.224D-03      0.391D-04      -225.74423344    479.798224    0.00003   -0.00025   -0.18555    6    diag
    8      0.138D-03      0.625D-05      -225.74423347    479.798311    0.00003   -0.00025   -0.18552    7    diag
    9      0.257D-04      0.165D-05      -225.74423347    479.798338    0.00003   -0.00025   -0.18551    8    diag
   10      0.684D-05      0.276D-06      -225.74423347    479.798344    0.00003   -0.00025   -0.18552    0    orth

 Final occupancy:  18

 !RHF STATE 1.1 Energy               -225.744233474749
 Nuclear energy                       160.48354713
 One-electron energy                 -626.12695238
 Two-electron energy                  239.89917178
 Virial quotient                       -1.00956275
 !RHF STATE 1.1 Dipole moment           0.00003213    -0.00025089    -0.18551564
 Dipole moment /Debye                   0.00008165    -0.00063765    -0.47150283

 Orbital energies:

         1.1          2.1          3.1          4.1          5.1          6.1          7.1          8.1          9.1         10.1
    -20.378595   -11.068664   -11.068332   -11.015951   -11.015691    -1.387422    -1.024189    -0.932308    -0.731847    -0.725982

        11.1         12.1         13.1         14.1         15.1         16.1         17.1         18.1         19.1         20.1
     -0.676378    -0.555475    -0.548328    -0.504295    -0.497655    -0.449368    -0.328659    -0.255165     0.277398     0.394461

 HOMO     18.1    -0.255165 =      -6.9434eV
 LUMO     19.1     0.277398 =       7.5484eV
 LUMO-HOMO         0.532563 =      14.4918eV


 **********************************************************************************************************************************
 DATASETS  * FILE   NREC   LENGTH (MB)   RECORD NAMES
              1      19        8.03       500      610      700      900      950      970     1000      129      960     1100   
                                          VAR    BASINP    GEOM    SYMINP    ZMAT    AOBASIS   BASIS     P2S    ABASIS      S 
                                         1400     1410     1200     1210     1080     1600     1650     1300     1700   
                                           T        V       H0       H01     AOSYM     SMH    MOLCAS    ERIS     OPER   

              2       4        0.52       700     1000      520     2100   
                                         GEOM     BASIS   MCVARS     RHF  

 PROGRAMS   *        TOTAL        HF       INT
 CPU TIMES  *         0.43      0.09      0.24
 REAL TIME  *         9.66 SEC
 DISK USED  *        12.84 MB      
 **********************************************************************************************************************************

        HF-SCF  
   -225.74423347
 **********************************************************************************************************************************
 Variable memory released
