
 Primary working directories    : /scr/kumo
 Secondary working directories  : /scr/kumo
 Wavefunction directory         : /valhalla/home/kumo/wfu/
 Main file repository           : /scr/kumo/

 SHA1      : 5b1d074a25eef39b04831e9568c159f1d25e52e7
 ARCHNAME  : Linux/x86_64
 FC        : /opt/intel_2011p10/composer_xe_2011_sp1.10.319/bin/intel64/ifort
 FCVERSION : 12.1.4
 BLASLIB   : -L/opt/intel_2011p10/composer_xe_2011_sp1.10.319/mkl/lib/intel64 -lmkl_intel_ilp64 -lmkl_sequential -lmkl_core
 id        : kumo

 Nodes     nprocs
 hel06        1

 Using customized tuning parameters: mindgm=1; mindgv=20; mindgc=4; mindgr=1; noblas=0; minvec=7
 default implementation of scratch files=df  

 memory,100,m
 geomtyp=xyz
 geometry={
 9
 C1    -0.69646947   0.00000000  -0.71233354
 C2     0.69646947   0.00000000  -0.71233354
 C3    -1.09829283   0.00000000   0.60180236
 C4     1.09829283   0.00000000   0.60180236
 O5    -0.00000000   0.00000000   1.42113480
 H6    -1.33894115   0.00000000  -1.58003092
 H7     1.33894115   0.00000000  -1.58003092
 H8    -2.11150976   0.00000000   0.97734881
 H9     2.11150976   0.00000000   0.97734881
 }
 basis=sto-3G
 hf
 

 Variables initialized (801), CPU time= 0.01 sec
 Commands  initialized (611), CPU time= 0.01 sec, 523 directives.
 Default parameters read. Elapsed time= 1.48 sec

 Checking input...
 Passed
1


                                         ***  PROGRAM SYSTEM MOLPRO  ***
                         Copyright, University College Cardiff Consultants Limited, 2008

                                    Version 2099.9 linked 31 Mar 2014 17:15:48


 **********************************************************************************************************************************
 LABEL *                                                                                 
 Linux-3.13.0-24-generic/hel06(x86_64) 64 bit serial version                             DATE: 04-Mar-15          TIME: 17:56:29  
 **********************************************************************************************************************************

 SHA1:             5b1d074a25eef39b04831e9568c159f1d25e52e7

 Develop Directory: /home/kumo/development/regions_orbital_inp_parallel

 Included files:    ccmp2_loc3.F ccsd_loc.F ciinp.F local_init.F orbdom.F r12dom.F
                    region.F
 **********************************************************************************************************************************
 SETTING GEOMTYP        =    XYZ

 Variable memory set to  100000000 words,  buffer space   230000 words

 SETTING BASIS          =    STO-3G


 Recomputing integrals since basis changed


 Using spherical harmonics

 Library entry C      S STO-3G               selected for orbital group  1
 Library entry C      P STO-3G               selected for orbital group  1
 Library entry O      S STO-3G               selected for orbital group  2
 Library entry O      P STO-3G               selected for orbital group  2
 Library entry H      S STO-3G               selected for orbital group  3

1PROGRAM * SEWARD (Integral evaluation for generally contracted gaussian basis sets)     Author: Roland Lindh, 1990

 Geometry written to block  1 of record 700


 Point group  C2v 



 ATOMIC COORDINATES

 NR  ATOM    CHARGE       X              Y              Z

   1  C1      6.00   -1.316136557    0.000000000   -1.346115305
   2  C2      6.00    1.316136557    0.000000000   -1.346115305
   3  C3      6.00   -2.075472661    0.000000000    1.137241646
   4  C4      6.00    2.075472661    0.000000000    1.137241646
   5  O5      8.00    0.000000000    0.000000000    2.685555568
   6  H6      1.00   -2.530232080    0.000000000   -2.985825718
   7  H7      1.00    2.530232080    0.000000000   -2.985825718
   8  H8      1.00   -3.990175170    0.000000000    1.846921586
   9  H9      1.00    3.990175170    0.000000000    1.846921586

 Bond lengths in Bohr (Angstrom)

 1-2  2.632273114  1-3  2.596854455  1-6  2.040264242  2-4  2.596854455  2-7  2.040264242
     ( 1.392938940)     ( 1.374196193)     ( 1.079661337)     ( 1.374196193)     ( 1.079661337)

 3-5  2.589374976  3-8  2.041991997  4-5  2.589374976  4-9  2.041991997
     ( 1.370238223)     ( 1.080575626)     ( 1.370238223)     ( 1.080575626)

 Bond angles

  1-2-4  107.00206122   1-2-7  126.51746446   1-3-5  109.72107811   1-3-8  127.33916615

  2-1-3  107.00206122   2-1-6  126.51746446   2-4-5  109.72107811   2-4-9  127.33916615

  3-1-6  126.48047432   3-5-4  106.55372134   4-2-7  126.48047432   5-3-8  122.93975574

  5-4-9  122.93975574

 NUCLEAR CHARGE:                   36
 NUMBER OF PRIMITIVE AOS:          87
 NUMBER OF SYMMETRY AOS:           87
 NUMBER OF CONTRACTIONS:           29   (  13A1  +  11B1  +   3B2  +   2A2  )
 NUMBER OF CORE ORBITALS:           5   (   3A1  +   2B1  +   0B2  +   0A2  )
 NUMBER OF VALENCE ORBITALS:       24   (  10A1  +   9B1  +   3B2  +   2A2  )


 NUCLEAR REPULSION ENERGY  160.62587613


 Eigenvalues of metric

         1 0.221E+00 0.299E+00 0.316E+00 0.385E+00 0.876E+00 0.934E+00 0.959E+00 0.107E+01
         2 0.174E+00 0.271E+00 0.290E+00 0.348E+00 0.440E+00 0.930E+00 0.984E+00 0.128E+01
         3 0.742E+00 0.106E+01 0.146E+01
         4 0.668E+00 0.107E+01


 Contracted 2-electron integrals neglected if value below      1.0D-11
 AO integral compression algorithm  1   Integral accuracy      1.0D-11

     0.262 MB (compressed) written to integral file (100.0%)


 NUMBER OF SORTED TWO-ELECTRON INTEGRALS:      31309.     BUFFER LENGTH:  32768
 NUMBER OF SEGMENTS:   1  SEGMENT LENGTH:      31309      RECORD LENGTH: 524288

 Memory used in sort:       0.59 MW

 SORT1 READ       39671. AND WROTE       30468. INTEGRALS IN      1 RECORDS. CPU TIME:     0.00 SEC, REAL TIME:     0.01 SEC
 SORT2 READ       30468. AND WROTE       31309. INTEGRALS IN      1 RECORDS. CPU TIME:     0.01 SEC, REAL TIME:     0.01 SEC

 FILE SIZES:   FILE 1:     7.9 MBYTE,  FILE 4:     4.2 MBYTE,   TOTAL:     12.2 MBYTE

 OPERATOR DM      FOR CENTER  0  COORDINATES:    0.000000    0.000000    0.000000


 **********************************************************************************************************************************
 DATASETS  * FILE   NREC   LENGTH (MB)   RECORD NAMES
              1      19        7.82       500      610      700      900      950      970     1000      129      960     1100   
                                          VAR    BASINP    GEOM    SYMINP    ZMAT    AOBASIS   BASIS     P2S    ABASIS      S 
                                         1400     1410     1200     1210     1080     1600     1650     1300     1700   
                                           T        V       H0       H01     AOSYM     SMH    MOLCAS    ERIS     OPER   

 PROGRAMS   *        TOTAL       INT
 CPU TIMES  *         0.29      0.19
 REAL TIME  *         5.94 SEC
 DISK USED  *        12.57 MB      
 **********************************************************************************************************************************

1PROGRAM * RHF-SCF (CLOSED SHELL)       Authors: W. Meyer, H.-J. Werner


 NUMBER OF ELECTRONS:      18+   18-
 CONVERGENCE THRESHOLDS:    1.00E-05 (Density)    1.00E-07 (Energy)
 MAX. NUMBER OF ITERATIONS:       60
 INTERPOLATION TYPE:            DIIS
 INTERPOLATION STEPS:              2 (START)      1 (STEP)
 LEVEL SHIFTS:                  0.00 (CLOSED)  0.00 (OPEN) 



 Orbital guess generated from atomic densities. Full valence occupancy:   13  11   3   2

 Molecular orbital dump at record        2100.2

 Initial occupancy:   9   6   2   1

 ITERATION    DDIFF          GRAD             ENERGY        2-EL.EN.            DIPOLE MOMENTS         DIIS   ORB.
    1      0.000D+00      0.000D+00      -225.66982580    485.150650    0.00000    0.00000   -0.33564    0    start
    2      0.000D+00      0.265D-01      -225.74036913    480.054554    0.00000    0.00000   -0.26882    1    diag
    3      0.504D-01      0.689D-02      -225.74384061    480.082453    0.00000    0.00000   -0.11874    2    diag
    4      0.111D-01      0.175D-02      -225.74413760    480.068099    0.00000    0.00000   -0.18674    3    diag
    5      0.299D-02      0.469D-03      -225.74415893    480.053227    0.00000    0.00000   -0.17213    4    diag
    6      0.757D-03      0.137D-03      -225.74416330    480.058604    0.00000    0.00000   -0.17890    5    diag
    7      0.355D-03      0.635D-04      -225.74416424    480.058893    0.00000    0.00000   -0.17876    6    diag
    8      0.217D-03      0.103D-04      -225.74416427    480.058977    0.00000    0.00000   -0.17873    7    diag
    9      0.430D-04      0.272D-05      -225.74416427    480.059004    0.00000    0.00000   -0.17872    8    diag
   10      0.117D-04      0.464D-06      -225.74416427    480.059010    0.00000    0.00000   -0.17872    9    orth
   11      0.168D-05      0.636D-07      -225.74416427    480.059010    0.00000    0.00000   -0.17872    0    orth

 Final occupancy:   9   6   2   1

 !RHF STATE 1.1 Energy               -225.744164271234
 Nuclear energy                       160.62587613
 One-electron energy                 -626.39954544
 Two-electron energy                  240.02950505
 Virial quotient                       -1.00954021
 !RHF STATE 1.1 Dipole moment           0.00000000     0.00000000    -0.17872062
 Dipole moment /Debye                   0.00000000     0.00000000    -0.45423276

 Orbital energies:

         1.1          2.1          3.1          4.1          5.1          6.1          7.1          8.1          9.1         10.1
    -20.379417   -11.068571   -11.015528    -1.389659    -1.023768    -0.731611    -0.676806    -0.497799    -0.448814     0.548186

        11.1
      0.615302

         1.2          2.2          3.2          4.2          5.2          6.2          7.2          8.2
    -11.068902   -11.015267    -0.933149    -0.726636    -0.549831    -0.504135     0.657246     0.696752

         1.3          2.3          3.3
     -0.556798    -0.328270     0.278321

         1.4          2.4
     -0.255306     0.394521

 HOMO      1.4    -0.255306 =      -6.9472eV
 LUMO      3.3     0.278321 =       7.5735eV
 LUMO-HOMO         0.533627 =      14.5207eV


 **********************************************************************************************************************************
 DATASETS  * FILE   NREC   LENGTH (MB)   RECORD NAMES
              1      19        7.82       500      610      700      900      950      970     1000      129      960     1100   
                                          VAR    BASINP    GEOM    SYMINP    ZMAT    AOBASIS   BASIS     P2S    ABASIS      S 
                                         1400     1410     1200     1210     1080     1600     1650     1300     1700   
                                           T        V       H0       H01     AOSYM     SMH    MOLCAS    ERIS     OPER   

              2       4        0.51       700     1000      520     2100   
                                         GEOM     BASIS   MCVARS     RHF  

 PROGRAMS   *        TOTAL        HF       INT
 CPU TIMES  *         0.37      0.08      0.19
 REAL TIME  *         8.32 SEC
 DISK USED  *        12.57 MB      
 **********************************************************************************************************************************

        HF-SCF  
   -225.74416427
 **********************************************************************************************************************************
 Variable memory released
