
 Primary working directories    : /scr/kumo
 Secondary working directories  : /scr/kumo
 Wavefunction directory         : /valhalla/home/kumo/wfu/
 Main file repository           : /scr/kumo/

 SHA1      : 5b1d074a25eef39b04831e9568c159f1d25e52e7
 ARCHNAME  : Linux/x86_64
 FC        : /opt/intel_2011p10/composer_xe_2011_sp1.10.319/bin/intel64/ifort
 FCVERSION : 12.1.4
 BLASLIB   : -L/opt/intel_2011p10/composer_xe_2011_sp1.10.319/mkl/lib/intel64 -lmkl_intel_ilp64 -lmkl_sequential -lmkl_core
 id        : kumo

 Nodes     nprocs
 hel06        1

 Using customized tuning parameters: mindgm=1; mindgv=20; mindgc=4; mindgr=1; noblas=0; minvec=7
 default implementation of scratch files=df  

 memory,100,m
 geomtyp=xyz
 geometry={
 9
 C1    -0.69646947   0.00000000  -0.71233354
 C2     0.69646947   0.00000000  -0.71233354
 C3    -1.09300106   0.00000000   0.60180236
 C4     1.09829283   0.00000000   0.60180236
 O5    -0.00000000   0.00000000   1.42642658
 H6    -1.33894115   0.00000000  -1.58003092
 H7     1.33894115   0.00000000  -1.58003092
 H8    -2.11150976   0.00000000   0.97734881
 H9     2.11150976   0.00000000   0.97734881
 }
 basis=sto-3G
 hf
 

 Variables initialized (801), CPU time= 0.01 sec
 Commands  initialized (611), CPU time= 0.01 sec, 523 directives.
 Default parameters read. Elapsed time= 2.70 sec

 Checking input...
 Passed
1


                                         ***  PROGRAM SYSTEM MOLPRO  ***
                         Copyright, University College Cardiff Consultants Limited, 2008

                                    Version 2099.9 linked 31 Mar 2014 17:15:48


 **********************************************************************************************************************************
 LABEL *                                                                                 
 Linux-3.13.0-24-generic/hel06(x86_64) 64 bit serial version                             DATE: 04-Mar-15          TIME: 17:52:06  
 **********************************************************************************************************************************

 SHA1:             5b1d074a25eef39b04831e9568c159f1d25e52e7

 Develop Directory: /home/kumo/development/regions_orbital_inp_parallel

 Included files:    ccmp2_loc3.F ccsd_loc.F ciinp.F local_init.F orbdom.F r12dom.F
                    region.F
 **********************************************************************************************************************************
 SETTING GEOMTYP        =    XYZ

 Variable memory set to  100000000 words,  buffer space   230000 words

 SETTING BASIS          =    STO-3G


 Recomputing integrals since basis changed


 Using spherical harmonics

 Library entry C      S STO-3G               selected for orbital group  1
 Library entry C      P STO-3G               selected for orbital group  1
 Library entry O      S STO-3G               selected for orbital group  2
 Library entry O      P STO-3G               selected for orbital group  2
 Library entry H      S STO-3G               selected for orbital group  3

1PROGRAM * SEWARD (Integral evaluation for generally contracted gaussian basis sets)     Author: Roland Lindh, 1990

 Geometry written to block  1 of record 700


 Point group  Cs  



 ATOMIC COORDINATES

 NR  ATOM    CHARGE       X              Y              Z

   1  C1      6.00   -1.316136557    0.000000000   -1.346115305
   2  C2      6.00    1.316136557    0.000000000   -1.346115305
   3  C3      6.00   -2.065472665    0.000000000    1.137241646
   4  C4      6.00    2.075472661    0.000000000    1.137241646
   5  O5      8.00    0.000000000    0.000000000    2.695555583
   6  H6      1.00   -2.530232080    0.000000000   -2.985825718
   7  H7      1.00    2.530232080    0.000000000   -2.985825718
   8  H8      1.00   -3.990175170    0.000000000    1.846921586
   9  H9      1.00    3.990175170    0.000000000    1.846921586

 Bond lengths in Bohr (Angstrom)

 1-2  2.632273114  1-3  2.593948023  1-6  2.040264242  2-4  2.596854455  2-7  2.040264242
     ( 1.392938940)     ( 1.372658175)     ( 1.079661337)     ( 1.374196193)     ( 1.079661337)

 3-5  2.587376984  3-8  2.051371578  4-5  2.595366851  4-9  2.041991997
     ( 1.369180931)     ( 1.085539086)     ( 1.373408987)     ( 1.080575626)

 Bond angles

  1-2-4  107.00206122   1-2-7  126.51746446   1-3-5  110.24221534   1-3-8  127.03086666

  2-1-3  106.79083214   2-1-6  126.51746446   2-4-5  109.89802677   2-4-9  127.33916615

  3-1-6  126.69170340   3-5-4  106.06686452   4-2-7  126.48047432   5-3-8  122.72691799

  5-4-9  122.76280708

 NUCLEAR CHARGE:                   36
 NUMBER OF PRIMITIVE AOS:          87
 NUMBER OF SYMMETRY AOS:           87
 NUMBER OF CONTRACTIONS:           29   (  24A'  +   5A"  )
 NUMBER OF CORE ORBITALS:           5   (   5A'  +   0A"  )
 NUMBER OF VALENCE ORBITALS:       24   (  19A'  +   5A"  )


 NUCLEAR REPULSION ENERGY  160.58287777


 Eigenvalues of metric

         1 0.173E+00 0.221E+00 0.271E+00 0.290E+00 0.299E+00 0.317E+00 0.349E+00 0.385E+00
         2 0.668E+00 0.742E+00 0.106E+01 0.107E+01 0.146E+01


 Contracted 2-electron integrals neglected if value below      1.0D-11
 AO integral compression algorithm  1   Integral accuracy      1.0D-11

     0.524 MB (compressed) written to integral file (100.0%)


 NUMBER OF SORTED TWO-ELECTRON INTEGRALS:      58770.     BUFFER LENGTH:  32768
 NUMBER OF SEGMENTS:   1  SEGMENT LENGTH:      58770      RECORD LENGTH: 524288

 Memory used in sort:       0.62 MW

 SORT1 READ       66565. AND WROTE       56229. INTEGRALS IN      1 RECORDS. CPU TIME:     0.00 SEC, REAL TIME:     0.05 SEC
 SORT2 READ       56229. AND WROTE       58770. INTEGRALS IN      2 RECORDS. CPU TIME:     0.01 SEC, REAL TIME:     0.01 SEC

 FILE SIZES:   FILE 1:     8.2 MBYTE,  FILE 4:     4.2 MBYTE,   TOTAL:     12.4 MBYTE

 OPERATOR DM      FOR CENTER  0  COORDINATES:    0.000000    0.000000    0.000000


 **********************************************************************************************************************************
 DATASETS  * FILE   NREC   LENGTH (MB)   RECORD NAMES
              1      19        7.95       500      610      700      900      950      970     1000      129      960     1100   
                                          VAR    BASINP    GEOM    SYMINP    ZMAT    AOBASIS   BASIS     P2S    ABASIS      S 
                                         1400     1410     1200     1210     1080     1600     1650     1300     1700   
                                           T        V       H0       H01     AOSYM     SMH    MOLCAS    ERIS     OPER   

 PROGRAMS   *        TOTAL       INT
 CPU TIMES  *         0.37      0.26
 REAL TIME  *         7.90 SEC
 DISK USED  *        12.84 MB      
 **********************************************************************************************************************************

1PROGRAM * RHF-SCF (CLOSED SHELL)       Authors: W. Meyer, H.-J. Werner


 NUMBER OF ELECTRONS:      18+   18-
 CONVERGENCE THRESHOLDS:    1.00E-05 (Density)    1.00E-07 (Energy)
 MAX. NUMBER OF ITERATIONS:       60
 INTERPOLATION TYPE:            DIIS
 INTERPOLATION STEPS:              2 (START)      1 (STEP)
 LEVEL SHIFTS:                  0.00 (CLOSED)  0.00 (OPEN) 



 Orbital guess generated from atomic densities. Full valence occupancy:   24   5

 Molecular orbital dump at record        2100.2

 Initial occupancy:  15   3

 ITERATION    DDIFF          GRAD             ENERGY        2-EL.EN.            DIPOLE MOMENTS         DIIS   ORB.
    1      0.000D+00      0.000D+00      -225.67026783    485.058931   -0.00040    0.00000   -0.34270    0    start
    2      0.000D+00      0.185D-01      -225.74059360    479.975646   -0.00409    0.00000   -0.27336    1    diag
    3      0.361D-01      0.477D-02      -225.74399987    479.995634   -0.00028    0.00000   -0.12408    2    diag
    4      0.790D-02      0.123D-02      -225.74430085    479.982817   -0.00133    0.00000   -0.19232    3    diag
    5      0.216D-02      0.330D-03      -225.74432293    479.968008   -0.00117    0.00000   -0.17772    4    diag
    6      0.550D-03      0.977D-04      -225.74432754    479.973439   -0.00121    0.00000   -0.18460    5    diag
    7      0.260D-03      0.458D-04      -225.74432855    479.973741   -0.00124    0.00000   -0.18443    6    diag
    8      0.159D-03      0.734D-05      -225.74432859    479.973828   -0.00123    0.00000   -0.18440    7    diag
    9      0.298D-04      0.195D-05      -225.74432859    479.973854   -0.00125    0.00000   -0.18439    8    diag
   10      0.770D-05      0.471D-06      -225.74432859    479.973861   -0.00124    0.00000   -0.18440    0    orth

 Final occupancy:  15   3

 !RHF STATE 1.1 Energy               -225.744328588112
 Nuclear energy                       160.58287777
 One-electron energy                 -626.31413673
 Two-electron energy                  239.98693037
 Virial quotient                       -1.00954583
 !RHF STATE 1.1 Dipole moment          -0.00123532     0.00000000    -0.18439900
 Dipole moment /Debye                  -0.00313966     0.00000000    -0.46866480

 Orbital energies:

         1.1          2.1          3.1          4.1          5.1          6.1          7.1          8.1          9.1         10.1
    -20.379795   -11.069235   -11.068060   -11.015945   -11.015370    -1.389426    -1.024719    -0.932388    -0.731143    -0.726491

        11.1         12.1         13.1         14.1         15.1         16.1         17.1
     -0.676694    -0.547994    -0.504384    -0.497656    -0.449893     0.548712     0.614089

         1.2          2.2          3.2          4.2          5.2
     -0.556730    -0.328927    -0.255287     0.278162     0.394667

 HOMO      3.2    -0.255287 =      -6.9467eV
 LUMO      4.2     0.278162 =       7.5692eV
 LUMO-HOMO         0.533449 =      14.5159eV


 **********************************************************************************************************************************
 DATASETS  * FILE   NREC   LENGTH (MB)   RECORD NAMES
              1      19        7.95       500      610      700      900      950      970     1000      129      960     1100   
                                          VAR    BASINP    GEOM    SYMINP    ZMAT    AOBASIS   BASIS     P2S    ABASIS      S 
                                         1400     1410     1200     1210     1080     1600     1650     1300     1700   
                                           T        V       H0       H01     AOSYM     SMH    MOLCAS    ERIS     OPER   

              2       4        0.51       700     1000      520     2100   
                                         GEOM     BASIS   MCVARS     RHF  

 PROGRAMS   *        TOTAL        HF       INT
 CPU TIMES  *         0.45      0.08      0.26
 REAL TIME  *        12.99 SEC
 DISK USED  *        12.84 MB      
 **********************************************************************************************************************************

        HF-SCF  
   -225.74432859
 **********************************************************************************************************************************
 Variable memory released
