
 Primary working directories    : /scr/kumo
 Secondary working directories  : /scr/kumo
 Wavefunction directory         : /valhalla/home/kumo/wfu/
 Main file repository           : /scr/kumo/

 SHA1      : 5b1d074a25eef39b04831e9568c159f1d25e52e7
 ARCHNAME  : Linux/x86_64
 FC        : /opt/intel_2011p10/composer_xe_2011_sp1.10.319/bin/intel64/ifort
 FCVERSION : 12.1.4
 BLASLIB   : -L/opt/intel_2011p10/composer_xe_2011_sp1.10.319/mkl/lib/intel64 -lmkl_intel_ilp64 -lmkl_sequential -lmkl_core
 id        : kumo

 Nodes     nprocs
 hel06        1

 Using customized tuning parameters: mindgm=1; mindgv=20; mindgc=4; mindgr=1; noblas=0; minvec=7
 default implementation of scratch files=df  

 memory,100,m
 geomtyp=xyz
 geometry={
 9
 C1    -0.69646947   0.00000000  -0.71233354
 C2     0.69646947   0.00000000  -0.71233354
 C3    -1.09829283   0.00000000   0.60180236
 C4     1.09829283   0.00000000   0.60180236
 O5    -0.00000000   0.00000000   1.42642658
 H6    -1.33894115   0.00000000  -1.58003092
 H7     1.33364937   0.00000000  -1.58003092
 H8    -2.11150976   0.00000000   0.97734881
 H9     2.11150976   0.00000000   0.97734881
 }
 basis=sto-3G
 hf
 

 Variables initialized (801), CPU time= 0.01 sec
 Commands  initialized (611), CPU time= 0.01 sec, 523 directives.
 Default parameters read. Elapsed time= 1.54 sec

 Checking input...
 Passed
1


                                         ***  PROGRAM SYSTEM MOLPRO  ***
                         Copyright, University College Cardiff Consultants Limited, 2008

                                    Version 2099.9 linked 31 Mar 2014 17:15:48


 **********************************************************************************************************************************
 LABEL *                                                                                 
 Linux-3.13.0-24-generic/hel06(x86_64) 64 bit serial version                             DATE: 04-Mar-15          TIME: 17:58:26  
 **********************************************************************************************************************************

 SHA1:             5b1d074a25eef39b04831e9568c159f1d25e52e7

 Develop Directory: /home/kumo/development/regions_orbital_inp_parallel

 Included files:    ccmp2_loc3.F ccsd_loc.F ciinp.F local_init.F orbdom.F r12dom.F
                    region.F
 **********************************************************************************************************************************
 SETTING GEOMTYP        =    XYZ

 Variable memory set to  100000000 words,  buffer space   230000 words

 SETTING BASIS          =    STO-3G


 Recomputing integrals since basis changed


 Using spherical harmonics

 Library entry C      S STO-3G               selected for orbital group  1
 Library entry C      P STO-3G               selected for orbital group  1
 Library entry O      S STO-3G               selected for orbital group  2
 Library entry O      P STO-3G               selected for orbital group  2
 Library entry H      S STO-3G               selected for orbital group  3

1PROGRAM * SEWARD (Integral evaluation for generally contracted gaussian basis sets)     Author: Roland Lindh, 1990

 Geometry written to block  1 of record 700


 Point group  Cs  



 ATOMIC COORDINATES

 NR  ATOM    CHARGE       X              Y              Z

   1  C1      6.00   -1.316136557    0.000000000   -1.346115305
   2  C2      6.00    1.316136557    0.000000000   -1.346115305
   3  C3      6.00   -2.075472661    0.000000000    1.137241646
   4  C4      6.00    2.075472661    0.000000000    1.137241646
   5  O5      8.00    0.000000000    0.000000000    2.695555583
   6  H6      1.00   -2.530232080    0.000000000   -2.985825718
   7  H7      1.00    2.520232065    0.000000000   -2.985825718
   8  H8      1.00   -3.990175170    0.000000000    1.846921586
   9  H9      1.00    3.990175170    0.000000000    1.846921586

 Bond lengths in Bohr (Angstrom)

 1-2  2.632273114  1-3  2.596854455  1-6  2.040264242  2-4  2.596854455  2-7  2.034329430
     ( 1.392938940)     ( 1.374196193)     ( 1.079661337)     ( 1.374196193)     ( 1.076520770)

 3-5  2.595366851  3-8  2.041991997  4-5  2.595366851  4-9  2.041991997
     ( 1.373408987)     ( 1.080575626)     ( 1.373408987)     ( 1.080575626)

 Bond angles

  1-2-4  107.00206122   1-2-7  126.29111271   1-3-5  109.89802677   1-3-8  127.33916615

  2-1-3  107.00206122   2-1-6  126.51746446   2-4-5  109.89802677   2-4-9  127.33916615

  3-1-6  126.48047432   3-5-4  106.19982401   4-2-7  126.70682607   5-3-8  122.76280708

  5-4-9  122.76280708

 NUCLEAR CHARGE:                   36
 NUMBER OF PRIMITIVE AOS:          87
 NUMBER OF SYMMETRY AOS:           87
 NUMBER OF CONTRACTIONS:           29   (  24A'  +   5A"  )
 NUMBER OF CORE ORBITALS:           5   (   5A'  +   0A"  )
 NUMBER OF VALENCE ORBITALS:       24   (  19A'  +   5A"  )


 NUCLEAR REPULSION ENERGY  160.49841032


 Eigenvalues of metric

         1 0.174E+00 0.221E+00 0.271E+00 0.289E+00 0.299E+00 0.316E+00 0.348E+00 0.385E+00
         2 0.668E+00 0.743E+00 0.106E+01 0.107E+01 0.146E+01


 Contracted 2-electron integrals neglected if value below      1.0D-11
 AO integral compression algorithm  1   Integral accuracy      1.0D-11

     0.524 MB (compressed) written to integral file (100.0%)


 NUMBER OF SORTED TWO-ELECTRON INTEGRALS:      58770.     BUFFER LENGTH:  32768
 NUMBER OF SEGMENTS:   1  SEGMENT LENGTH:      58770      RECORD LENGTH: 524288

 Memory used in sort:       0.62 MW

 SORT1 READ       66565. AND WROTE       56218. INTEGRALS IN      1 RECORDS. CPU TIME:     0.00 SEC, REAL TIME:     0.03 SEC
 SORT2 READ       56218. AND WROTE       58770. INTEGRALS IN      2 RECORDS. CPU TIME:     0.01 SEC, REAL TIME:     0.01 SEC

 FILE SIZES:   FILE 1:     8.2 MBYTE,  FILE 4:     4.2 MBYTE,   TOTAL:     12.4 MBYTE

 OPERATOR DM      FOR CENTER  0  COORDINATES:    0.000000    0.000000    0.000000


 **********************************************************************************************************************************
 DATASETS  * FILE   NREC   LENGTH (MB)   RECORD NAMES
              1      19        7.95       500      610      700      900      950      970     1000      129      960     1100   
                                          VAR    BASINP    GEOM    SYMINP    ZMAT    AOBASIS   BASIS     P2S    ABASIS      S 
                                         1400     1410     1200     1210     1080     1600     1650     1300     1700   
                                           T        V       H0       H01     AOSYM     SMH    MOLCAS    ERIS     OPER   

 PROGRAMS   *        TOTAL       INT
 CPU TIMES  *         0.36      0.26
 REAL TIME  *         7.25 SEC
 DISK USED  *        12.84 MB      
 **********************************************************************************************************************************

1PROGRAM * RHF-SCF (CLOSED SHELL)       Authors: W. Meyer, H.-J. Werner


 NUMBER OF ELECTRONS:      18+   18-
 CONVERGENCE THRESHOLDS:    1.00E-05 (Density)    1.00E-07 (Energy)
 MAX. NUMBER OF ITERATIONS:       60
 INTERPOLATION TYPE:            DIIS
 INTERPOLATION STEPS:              2 (START)      1 (STEP)
 LEVEL SHIFTS:                  0.00 (CLOSED)  0.00 (OPEN) 



 Orbital guess generated from atomic densities. Full valence occupancy:   24   5

 Molecular orbital dump at record        2100.2

 Initial occupancy:  15   3

 ITERATION    DDIFF          GRAD             ENERGY        2-EL.EN.            DIPOLE MOMENTS         DIIS   ORB.
    1      0.000D+00      0.000D+00      -225.67005579    484.896698   -0.00264    0.00000   -0.34416    0    start
    2      0.000D+00      0.185D-01      -225.74041472    479.819042   -0.00067    0.00000   -0.27315    1    diag
    3      0.361D-01      0.482D-02      -225.74389874    479.845677   -0.00042    0.00000   -0.12579    2    diag
    4      0.796D-02      0.123D-02      -225.74419942    479.830487   -0.00043    0.00000   -0.19302    3    diag
    5      0.215D-02      0.329D-03      -225.74422158    479.815902   -0.00045    0.00000   -0.17851    4    diag
    6      0.552D-03      0.985D-04      -225.74422631    479.821420   -0.00044    0.00000   -0.18550    5    diag
    7      0.263D-03      0.464D-04      -225.74422736    479.821726   -0.00045    0.00000   -0.18532    6    diag
    8      0.162D-03      0.740D-05      -225.74422739    479.821812   -0.00045    0.00000   -0.18529    7    diag
    9      0.301D-04      0.196D-05      -225.74422739    479.821840   -0.00045    0.00000   -0.18528    8    diag
   10      0.806D-05      0.328D-06      -225.74422739    479.821845   -0.00045    0.00000   -0.18529    0    orth

 Final occupancy:  15   3

 !RHF STATE 1.1 Energy               -225.744227394077
 Nuclear energy                       160.49841032
 One-electron energy                 -626.15356041
 Two-electron energy                  239.91092269
 Virial quotient                       -1.00955267
 !RHF STATE 1.1 Dipole moment          -0.00044835     0.00000000    -0.18528812
 Dipole moment /Debye                  -0.00113953     0.00000000    -0.47092459

 Orbital energies:

         1.1          2.1          3.1          4.1          5.1          6.1          7.1          8.1          9.1         10.1
    -20.378654   -11.068749   -11.068365   -11.015885   -11.015623    -1.387459    -1.024277    -0.932335    -0.732046    -0.726187

        11.1         12.1         13.1         14.1         15.1         16.1         17.1
     -0.676698    -0.548426    -0.504693    -0.497630    -0.449449     0.547442     0.615955

         1.2          2.2          3.2          4.2          5.2
     -0.555497    -0.328696    -0.255187     0.277379     0.394415

 HOMO      3.2    -0.255187 =      -6.9440eV
 LUMO      4.2     0.277379 =       7.5479eV
 LUMO-HOMO         0.532566 =      14.4919eV


 **********************************************************************************************************************************
 DATASETS  * FILE   NREC   LENGTH (MB)   RECORD NAMES
              1      19        7.95       500      610      700      900      950      970     1000      129      960     1100   
                                          VAR    BASINP    GEOM    SYMINP    ZMAT    AOBASIS   BASIS     P2S    ABASIS      S 
                                         1400     1410     1200     1210     1080     1600     1650     1300     1700   
                                           T        V       H0       H01     AOSYM     SMH    MOLCAS    ERIS     OPER   

              2       4        0.51       700     1000      520     2100   
                                         GEOM     BASIS   MCVARS     RHF  

 PROGRAMS   *        TOTAL        HF       INT
 CPU TIMES  *         0.44      0.08      0.26
 REAL TIME  *         9.84 SEC
 DISK USED  *        12.84 MB      
 **********************************************************************************************************************************

        HF-SCF  
   -225.74422739
 **********************************************************************************************************************************
 Variable memory released
