
 Primary working directories    : /scr/kumo
 Secondary working directories  : /scr/kumo
 Wavefunction directory         : /valhalla/home/kumo/wfu/
 Main file repository           : /scr/kumo/

 SHA1      : 5b1d074a25eef39b04831e9568c159f1d25e52e7
 ARCHNAME  : Linux/x86_64
 FC        : /opt/intel_2011p10/composer_xe_2011_sp1.10.319/bin/intel64/ifort
 FCVERSION : 12.1.4
 BLASLIB   : -L/opt/intel_2011p10/composer_xe_2011_sp1.10.319/mkl/lib/intel64 -lmkl_intel_ilp64 -lmkl_sequential -lmkl_core
 id        : kumo

 Nodes     nprocs
 hel06        1

 Using customized tuning parameters: mindgm=1; mindgv=20; mindgc=4; mindgr=1; noblas=0; minvec=7
 default implementation of scratch files=df  

 memory,100,m
 geomtyp=xyz
 geometry={
 9
 C1    -0.69646947   0.00000000  -0.71233354
 C2     0.69646947   0.00000000  -0.71233354
 C3    -1.09829283   0.00000000   0.59651059
 C4     1.09829283   0.00000000   0.60180236
 O5    -0.00000000   0.00000000   1.42642658
 H6    -1.33894115   0.00000000  -1.58003092
 H7     1.33894115   0.00000000  -1.58003092
 H8    -2.11150976   0.00000000   0.97734881
 H9     2.11150976   0.00000000   0.97734881
 }
 basis=sto-3G
 hf
 

 Variables initialized (801), CPU time= 0.00 sec
 Commands  initialized (611), CPU time= 0.01 sec, 523 directives.
 Default parameters read. Elapsed time= 0.40 sec

 Checking input...
 Passed
1


                                         ***  PROGRAM SYSTEM MOLPRO  ***
                         Copyright, University College Cardiff Consultants Limited, 2008

                                    Version 2099.9 linked 31 Mar 2014 17:15:48


 **********************************************************************************************************************************
 LABEL *                                                                                 
 Linux-3.13.0-24-generic/hel06(x86_64) 64 bit serial version                             DATE: 04-Mar-15          TIME: 17:53:59  
 **********************************************************************************************************************************

 SHA1:             5b1d074a25eef39b04831e9568c159f1d25e52e7

 Develop Directory: /home/kumo/development/regions_orbital_inp_parallel

 Included files:    ccmp2_loc3.F ccsd_loc.F ciinp.F local_init.F orbdom.F r12dom.F
                    region.F
 **********************************************************************************************************************************
 SETTING GEOMTYP        =    XYZ

 Variable memory set to  100000000 words,  buffer space   230000 words

 SETTING BASIS          =    STO-3G


 Recomputing integrals since basis changed


 Using spherical harmonics

 Library entry C      S STO-3G               selected for orbital group  1
 Library entry C      P STO-3G               selected for orbital group  1
 Library entry O      S STO-3G               selected for orbital group  2
 Library entry O      P STO-3G               selected for orbital group  2
 Library entry H      S STO-3G               selected for orbital group  3

1PROGRAM * SEWARD (Integral evaluation for generally contracted gaussian basis sets)     Author: Roland Lindh, 1990

 Geometry written to block  1 of record 700


 Point group  Cs  



 ATOMIC COORDINATES

 NR  ATOM    CHARGE       X              Y              Z

   1  C1      6.00   -1.316136557    0.000000000   -1.346115305
   2  C2      6.00    1.316136557    0.000000000   -1.346115305
   3  C3      6.00   -2.075472661    0.000000000    1.127241650
   4  C4      6.00    2.075472661    0.000000000    1.137241646
   5  O5      8.00    0.000000000    0.000000000    2.695555583
   6  H6      1.00   -2.530232080    0.000000000   -2.985825718
   7  H7      1.00    2.530232080    0.000000000   -2.985825718
   8  H8      1.00   -3.990175170    0.000000000    1.846921586
   9  H9      1.00    3.990175170    0.000000000    1.846921586

 Bond lengths in Bohr (Angstrom)

 1-2  2.632273114  1-3  2.587293169  1-6  2.040264242  2-4  2.596854455  2-7  2.040264242
     ( 1.392938940)     ( 1.369136578)     ( 1.079661337)     ( 1.374196193)     ( 1.079661337)

 3-5  2.601383355  3-8  2.045488917  4-5  2.595366851  4-9  2.041991997
     ( 1.376592783)     ( 1.082426116)     ( 1.373408987)     ( 1.080575626)

 Bond angles

  1-2-4  107.00206122   1-2-7  126.51746446   1-3-5  110.00940476   1-3-8  127.66656768

  2-1-3  107.06681474   2-1-6  126.51746446   2-4-5  109.89802677   2-4-9  127.33916615

  3-1-6  126.41572080   3-5-4  106.02369250   4-2-7  126.48047432   5-3-8  122.32402756

  5-4-9  122.76280708

 NUCLEAR CHARGE:                   36
 NUMBER OF PRIMITIVE AOS:          87
 NUMBER OF SYMMETRY AOS:           87
 NUMBER OF CONTRACTIONS:           29   (  24A'  +   5A"  )
 NUMBER OF CORE ORBITALS:           5   (   5A'  +   0A"  )
 NUMBER OF VALENCE ORBITALS:       24   (  19A'  +   5A"  )


 NUCLEAR REPULSION ENERGY  160.50365705


 Eigenvalues of metric

         1 0.173E+00 0.220E+00 0.271E+00 0.290E+00 0.300E+00 0.316E+00 0.348E+00 0.386E+00
         2 0.667E+00 0.743E+00 0.106E+01 0.107E+01 0.146E+01


 Contracted 2-electron integrals neglected if value below      1.0D-11
 AO integral compression algorithm  1   Integral accuracy      1.0D-11

     0.524 MB (compressed) written to integral file (100.0%)


 NUMBER OF SORTED TWO-ELECTRON INTEGRALS:      58770.     BUFFER LENGTH:  32768
 NUMBER OF SEGMENTS:   1  SEGMENT LENGTH:      58770      RECORD LENGTH: 524288

 Memory used in sort:       0.62 MW

 SORT1 READ       66565. AND WROTE       56552. INTEGRALS IN      1 RECORDS. CPU TIME:     0.00 SEC, REAL TIME:     0.00 SEC
 SORT2 READ       56552. AND WROTE       58770. INTEGRALS IN      2 RECORDS. CPU TIME:     0.01 SEC, REAL TIME:     0.01 SEC

 FILE SIZES:   FILE 1:     8.2 MBYTE,  FILE 4:     4.2 MBYTE,   TOTAL:     12.4 MBYTE

 OPERATOR DM      FOR CENTER  0  COORDINATES:    0.000000    0.000000    0.000000


 **********************************************************************************************************************************
 DATASETS  * FILE   NREC   LENGTH (MB)   RECORD NAMES
              1      19        7.95       500      610      700      900      950      970     1000      129      960     1100   
                                          VAR    BASINP    GEOM    SYMINP    ZMAT    AOBASIS   BASIS     P2S    ABASIS      S 
                                         1400     1410     1200     1210     1080     1600     1650     1300     1700   
                                           T        V       H0       H01     AOSYM     SMH    MOLCAS    ERIS     OPER   

 PROGRAMS   *        TOTAL       INT
 CPU TIMES  *         0.36      0.25
 REAL TIME  *         4.91 SEC
 DISK USED  *        12.84 MB      
 **********************************************************************************************************************************

1PROGRAM * RHF-SCF (CLOSED SHELL)       Authors: W. Meyer, H.-J. Werner


 NUMBER OF ELECTRONS:      18+   18-
 CONVERGENCE THRESHOLDS:    1.00E-05 (Density)    1.00E-07 (Energy)
 MAX. NUMBER OF ITERATIONS:       60
 INTERPOLATION TYPE:            DIIS
 INTERPOLATION STEPS:              2 (START)      1 (STEP)
 LEVEL SHIFTS:                  0.00 (CLOSED)  0.00 (OPEN) 



 Orbital guess generated from atomic densities. Full valence occupancy:   24   5

 Molecular orbital dump at record        2100.2

 Initial occupancy:  15   3

 ITERATION    DDIFF          GRAD             ENERGY        2-EL.EN.            DIPOLE MOMENTS         DIIS   ORB.
    1      0.000D+00      0.000D+00      -225.67021135    484.935458    0.00189    0.00000   -0.35445    0    start
    2      0.000D+00      0.185D-01      -225.74086341    479.834360   -0.00157    0.00000   -0.27387    1    diag
    3      0.361D-01      0.482D-02      -225.74434494    479.865121    0.00085    0.00000   -0.13060    2    diag
    4      0.795D-02      0.123D-02      -225.74464571    479.849014    0.00034    0.00000   -0.19649    3    diag
    5      0.214D-02      0.329D-03      -225.74466837    479.834788    0.00046    0.00000   -0.18213    4    diag
    6      0.559D-03      0.100D-03      -225.74467334    479.840372    0.00045    0.00000   -0.18926    5    diag
    7      0.269D-03      0.477D-04      -225.74467446    479.840703    0.00046    0.00000   -0.18905    6    diag
    8      0.169D-03      0.751D-05      -225.74467450    479.840790    0.00046    0.00000   -0.18902    7    diag
    9      0.306D-04      0.198D-05      -225.74467450    479.840816    0.00045    0.00000   -0.18901    8    diag
   10      0.800D-05      0.359D-06      -225.74467450    479.840822    0.00046    0.00000   -0.18902    0    orth

 Final occupancy:  15   3

 !RHF STATE 1.1 Energy               -225.744674498881
 Nuclear energy                       160.50365705
 One-electron energy                 -626.16874270
 Two-electron energy                  239.92041115
 Virial quotient                       -1.00953686
 !RHF STATE 1.1 Dipole moment           0.00045709     0.00000000    -0.18901611
 Dipole moment /Debye                   0.00116173     0.00000000    -0.48039956

 Orbital energies:

         1.1          2.1          3.1          4.1          5.1          6.1          7.1          8.1          9.1         10.1
    -20.377463   -11.068828   -11.068324   -11.016549   -11.015724    -1.386265    -1.024998    -0.932476    -0.731786    -0.725840

        11.1         12.1         13.1         14.1         15.1         16.1         17.1
     -0.676359    -0.547124    -0.505002    -0.497433    -0.449778     0.547263     0.614044

         1.2          2.2          3.2          4.2          5.2
     -0.554996    -0.329102    -0.255912     0.277635     0.395149

 HOMO      3.2    -0.255912 =      -6.9637eV
 LUMO      4.2     0.277635 =       7.5548eV
 LUMO-HOMO         0.533548 =      14.5186eV


 **********************************************************************************************************************************
 DATASETS  * FILE   NREC   LENGTH (MB)   RECORD NAMES
              1      19        7.95       500      610      700      900      950      970     1000      129      960     1100   
                                          VAR    BASINP    GEOM    SYMINP    ZMAT    AOBASIS   BASIS     P2S    ABASIS      S 
                                         1400     1410     1200     1210     1080     1600     1650     1300     1700   
                                           T        V       H0       H01     AOSYM     SMH    MOLCAS    ERIS     OPER   

              2       4        0.51       700     1000      520     2100   
                                         GEOM     BASIS   MCVARS     RHF  

 PROGRAMS   *        TOTAL        HF       INT
 CPU TIMES  *         0.44      0.07      0.25
 REAL TIME  *         7.02 SEC
 DISK USED  *        12.84 MB      
 **********************************************************************************************************************************

        HF-SCF  
   -225.74467450
 **********************************************************************************************************************************
 Variable memory released
