9
 Vibration 19 Frame 0
C      -0.69009792   0.00000000  -0.71756556
C       0.69009792   0.00000000  -0.71756556
C      -1.09899972   0.00000000   0.60786733
C       1.09899972   0.00000000   0.60786733
O       0.00000000   0.00000000   1.43489378
H      -1.33161612   0.00000000  -1.58638157
H       1.33161612   0.00000000  -1.58638157
H      -2.11353252   0.00000000   0.97863290
H       2.11353252   0.00000000   0.97863290
9
 Vibration 19 Frame 1
C      -0.69134839  -0.00000005  -0.71699606
C       0.68884661  -0.00000017  -0.71813532
C      -1.09643797   0.00000008   0.61017412
C       1.10156169  -0.00000009   0.60556040
O      -0.00282899  -0.00000005   1.43489426
H      -1.32434640  -0.00000032  -1.59203593
H       1.33887598   0.00000193  -1.58073391
H      -2.11396548   0.00000093   0.97274170
H       2.11309825   0.00000101   0.98452800
9
 Vibration 19 Frame 2
C      -0.69259887  -0.00000011  -0.71642656
C       0.68759530  -0.00000033  -0.71870508
C      -1.09387621   0.00000016   0.61248091
C       1.10412365  -0.00000018   0.60325347
O      -0.00565797  -0.00000010   1.43489474
H      -1.31707668  -0.00000064  -1.59769029
H       1.34613583   0.00000387  -1.57508626
H      -2.11439845   0.00000186   0.96685049
H       2.11266399   0.00000203   0.99042309
9
 Vibration 19 Frame 3
C      -0.69384934  -0.00000016  -0.71585706
C       0.68634398  -0.00000050  -0.71927484
C      -1.09131446   0.00000024   0.61478770
C       1.10668561  -0.00000028   0.60094654
O      -0.00848696  -0.00000015   1.43489521
H      -1.30980696  -0.00000096  -1.60334465
H       1.35339569   0.00000580  -1.56943860
H      -2.11483141   0.00000279   0.96095929
H       2.11222973   0.00000304   0.99631819
9
 Vibration 19 Frame 4
C      -0.69509981  -0.00000021  -0.71528756
C       0.68509267  -0.00000066  -0.71984460
C      -1.08875270   0.00000032   0.61709449
C       1.10924757  -0.00000037   0.59863961
O      -0.01131595  -0.00000020   1.43489569
H      -1.30253724  -0.00000128  -1.60899902
H       1.36065554   0.00000774  -1.56379095
H      -2.11526438   0.00000373   0.95506808
H       2.11179546   0.00000406   1.00221328
9
 Vibration 19 Frame 5
C      -0.69635028  -0.00000027  -0.71471806
C       0.68384136  -0.00000083  -0.72041436
C      -1.08619094   0.00000040   0.61940127
C       1.11180954  -0.00000046   0.59633268
O      -0.01414493  -0.00000025   1.43489617
H      -1.29526752  -0.00000160  -1.61465338
H       1.36791539   0.00000967  -1.55814329
H      -2.11569735   0.00000466   0.94917688
H       2.11136120   0.00000507   1.00810838
9
 Vibration 19 Frame 6
C      -0.69760075  -0.00000032  -0.71414856
C       0.68259004  -0.00000100  -0.72098412
C      -1.08362919   0.00000048   0.62170806
C       1.11437150  -0.00000055   0.59402575
O      -0.01697392  -0.00000030   1.43489665
H      -1.28799779  -0.00000192  -1.62030774
H       1.37517525   0.00001161  -1.55249564
H      -2.11613031   0.00000559   0.94328567
H       2.11092694   0.00000608   1.01400347
9
 Vibration 19 Frame 7
C      -0.69885122  -0.00000037  -0.71357906
C       0.68133873  -0.00000116  -0.72155388
C      -1.08106743   0.00000056   0.62401485
C       1.11693346  -0.00000065   0.59171882
O      -0.01980290  -0.00000035   1.43489713
H      -1.28072807  -0.00000224  -1.62596210
H       1.38243510   0.00001354  -1.54684798
H      -2.11656328   0.00000652   0.93739447
H       2.11049267   0.00000710   1.01989857
9
 Vibration 19 Frame 8
C      -0.70010170  -0.00000043  -0.71300956
C       0.68008742  -0.00000133  -0.72212364
C      -1.07850568   0.00000063   0.62632164
C       1.11949543  -0.00000074   0.58941189
O      -0.02263189  -0.00000040   1.43489761
H      -1.27345835  -0.00000256  -1.63161646
H       1.38969496   0.00001548  -1.54120033
H      -2.11699624   0.00000745   0.93150326
H       2.11005841   0.00000811   1.02579366
9
 Vibration 19 Frame 9
C      -0.70135217  -0.00000048  -0.71244006
C       0.67883610  -0.00000150  -0.72269339
C      -1.07594392   0.00000071   0.62862843
C       1.12205739  -0.00000083   0.58710496
O      -0.02546088  -0.00000045   1.43489809
H      -1.26618863  -0.00000288  -1.63727083
H       1.39695481   0.00001741  -1.53555268
H      -2.11742921   0.00000838   0.92561206
H       2.10962415   0.00000913   1.03168875
9
 Vibration 19 Frame 10
C      -0.70260264  -0.00000054  -0.71187056
C       0.67758479  -0.00000166  -0.72326315
C      -1.07338217   0.00000079   0.63093521
C       1.12461935  -0.00000092   0.58479803
O      -0.02828986  -0.00000049   1.43489857
H      -1.25891891  -0.00000320  -1.64292519
H       1.40421466   0.00001935  -1.52990502
H      -2.11786217   0.00000931   0.91972085
H       2.10918988   0.00001014   1.03758385
9
 Vibration 19 Frame 11
C      -0.70385311  -0.00000059  -0.71130106
C       0.67633348  -0.00000183  -0.72383291
C      -1.07082041   0.00000087   0.63324200
C       1.12718131  -0.00000102   0.58249110
O      -0.03111885  -0.00000054   1.43489905
H      -1.25164919  -0.00000352  -1.64857955
H       1.41147452   0.00002128  -1.52425737
H      -2.11829514   0.00001025   0.91382965
H       2.10875562   0.00001115   1.04347894
9
 Vibration 19 Frame 12
C      -0.70510358  -0.00000064  -0.71073156
C       0.67508216  -0.00000199  -0.72440267
C      -1.06825865   0.00000095   0.63554879
C       1.12974328  -0.00000111   0.58018417
O      -0.03394784  -0.00000059   1.43489953
H      -1.24437946  -0.00000384  -1.65423391
H       1.41873437   0.00002322  -1.51860971
H      -2.11872810   0.00001118   0.90793844
H       2.10832135   0.00001217   1.04937404
9
 Vibration 19 Frame 13
C      -0.70635405  -0.00000070  -0.71016206
C       0.67383085  -0.00000216  -0.72497243
C      -1.06569690   0.00000103   0.63785558
C       1.13230524  -0.00000120   0.57787724
O      -0.03677682  -0.00000064   1.43490001
H      -1.23710974  -0.00000416  -1.65988828
H       1.42599423   0.00002515  -1.51296206
H      -2.11916107   0.00001211   0.90204724
H       2.10788709   0.00001318   1.05526913
9
 Vibration 19 Frame 14
C      -0.70760453  -0.00000075  -0.70959256
C       0.67257954  -0.00000233  -0.72554219
C      -1.06313514   0.00000111   0.64016237
C       1.13486720  -0.00000129   0.57557031
O      -0.03960581  -0.00000069   1.43490049
H      -1.22984002  -0.00000448  -1.66554264
H       1.43325408   0.00002709  -1.50731440
H      -2.11959404   0.00001304   0.89615603
H       2.10745283   0.00001420   1.06116423
9
 Vibration 19 Frame 15
C      -0.70885500  -0.00000080  -0.70902306
C       0.67132822  -0.00000249  -0.72611195
C      -1.06057339   0.00000119   0.64246915
C       1.13742916  -0.00000139   0.57326338
O      -0.04243479  -0.00000074   1.43490097
H      -1.22257030  -0.00000480  -1.67119700
H       1.44051393   0.00002902  -1.50166675
H      -2.12002700   0.00001397   0.89026483
H       2.10701856   0.00001521   1.06705932
9
 Vibration 19 Frame 16
C      -0.71010547  -0.00000086  -0.70845356
C       0.67007691  -0.00000266  -0.72668171
C      -1.05801163   0.00000127   0.64477594
C       1.13999113  -0.00000148   0.57095644
O      -0.04526378  -0.00000079   1.43490145
H      -1.21530058  -0.00000512  -1.67685136
H       1.44777379   0.00003096  -1.49601909
H      -2.12045997   0.00001490   0.88437362
H       2.10658430   0.00001622   1.07295442
9
 Vibration 19 Frame 17
C      -0.71135594  -0.00000091  -0.70788406
C       0.66882559  -0.00000283  -0.72725147
C      -1.05544988   0.00000135   0.64708273
C       1.14255309  -0.00000157   0.56864951
O      -0.04809277  -0.00000084   1.43490192
H      -1.20803085  -0.00000544  -1.68250572
H       1.45503364   0.00003289  -1.49037144
H      -2.12089293   0.00001584   0.87848242
H       2.10615004   0.00001724   1.07884951
9
 Vibration 19 Frame 18
C      -0.71260641  -0.00000096  -0.70731456
C       0.66757428  -0.00000299  -0.72782123
C      -1.05288812   0.00000143   0.64938952
C       1.14511505  -0.00000166   0.56634258
O      -0.05092175  -0.00000089   1.43490240
H      -1.20076113  -0.00000576  -1.68816009
H       1.46229350   0.00003483  -1.48472378
H      -2.12132590   0.00001677   0.87259121
H       2.10571577   0.00001825   1.08474461
9
 Vibration 19 Frame 19
C      -0.71385688  -0.00000102  -0.70674506
C       0.66632297  -0.00000316  -0.72839099
C      -1.05032636   0.00000151   0.65169631
C       1.14767702  -0.00000176   0.56403565
O      -0.05375074  -0.00000094   1.43490288
H      -1.19349141  -0.00000608  -1.69381445
H       1.46955335   0.00003676  -1.47907613
H      -2.12175886   0.00001770   0.86670001
H       2.10528151   0.00001926   1.09063970
9
 Vibration 19 Frame 20
C      -0.71510735  -0.00000107  -0.70617556
C       0.66507165  -0.00000332  -0.72896075
C      -1.04776461   0.00000159   0.65400309
C       1.15023898  -0.00000185   0.56172872
O      -0.05657973  -0.00000099   1.43490336
H      -1.18622169  -0.00000640  -1.69946881
H       1.47681320   0.00003870  -1.47342847
H      -2.12219183   0.00001863   0.86080880
H       2.10484725   0.00002028   1.09653479
9
 Vibration 19 Frame 21
C      -0.71385688  -0.00000102  -0.70674506
C       0.66632297  -0.00000316  -0.72839099
C      -1.05032636   0.00000151   0.65169631
C       1.14767702  -0.00000176   0.56403565
O      -0.05375074  -0.00000094   1.43490288
H      -1.19349141  -0.00000608  -1.69381445
H       1.46955335   0.00003676  -1.47907613
H      -2.12175886   0.00001770   0.86670001
H       2.10528151   0.00001926   1.09063970
9
 Vibration 19 Frame 22
C      -0.71260641  -0.00000096  -0.70731456
C       0.66757428  -0.00000299  -0.72782123
C      -1.05288812   0.00000143   0.64938952
C       1.14511505  -0.00000166   0.56634258
O      -0.05092175  -0.00000089   1.43490240
H      -1.20076113  -0.00000576  -1.68816009
H       1.46229350   0.00003483  -1.48472378
H      -2.12132590   0.00001677   0.87259121
H       2.10571577   0.00001825   1.08474461
9
 Vibration 19 Frame 23
C      -0.71135594  -0.00000091  -0.70788406
C       0.66882559  -0.00000283  -0.72725147
C      -1.05544988   0.00000135   0.64708273
C       1.14255309  -0.00000157   0.56864951
O      -0.04809277  -0.00000084   1.43490192
H      -1.20803085  -0.00000544  -1.68250572
H       1.45503364   0.00003289  -1.49037144
H      -2.12089293   0.00001584   0.87848242
H       2.10615004   0.00001724   1.07884951
9
 Vibration 19 Frame 24
C      -0.71010547  -0.00000086  -0.70845356
C       0.67007691  -0.00000266  -0.72668171
C      -1.05801163   0.00000127   0.64477594
C       1.13999113  -0.00000148   0.57095644
O      -0.04526378  -0.00000079   1.43490145
H      -1.21530058  -0.00000512  -1.67685136
H       1.44777379   0.00003096  -1.49601909
H      -2.12045997   0.00001490   0.88437362
H       2.10658430   0.00001622   1.07295442
9
 Vibration 19 Frame 25
C      -0.70885500  -0.00000080  -0.70902306
C       0.67132822  -0.00000249  -0.72611195
C      -1.06057339   0.00000119   0.64246915
C       1.13742916  -0.00000139   0.57326338
O      -0.04243479  -0.00000074   1.43490097
H      -1.22257030  -0.00000480  -1.67119700
H       1.44051393   0.00002902  -1.50166675
H      -2.12002700   0.00001397   0.89026483
H       2.10701856   0.00001521   1.06705932
9
 Vibration 19 Frame 26
C      -0.70760453  -0.00000075  -0.70959256
C       0.67257954  -0.00000233  -0.72554219
C      -1.06313514   0.00000111   0.64016237
C       1.13486720  -0.00000129   0.57557031
O      -0.03960581  -0.00000069   1.43490049
H      -1.22984002  -0.00000448  -1.66554264
H       1.43325408   0.00002709  -1.50731440
H      -2.11959404   0.00001304   0.89615603
H       2.10745283   0.00001420   1.06116423
9
 Vibration 19 Frame 27
C      -0.70635405  -0.00000070  -0.71016206
C       0.67383085  -0.00000216  -0.72497243
C      -1.06569690   0.00000103   0.63785558
C       1.13230524  -0.00000120   0.57787724
O      -0.03677682  -0.00000064   1.43490001
H      -1.23710974  -0.00000416  -1.65988828
H       1.42599423   0.00002515  -1.51296206
H      -2.11916107   0.00001211   0.90204724
H       2.10788709   0.00001318   1.05526913
9
 Vibration 19 Frame 28
C      -0.70510358  -0.00000064  -0.71073156
C       0.67508216  -0.00000199  -0.72440267
C      -1.06825865   0.00000095   0.63554879
C       1.12974328  -0.00000111   0.58018417
O      -0.03394784  -0.00000059   1.43489953
H      -1.24437946  -0.00000384  -1.65423391
H       1.41873437   0.00002322  -1.51860971
H      -2.11872810   0.00001118   0.90793844
H       2.10832135   0.00001217   1.04937404
9
 Vibration 19 Frame 29
C      -0.70385311  -0.00000059  -0.71130106
C       0.67633348  -0.00000183  -0.72383291
C      -1.07082041   0.00000087   0.63324200
C       1.12718131  -0.00000102   0.58249110
O      -0.03111885  -0.00000054   1.43489905
H      -1.25164919  -0.00000352  -1.64857955
H       1.41147452   0.00002128  -1.52425737
H      -2.11829514   0.00001025   0.91382965
H       2.10875562   0.00001115   1.04347894
9
 Vibration 19 Frame 30
C      -0.70260264  -0.00000054  -0.71187056
C       0.67758479  -0.00000166  -0.72326315
C      -1.07338217   0.00000079   0.63093521
C       1.12461935  -0.00000092   0.58479803
O      -0.02828986  -0.00000049   1.43489857
H      -1.25891891  -0.00000320  -1.64292519
H       1.40421466   0.00001935  -1.52990502
H      -2.11786217   0.00000931   0.91972085
H       2.10918988   0.00001014   1.03758385
9
 Vibration 19 Frame 31
C      -0.70135217  -0.00000048  -0.71244006
C       0.67883610  -0.00000150  -0.72269339
C      -1.07594392   0.00000071   0.62862843
C       1.12205739  -0.00000083   0.58710496
O      -0.02546088  -0.00000045   1.43489809
H      -1.26618863  -0.00000288  -1.63727083
H       1.39695481   0.00001741  -1.53555268
H      -2.11742921   0.00000838   0.92561206
H       2.10962415   0.00000913   1.03168875
9
 Vibration 19 Frame 32
C      -0.70010170  -0.00000043  -0.71300956
C       0.68008742  -0.00000133  -0.72212364
C      -1.07850568   0.00000063   0.62632164
C       1.11949543  -0.00000074   0.58941189
O      -0.02263189  -0.00000040   1.43489761
H      -1.27345835  -0.00000256  -1.63161646
H       1.38969496   0.00001548  -1.54120033
H      -2.11699624   0.00000745   0.93150326
H       2.11005841   0.00000811   1.02579366
9
 Vibration 19 Frame 33
C      -0.69885122  -0.00000037  -0.71357906
C       0.68133873  -0.00000116  -0.72155388
C      -1.08106743   0.00000056   0.62401485
C       1.11693346  -0.00000065   0.59171882
O      -0.01980290  -0.00000035   1.43489713
H      -1.28072807  -0.00000224  -1.62596210
H       1.38243510   0.00001354  -1.54684798
H      -2.11656328   0.00000652   0.93739447
H       2.11049267   0.00000710   1.01989857
9
 Vibration 19 Frame 34
C      -0.69760075  -0.00000032  -0.71414856
C       0.68259004  -0.00000100  -0.72098412
C      -1.08362919   0.00000048   0.62170806
C       1.11437150  -0.00000055   0.59402575
O      -0.01697392  -0.00000030   1.43489665
H      -1.28799779  -0.00000192  -1.62030774
H       1.37517525   0.00001161  -1.55249564
H      -2.11613031   0.00000559   0.94328567
H       2.11092694   0.00000608   1.01400347
9
 Vibration 19 Frame 35
C      -0.69635028  -0.00000027  -0.71471806
C       0.68384136  -0.00000083  -0.72041436
C      -1.08619094   0.00000040   0.61940127
C       1.11180954  -0.00000046   0.59633268
O      -0.01414493  -0.00000025   1.43489617
H      -1.29526752  -0.00000160  -1.61465338
H       1.36791539   0.00000967  -1.55814329
H      -2.11569735   0.00000466   0.94917688
H       2.11136120   0.00000507   1.00810838
9
 Vibration 19 Frame 36
C      -0.69509981  -0.00000021  -0.71528756
C       0.68509267  -0.00000066  -0.71984460
C      -1.08875270   0.00000032   0.61709449
C       1.10924757  -0.00000037   0.59863961
O      -0.01131595  -0.00000020   1.43489569
H      -1.30253724  -0.00000128  -1.60899902
H       1.36065554   0.00000774  -1.56379095
H      -2.11526438   0.00000373   0.95506808
H       2.11179546   0.00000406   1.00221328
9
 Vibration 19 Frame 37
C      -0.69384934  -0.00000016  -0.71585706
C       0.68634398  -0.00000050  -0.71927484
C      -1.09131446   0.00000024   0.61478770
C       1.10668561  -0.00000028   0.60094654
O      -0.00848696  -0.00000015   1.43489521
H      -1.30980696  -0.00000096  -1.60334465
H       1.35339569   0.00000580  -1.56943860
H      -2.11483141   0.00000279   0.96095929
H       2.11222973   0.00000304   0.99631819
9
 Vibration 19 Frame 38
C      -0.69259887  -0.00000011  -0.71642656
C       0.68759530  -0.00000033  -0.71870508
C      -1.09387621   0.00000016   0.61248091
C       1.10412365  -0.00000018   0.60325347
O      -0.00565797  -0.00000010   1.43489474
H      -1.31707668  -0.00000064  -1.59769029
H       1.34613583   0.00000387  -1.57508626
H      -2.11439845   0.00000186   0.96685049
H       2.11266399   0.00000203   0.99042309
9
 Vibration 19 Frame 39
C      -0.69134839  -0.00000005  -0.71699606
C       0.68884661  -0.00000017  -0.71813532
C      -1.09643797   0.00000008   0.61017412
C       1.10156169  -0.00000009   0.60556040
O      -0.00282899  -0.00000005   1.43489426
H      -1.32434640  -0.00000032  -1.59203593
H       1.33887598   0.00000193  -1.58073391
H      -2.11396548   0.00000093   0.97274170
H       2.11309825   0.00000101   0.98452800
