9
 Vibration 12 Frame 0
C      -0.69009792   0.00000000  -0.71756556
C       0.69009792   0.00000000  -0.71756556
C      -1.09899972   0.00000000   0.60786733
C       1.09899972   0.00000000   0.60786733
O       0.00000000   0.00000000   1.43489378
H      -1.33161612   0.00000000  -1.58638157
H       1.33161612   0.00000000  -1.58638157
H      -2.11353252   0.00000000   0.97863290
H       2.11353252   0.00000000   0.97863290
9
 Vibration 12 Frame 1
C      -0.69009992   0.00203137  -0.71756796
C       0.69009614   0.00203138  -0.71756302
C      -1.09899825  -0.00139227   0.60786588
C       1.09899960  -0.00139227   0.60786778
O       0.00000142  -0.00029991   1.43489429
H      -1.33161891  -0.01403232  -1.58638309
H       1.33162240  -0.01403236  -1.58637262
H      -2.11353094   0.00879701   0.97863213
H       2.11353390   0.00879701   0.97862855
9
 Vibration 12 Frame 2
C      -0.69010193   0.00406274  -0.71757035
C       0.69009435   0.00406277  -0.71756049
C      -1.09899677  -0.00278454   0.60786442
C       1.09899949  -0.00278455   0.60786823
O       0.00000284  -0.00059982   1.43489479
H      -1.33162170  -0.02806465  -1.58638460
H       1.33162868  -0.02806473  -1.58636367
H      -2.11352937   0.01759402   0.97863136
H       2.11353528   0.01759402   0.97862420
9
 Vibration 12 Frame 3
C      -0.69010393   0.00609412  -0.71757275
C       0.69009256   0.00609415  -0.71755795
C      -1.09899529  -0.00417681   0.60786296
C       1.09899937  -0.00417682   0.60786868
O       0.00000425  -0.00089973   1.43489530
H      -1.33162449  -0.04209697  -1.58638612
H       1.33163496  -0.04209709  -1.58635472
H      -2.11352780   0.02639103   0.97863059
H       2.11353667   0.02639103   0.97861984
9
 Vibration 12 Frame 4
C      -0.69010593   0.00812549  -0.71757515
C       0.69009078   0.00812553  -0.71755542
C      -1.09899382  -0.00556909   0.60786151
C       1.09899925  -0.00556910   0.60786913
O       0.00000567  -0.00119964   1.43489581
H      -1.33162727  -0.05612930  -1.58638764
H       1.33164123  -0.05612946  -1.58634577
H      -2.11352622   0.03518804   0.97862982
H       2.11353805   0.03518804   0.97861549
9
 Vibration 12 Frame 5
C      -0.69010793   0.01015686  -0.71757754
C       0.69008899   0.01015691  -0.71755288
C      -1.09899234  -0.00696136   0.60786005
C       1.09899913  -0.00696137   0.60786957
O       0.00000709  -0.00149955   1.43489632
H      -1.33163006  -0.07016162  -1.58638916
H       1.33164751  -0.07016182  -1.58633682
H      -2.11352465   0.04398505   0.97862905
H       2.11353943   0.04398505   0.97861114
9
 Vibration 12 Frame 6
C      -0.69010993   0.01218823  -0.71757994
C       0.69008720   0.01218830  -0.71755035
C      -1.09899086  -0.00835363   0.60785859
C       1.09899901  -0.00835365   0.60787002
O       0.00000851  -0.00179946   1.43489683
H      -1.33163285  -0.08419394  -1.58639068
H       1.33165379  -0.08419419  -1.58632787
H      -2.11352307   0.05278206   0.97862828
H       2.11354082   0.05278206   0.97860678
9
 Vibration 12 Frame 7
C      -0.69011193   0.01421960  -0.71758234
C       0.69008542   0.01421968  -0.71754781
C      -1.09898938  -0.00974590   0.60785713
C       1.09899889  -0.00974592   0.60787047
O       0.00000993  -0.00209937   1.43489734
H      -1.33163564  -0.09822627  -1.58639219
H       1.33166007  -0.09822655  -1.58631892
H      -2.11352150   0.06157907   0.97862752
H       2.11354220   0.06157907   0.97860243
9
 Vibration 12 Frame 8
C      -0.69011393   0.01625098  -0.71758474
C       0.69008363   0.01625106  -0.71754528
C      -1.09898791  -0.01113817   0.60785568
C       1.09899877  -0.01113819   0.60787092
O       0.00001134  -0.00239928   1.43489785
H      -1.33163842  -0.11225859  -1.58639371
H       1.33166634  -0.11225891  -1.58630997
H      -2.11351993   0.07037608   0.97862675
H       2.11354358   0.07037608   0.97859808
9
 Vibration 12 Frame 9
C      -0.69011593   0.01828235  -0.71758713
C       0.69008185   0.01828245  -0.71754274
C      -1.09898643  -0.01253044   0.60785422
C       1.09899865  -0.01253047   0.60787137
O       0.00001276  -0.00269919   1.43489835
H      -1.33164121  -0.12629091  -1.58639523
H       1.33167262  -0.12629128  -1.58630102
H      -2.11351835   0.07917309   0.97862598
H       2.11354496   0.07917309   0.97859372
9
 Vibration 12 Frame 10
C      -0.69011794   0.02031372  -0.71758953
C       0.69008006   0.02031383  -0.71754021
C      -1.09898495  -0.01392271   0.60785276
C       1.09899853  -0.01392274   0.60787182
O       0.00001418  -0.00299910   1.43489886
H      -1.33164400  -0.14032324  -1.58639675
H       1.33167890  -0.14032364  -1.58629207
H      -2.11351678   0.08797010   0.97862521
H       2.11354635   0.08797010   0.97858937
9
 Vibration 12 Frame 11
C      -0.69011994   0.02234509  -0.71759193
C       0.69007827   0.02234521  -0.71753767
C      -1.09898348  -0.01531499   0.60785130
C       1.09899841  -0.01531502   0.60787226
O       0.00001560  -0.00329901   1.43489937
H      -1.33164678  -0.15435556  -1.58639827
H       1.33168517  -0.15435601  -1.58628312
H      -2.11351521   0.09676711   0.97862444
H       2.11354773   0.09676711   0.97858502
9
 Vibration 12 Frame 12
C      -0.69012194   0.02437646  -0.71759432
C       0.69007649   0.02437660  -0.71753514
C      -1.09898200  -0.01670726   0.60784985
C       1.09899829  -0.01670729   0.60787271
O       0.00001701  -0.00359892   1.43489988
H      -1.33164957  -0.16838789  -1.58639979
H       1.33169145  -0.16838837  -1.58627418
H      -2.11351363   0.10556412   0.97862367
H       2.11354911   0.10556412   0.97858066
9
 Vibration 12 Frame 13
C      -0.69012394   0.02640783  -0.71759672
C       0.69007470   0.02640798  -0.71753260
C      -1.09898052  -0.01809953   0.60784839
C       1.09899817  -0.01809957   0.60787316
O       0.00001843  -0.00389883   1.43490039
H      -1.33165236  -0.18242021  -1.58640130
H       1.33169773  -0.18242074  -1.58626523
H      -2.11351206   0.11436113   0.97862290
H       2.11355050   0.11436113   0.97857631
9
 Vibration 12 Frame 14
C      -0.69012594   0.02843921  -0.71759912
C       0.69007291   0.02843936  -0.71753007
C      -1.09897904  -0.01949180   0.60784693
C       1.09899805  -0.01949184   0.60787361
O       0.00001985  -0.00419874   1.43490090
H      -1.33165515  -0.19645253  -1.58640282
H       1.33170401  -0.19645310  -1.58625628
H      -2.11351049   0.12315814   0.97862213
H       2.11355188   0.12315814   0.97857196
9
 Vibration 12 Frame 15
C      -0.69012794   0.03047058  -0.71760151
C       0.69007113   0.03047074  -0.71752753
C      -1.09897757  -0.02088407   0.60784548
C       1.09899793  -0.02088411   0.60787406
O       0.00002127  -0.00449865   1.43490141
H      -1.33165793  -0.21048486  -1.58640434
H       1.33171028  -0.21048547  -1.58624733
H      -2.11350891   0.13195515   0.97862136
H       2.11355326   0.13195515   0.97856760
9
 Vibration 12 Frame 16
C      -0.69012994   0.03250195  -0.71760391
C       0.69006934   0.03250213  -0.71752500
C      -1.09897609  -0.02227634   0.60784402
C       1.09899782  -0.02227639   0.60787450
O       0.00002269  -0.00479856   1.43490191
H      -1.33166072  -0.22451718  -1.58640586
H       1.33171656  -0.22451783  -1.58623838
H      -2.11350734   0.14075216   0.97862059
H       2.11355465   0.14075216   0.97856325
9
 Vibration 12 Frame 17
C      -0.69013195   0.03453332  -0.71760631
C       0.69006755   0.03453351  -0.71752246
C      -1.09897461  -0.02366861   0.60784256
C       1.09899770  -0.02366866   0.60787495
O       0.00002410  -0.00509847   1.43490242
H      -1.33166351  -0.23854950  -1.58640738
H       1.33172284  -0.23855019  -1.58622943
H      -2.11350576   0.14954916   0.97861982
H       2.11355603   0.14954917   0.97855889
9
 Vibration 12 Frame 18
C      -0.69013395   0.03656469  -0.71760871
C       0.69006577   0.03656489  -0.71751993
C      -1.09897314  -0.02506089   0.60784110
C       1.09899758  -0.02506094   0.60787540
O       0.00002552  -0.00539838   1.43490293
H      -1.33166630  -0.25258183  -1.58640890
H       1.33172912  -0.25258256  -1.58622048
H      -2.11350419   0.15834617   0.97861905
H       2.11355741   0.15834618   0.97855454
9
 Vibration 12 Frame 19
C      -0.69013595   0.03859607  -0.71761110
C       0.69006398   0.03859628  -0.71751739
C      -1.09897166  -0.02645316   0.60783965
C       1.09899746  -0.02645321   0.60787585
O       0.00002694  -0.00569829   1.43490344
H      -1.33166908  -0.26661415  -1.58641041
H       1.33173539  -0.26661492  -1.58621153
H      -2.11350262   0.16714318   0.97861828
H       2.11355880   0.16714319   0.97855019
9
 Vibration 12 Frame 20
C      -0.69013795   0.04062744  -0.71761350
C       0.69006220   0.04062766  -0.71751486
C      -1.09897018  -0.02784543   0.60783819
C       1.09899734  -0.02784549   0.60787630
O       0.00002836  -0.00599820   1.43490395
H      -1.33167187  -0.28064648  -1.58641193
H       1.33174167  -0.28064729  -1.58620258
H      -2.11350104   0.17594019   0.97861751
H       2.11356018   0.17594020   0.97854583
9
 Vibration 12 Frame 21
C      -0.69013595   0.03859607  -0.71761110
C       0.69006398   0.03859628  -0.71751739
C      -1.09897166  -0.02645316   0.60783965
C       1.09899746  -0.02645321   0.60787585
O       0.00002694  -0.00569829   1.43490344
H      -1.33166908  -0.26661415  -1.58641041
H       1.33173539  -0.26661492  -1.58621153
H      -2.11350262   0.16714318   0.97861828
H       2.11355880   0.16714319   0.97855019
9
 Vibration 12 Frame 22
C      -0.69013395   0.03656469  -0.71760871
C       0.69006577   0.03656489  -0.71751993
C      -1.09897314  -0.02506089   0.60784110
C       1.09899758  -0.02506094   0.60787540
O       0.00002552  -0.00539838   1.43490293
H      -1.33166630  -0.25258183  -1.58640890
H       1.33172912  -0.25258256  -1.58622048
H      -2.11350419   0.15834617   0.97861905
H       2.11355741   0.15834618   0.97855454
9
 Vibration 12 Frame 23
C      -0.69013195   0.03453332  -0.71760631
C       0.69006755   0.03453351  -0.71752246
C      -1.09897461  -0.02366861   0.60784256
C       1.09899770  -0.02366866   0.60787495
O       0.00002410  -0.00509847   1.43490242
H      -1.33166351  -0.23854950  -1.58640738
H       1.33172284  -0.23855019  -1.58622943
H      -2.11350576   0.14954916   0.97861982
H       2.11355603   0.14954917   0.97855889
9
 Vibration 12 Frame 24
C      -0.69012994   0.03250195  -0.71760391
C       0.69006934   0.03250213  -0.71752500
C      -1.09897609  -0.02227634   0.60784402
C       1.09899782  -0.02227639   0.60787450
O       0.00002269  -0.00479856   1.43490191
H      -1.33166072  -0.22451718  -1.58640586
H       1.33171656  -0.22451783  -1.58623838
H      -2.11350734   0.14075216   0.97862059
H       2.11355465   0.14075216   0.97856325
9
 Vibration 12 Frame 25
C      -0.69012794   0.03047058  -0.71760151
C       0.69007113   0.03047074  -0.71752753
C      -1.09897757  -0.02088407   0.60784548
C       1.09899793  -0.02088411   0.60787406
O       0.00002127  -0.00449865   1.43490141
H      -1.33165793  -0.21048486  -1.58640434
H       1.33171028  -0.21048547  -1.58624733
H      -2.11350891   0.13195515   0.97862136
H       2.11355326   0.13195515   0.97856760
9
 Vibration 12 Frame 26
C      -0.69012594   0.02843921  -0.71759912
C       0.69007291   0.02843936  -0.71753007
C      -1.09897904  -0.01949180   0.60784693
C       1.09899805  -0.01949184   0.60787361
O       0.00001985  -0.00419874   1.43490090
H      -1.33165515  -0.19645253  -1.58640282
H       1.33170401  -0.19645310  -1.58625628
H      -2.11351049   0.12315814   0.97862213
H       2.11355188   0.12315814   0.97857196
9
 Vibration 12 Frame 27
C      -0.69012394   0.02640783  -0.71759672
C       0.69007470   0.02640798  -0.71753260
C      -1.09898052  -0.01809953   0.60784839
C       1.09899817  -0.01809957   0.60787316
O       0.00001843  -0.00389883   1.43490039
H      -1.33165236  -0.18242021  -1.58640130
H       1.33169773  -0.18242074  -1.58626523
H      -2.11351206   0.11436113   0.97862290
H       2.11355050   0.11436113   0.97857631
9
 Vibration 12 Frame 28
C      -0.69012194   0.02437646  -0.71759432
C       0.69007649   0.02437660  -0.71753514
C      -1.09898200  -0.01670726   0.60784985
C       1.09899829  -0.01670729   0.60787271
O       0.00001701  -0.00359892   1.43489988
H      -1.33164957  -0.16838789  -1.58639979
H       1.33169145  -0.16838837  -1.58627418
H      -2.11351363   0.10556412   0.97862367
H       2.11354911   0.10556412   0.97858066
9
 Vibration 12 Frame 29
C      -0.69011994   0.02234509  -0.71759193
C       0.69007827   0.02234521  -0.71753767
C      -1.09898348  -0.01531499   0.60785130
C       1.09899841  -0.01531502   0.60787226
O       0.00001560  -0.00329901   1.43489937
H      -1.33164678  -0.15435556  -1.58639827
H       1.33168517  -0.15435601  -1.58628312
H      -2.11351521   0.09676711   0.97862444
H       2.11354773   0.09676711   0.97858502
9
 Vibration 12 Frame 30
C      -0.69011794   0.02031372  -0.71758953
C       0.69008006   0.02031383  -0.71754021
C      -1.09898495  -0.01392271   0.60785276
C       1.09899853  -0.01392274   0.60787182
O       0.00001418  -0.00299910   1.43489886
H      -1.33164400  -0.14032324  -1.58639675
H       1.33167890  -0.14032364  -1.58629207
H      -2.11351678   0.08797010   0.97862521
H       2.11354635   0.08797010   0.97858937
9
 Vibration 12 Frame 31
C      -0.69011593   0.01828235  -0.71758713
C       0.69008185   0.01828245  -0.71754274
C      -1.09898643  -0.01253044   0.60785422
C       1.09899865  -0.01253047   0.60787137
O       0.00001276  -0.00269919   1.43489835
H      -1.33164121  -0.12629091  -1.58639523
H       1.33167262  -0.12629128  -1.58630102
H      -2.11351835   0.07917309   0.97862598
H       2.11354496   0.07917309   0.97859372
9
 Vibration 12 Frame 32
C      -0.69011393   0.01625098  -0.71758474
C       0.69008363   0.01625106  -0.71754528
C      -1.09898791  -0.01113817   0.60785568
C       1.09899877  -0.01113819   0.60787092
O       0.00001134  -0.00239928   1.43489785
H      -1.33163842  -0.11225859  -1.58639371
H       1.33166634  -0.11225891  -1.58630997
H      -2.11351993   0.07037608   0.97862675
H       2.11354358   0.07037608   0.97859808
9
 Vibration 12 Frame 33
C      -0.69011193   0.01421960  -0.71758234
C       0.69008542   0.01421968  -0.71754781
C      -1.09898938  -0.00974590   0.60785713
C       1.09899889  -0.00974592   0.60787047
O       0.00000993  -0.00209937   1.43489734
H      -1.33163564  -0.09822627  -1.58639219
H       1.33166007  -0.09822655  -1.58631892
H      -2.11352150   0.06157907   0.97862752
H       2.11354220   0.06157907   0.97860243
9
 Vibration 12 Frame 34
C      -0.69010993   0.01218823  -0.71757994
C       0.69008720   0.01218830  -0.71755035
C      -1.09899086  -0.00835363   0.60785859
C       1.09899901  -0.00835365   0.60787002
O       0.00000851  -0.00179946   1.43489683
H      -1.33163285  -0.08419394  -1.58639068
H       1.33165379  -0.08419419  -1.58632787
H      -2.11352307   0.05278206   0.97862828
H       2.11354082   0.05278206   0.97860678
9
 Vibration 12 Frame 35
C      -0.69010793   0.01015686  -0.71757754
C       0.69008899   0.01015691  -0.71755288
C      -1.09899234  -0.00696136   0.60786005
C       1.09899913  -0.00696137   0.60786957
O       0.00000709  -0.00149955   1.43489632
H      -1.33163006  -0.07016162  -1.58638916
H       1.33164751  -0.07016182  -1.58633682
H      -2.11352465   0.04398505   0.97862905
H       2.11353943   0.04398505   0.97861114
9
 Vibration 12 Frame 36
C      -0.69010593   0.00812549  -0.71757515
C       0.69009078   0.00812553  -0.71755542
C      -1.09899382  -0.00556909   0.60786151
C       1.09899925  -0.00556910   0.60786913
O       0.00000567  -0.00119964   1.43489581
H      -1.33162727  -0.05612930  -1.58638764
H       1.33164123  -0.05612946  -1.58634577
H      -2.11352622   0.03518804   0.97862982
H       2.11353805   0.03518804   0.97861549
9
 Vibration 12 Frame 37
C      -0.69010393   0.00609412  -0.71757275
C       0.69009256   0.00609415  -0.71755795
C      -1.09899529  -0.00417681   0.60786296
C       1.09899937  -0.00417682   0.60786868
O       0.00000425  -0.00089973   1.43489530
H      -1.33162449  -0.04209697  -1.58638612
H       1.33163496  -0.04209709  -1.58635472
H      -2.11352780   0.02639103   0.97863059
H       2.11353667   0.02639103   0.97861984
9
 Vibration 12 Frame 38
C      -0.69010193   0.00406274  -0.71757035
C       0.69009435   0.00406277  -0.71756049
C      -1.09899677  -0.00278454   0.60786442
C       1.09899949  -0.00278455   0.60786823
O       0.00000284  -0.00059982   1.43489479
H      -1.33162170  -0.02806465  -1.58638460
H       1.33162868  -0.02806473  -1.58636367
H      -2.11352937   0.01759402   0.97863136
H       2.11353528   0.01759402   0.97862420
9
 Vibration 12 Frame 39
C      -0.69009992   0.00203137  -0.71756796
C       0.69009614   0.00203138  -0.71756302
C      -1.09899825  -0.00139227   0.60786588
C       1.09899960  -0.00139227   0.60786778
O       0.00000142  -0.00029991   1.43489429
H      -1.33161891  -0.01403232  -1.58638309
H       1.33162240  -0.01403236  -1.58637262
H      -2.11353094   0.00879701   0.97863213
H       2.11353390   0.00879701   0.97862855
