9
 Vibration 11 Frame 0
C      -0.69009792   0.00000000  -0.71756556
C       0.69009792   0.00000000  -0.71756556
C      -1.09899972   0.00000000   0.60786733
C       1.09899972   0.00000000   0.60786733
O       0.00000000   0.00000000   1.43489378
H      -1.33161612   0.00000000  -1.58638157
H       1.33161612   0.00000000  -1.58638157
H      -2.11353252   0.00000000   0.97863290
H       2.11353252   0.00000000   0.97863290
9
 Vibration 11 Frame 1
C      -0.68739772   0.00000386  -0.71419226
C       0.69279560  -0.00000011  -0.72094779
C      -1.10067816  -0.00000191   0.60967209
C       1.09730936   0.00000003   0.60605813
O      -0.00122297   0.00000021   1.43490596
H      -1.33079375  -0.00001819  -1.58141896
H       1.33244441  -0.00000757  -1.59134604
H      -2.11673986   0.00000162   0.97653759
H       2.11032320  -0.00000167   0.98069628
9
 Vibration 11 Frame 2
C      -0.68469753   0.00000772  -0.71081896
C       0.69549327  -0.00000021  -0.72433002
C      -1.10235660  -0.00000381   0.61147684
C       1.09561900   0.00000007   0.60424893
O      -0.00244593   0.00000042   1.43491813
H      -1.32997138  -0.00003637  -1.57645636
H       1.33327270  -0.00001513  -1.59631052
H      -2.11994721   0.00000323   0.97444228
H       2.10711389  -0.00000333   0.98275965
9
 Vibration 11 Frame 3
C      -0.68199733   0.00001158  -0.70744567
C       0.69819094  -0.00000032  -0.72771226
C      -1.10403504  -0.00000572   0.61328159
C       1.09392864   0.00000010   0.60243973
O      -0.00366890   0.00000064   1.43493031
H      -1.32914900  -0.00005456  -1.57149375
H       1.33410099  -0.00002270  -1.60127499
H      -2.12315455   0.00000485   0.97234697
H       2.10390458  -0.00000500   0.98482303
9
 Vibration 11 Frame 4
C      -0.67929713   0.00001544  -0.70407237
C       0.70088861  -0.00000042  -0.73109449
C      -1.10571348  -0.00000762   0.61508634
C       1.09223828   0.00000014   0.60063052
O      -0.00489187   0.00000085   1.43494249
H      -1.32832663  -0.00007274  -1.56653115
H       1.33492928  -0.00003027  -1.60623946
H      -2.12636190   0.00000646   0.97025166
H       2.10069526  -0.00000666   0.98688640
9
 Vibration 11 Frame 5
C      -0.67659693   0.00001930  -0.70069907
C       0.70358628  -0.00000053  -0.73447672
C      -1.10739192  -0.00000953   0.61689109
C       1.09054792   0.00000017   0.59882132
O      -0.00611483   0.00000106   1.43495467
H      -1.32750425  -0.00009093  -1.56156854
H       1.33575757  -0.00003784  -1.61120394
H      -2.12956925   0.00000808   0.96815635
H       2.09748595  -0.00000833   0.98894978
9
 Vibration 11 Frame 6
C      -0.67389673   0.00002316  -0.69732577
C       0.70628396  -0.00000064  -0.73785896
C      -1.10907035  -0.00001143   0.61869585
C       1.08885756   0.00000021   0.59701212
O      -0.00733780   0.00000127   1.43496685
H      -1.32668188  -0.00010912  -1.55660593
H       1.33658586  -0.00004540  -1.61616841
H      -2.13277659   0.00000969   0.96606103
H       2.09427663  -0.00000999   0.99101315
9
 Vibration 11 Frame 7
C      -0.67119653   0.00002701  -0.69395247
C       0.70898163  -0.00000074  -0.74124119
C      -1.11074879  -0.00001334   0.62050060
C       1.08716720   0.00000024   0.59520292
O      -0.00856077   0.00000149   1.43497902
H      -1.32585951  -0.00012730  -1.55164333
H       1.33741415  -0.00005297  -1.62113289
H      -2.13598394   0.00001131   0.96396572
H       2.09106732  -0.00001166   0.99307653
9
 Vibration 11 Frame 8
C      -0.66849633   0.00003087  -0.69057918
C       0.71167930  -0.00000085  -0.74462342
C      -1.11242723  -0.00001524   0.62230535
C       1.08547684   0.00000028   0.59339371
O      -0.00978373   0.00000170   1.43499120
H      -1.32503713  -0.00014549  -1.54668072
H       1.33824244  -0.00006054  -1.62609736
H      -2.13919128   0.00001293   0.96187041
H       2.08785801  -0.00001332   0.99513990
9
 Vibration 11 Frame 9
C      -0.66579613   0.00003473  -0.68720588
C       0.71437697  -0.00000095  -0.74800565
C      -1.11410567  -0.00001715   0.62411010
C       1.08378647   0.00000031   0.59158451
O      -0.01100670   0.00000191   1.43500338
H      -1.32421476  -0.00016368  -1.54171812
H       1.33907072  -0.00006811  -1.63106183
H      -2.14239863   0.00001454   0.95977510
H       2.08464869  -0.00001499   0.99720328
9
 Vibration 11 Frame 10
C      -0.66309593   0.00003859  -0.68383258
C       0.71707465  -0.00000106  -0.75138789
C      -1.11578411  -0.00001905   0.62591485
C       1.08209611   0.00000034   0.58977531
O      -0.01222967   0.00000212   1.43501556
H      -1.32339238  -0.00018186  -1.53675551
H       1.33989901  -0.00007567  -1.63602631
H      -2.14560597   0.00001616   0.95767979
H       2.08143938  -0.00001665   0.99926665
9
 Vibration 11 Frame 11
C      -0.66039574   0.00004245  -0.68045928
C       0.71977232  -0.00000117  -0.75477012
C      -1.11746255  -0.00002096   0.62771961
C       1.08040575   0.00000038   0.58796611
O      -0.01345263   0.00000234   1.43502774
H      -1.32257001  -0.00020005  -1.53179291
H       1.34072730  -0.00008324  -1.64099078
H      -2.14881332   0.00001777   0.95558448
H       2.07823007  -0.00001832   1.00133003
9
 Vibration 11 Frame 12
C      -0.65769554   0.00004631  -0.67708598
C       0.72246999  -0.00000127  -0.75815235
C      -1.11914098  -0.00002286   0.62952436
C       1.07871539   0.00000041   0.58615691
O      -0.01467560   0.00000255   1.43503991
H      -1.32174764  -0.00021823  -1.52683030
H       1.34155559  -0.00009081  -1.64595526
H      -2.15202066   0.00001939   0.95348916
H       2.07502075  -0.00001998   1.00339340
9
 Vibration 11 Frame 13
C      -0.65499534   0.00005017  -0.67371269
C       0.72516766  -0.00000138  -0.76153459
C      -1.12081942  -0.00002477   0.63132911
C       1.07702503   0.00000045   0.58434770
O      -0.01589857   0.00000276   1.43505209
H      -1.32092526  -0.00023642  -1.52186770
H       1.34238388  -0.00009837  -1.65091973
H      -2.15522801   0.00002100   0.95139385
H       2.07181144  -0.00002165   1.00545678
9
 Vibration 11 Frame 14
C      -0.65229514   0.00005403  -0.67033939
C       0.72786534  -0.00000148  -0.76491682
C      -1.12249786  -0.00002667   0.63313386
C       1.07533467   0.00000048   0.58253850
O      -0.01712153   0.00000297   1.43506427
H      -1.32010289  -0.00025461  -1.51690509
H       1.34321217  -0.00010594  -1.65588421
H      -2.15843536   0.00002262   0.94929854
H       2.06860213  -0.00002331   1.00752015
9
 Vibration 11 Frame 15
C      -0.64959494   0.00005789  -0.66696609
C       0.73056301  -0.00000159  -0.76829905
C      -1.12417630  -0.00002858   0.63493861
C       1.07364431   0.00000052   0.58072930
O      -0.01834450   0.00000319   1.43507645
H      -1.31928051  -0.00027279  -1.51194249
H       1.34404046  -0.00011351  -1.66084868
H      -2.16164270   0.00002424   0.94720323
H       2.06539281  -0.00002498   1.00958353
9
 Vibration 11 Frame 16
C      -0.64689474   0.00006175  -0.66359279
C       0.73326068  -0.00000170  -0.77168129
C      -1.12585474  -0.00003048   0.63674337
C       1.07195395   0.00000055   0.57892010
O      -0.01956747   0.00000340   1.43508863
H      -1.31845814  -0.00029098  -1.50697988
H       1.34486875  -0.00012108  -1.66581315
H      -2.16485005   0.00002585   0.94510792
H       2.06218350  -0.00002665   1.01164690
9
 Vibration 11 Frame 17
C      -0.64419454   0.00006561  -0.66021949
C       0.73595835  -0.00000180  -0.77506352
C      -1.12753318  -0.00003239   0.63854812
C       1.07026359   0.00000059   0.57711089
O      -0.02079044   0.00000361   1.43510080
H      -1.31763577  -0.00030917  -1.50201728
H       1.34569704  -0.00012864  -1.67077763
H      -2.16805739   0.00002747   0.94301261
H       2.05897418  -0.00002831   1.01371028
9
 Vibration 11 Frame 18
C      -0.64149434   0.00006947  -0.65684620
C       0.73865603  -0.00000191  -0.77844575
C      -1.12921161  -0.00003429   0.64035287
C       1.06857322   0.00000062   0.57530169
O      -0.02201340   0.00000382   1.43511298
H      -1.31681339  -0.00032735  -1.49705467
H       1.34652532  -0.00013621  -1.67574210
H      -2.17126474   0.00002908   0.94091729
H       2.05576487  -0.00002998   1.01577365
9
 Vibration 11 Frame 19
C      -0.63879414   0.00007333  -0.65347290
C       0.74135370  -0.00000201  -0.78182798
C      -1.13089005  -0.00003620   0.64215762
C       1.06688286   0.00000065   0.57349249
O      -0.02323637   0.00000403   1.43512516
H      -1.31599102  -0.00034554  -1.49209206
H       1.34735361  -0.00014378  -1.68070658
H      -2.17447208   0.00003070   0.93882198
H       2.05255556  -0.00003164   1.01783703
9
 Vibration 11 Frame 20
C      -0.63609395   0.00007718  -0.65009960
C       0.74405137  -0.00000212  -0.78521022
C      -1.13256849  -0.00003810   0.64396237
C       1.06519250   0.00000069   0.57168329
O      -0.02445934   0.00000425   1.43513734
H      -1.31516865  -0.00036372  -1.48712946
H       1.34818190  -0.00015135  -1.68567105
H      -2.17767943   0.00003232   0.93672667
H       2.04934624  -0.00003331   1.01990040
9
 Vibration 11 Frame 21
C      -0.63879414   0.00007333  -0.65347290
C       0.74135370  -0.00000201  -0.78182798
C      -1.13089005  -0.00003620   0.64215762
C       1.06688286   0.00000065   0.57349249
O      -0.02323637   0.00000403   1.43512516
H      -1.31599102  -0.00034554  -1.49209206
H       1.34735361  -0.00014378  -1.68070658
H      -2.17447208   0.00003070   0.93882198
H       2.05255556  -0.00003164   1.01783703
9
 Vibration 11 Frame 22
C      -0.64149434   0.00006947  -0.65684620
C       0.73865603  -0.00000191  -0.77844575
C      -1.12921161  -0.00003429   0.64035287
C       1.06857322   0.00000062   0.57530169
O      -0.02201340   0.00000382   1.43511298
H      -1.31681339  -0.00032735  -1.49705467
H       1.34652532  -0.00013621  -1.67574210
H      -2.17126474   0.00002908   0.94091729
H       2.05576487  -0.00002998   1.01577365
9
 Vibration 11 Frame 23
C      -0.64419454   0.00006561  -0.66021949
C       0.73595835  -0.00000180  -0.77506352
C      -1.12753318  -0.00003239   0.63854812
C       1.07026359   0.00000059   0.57711089
O      -0.02079044   0.00000361   1.43510080
H      -1.31763577  -0.00030917  -1.50201728
H       1.34569704  -0.00012864  -1.67077763
H      -2.16805739   0.00002747   0.94301261
H       2.05897418  -0.00002831   1.01371028
9
 Vibration 11 Frame 24
C      -0.64689474   0.00006175  -0.66359279
C       0.73326068  -0.00000170  -0.77168129
C      -1.12585474  -0.00003048   0.63674337
C       1.07195395   0.00000055   0.57892010
O      -0.01956747   0.00000340   1.43508863
H      -1.31845814  -0.00029098  -1.50697988
H       1.34486875  -0.00012108  -1.66581315
H      -2.16485005   0.00002585   0.94510792
H       2.06218350  -0.00002665   1.01164690
9
 Vibration 11 Frame 25
C      -0.64959494   0.00005789  -0.66696609
C       0.73056301  -0.00000159  -0.76829905
C      -1.12417630  -0.00002858   0.63493861
C       1.07364431   0.00000052   0.58072930
O      -0.01834450   0.00000319   1.43507645
H      -1.31928051  -0.00027279  -1.51194249
H       1.34404046  -0.00011351  -1.66084868
H      -2.16164270   0.00002424   0.94720323
H       2.06539281  -0.00002498   1.00958353
9
 Vibration 11 Frame 26
C      -0.65229514   0.00005403  -0.67033939
C       0.72786534  -0.00000148  -0.76491682
C      -1.12249786  -0.00002667   0.63313386
C       1.07533467   0.00000048   0.58253850
O      -0.01712153   0.00000297   1.43506427
H      -1.32010289  -0.00025461  -1.51690509
H       1.34321217  -0.00010594  -1.65588421
H      -2.15843536   0.00002262   0.94929854
H       2.06860213  -0.00002331   1.00752015
9
 Vibration 11 Frame 27
C      -0.65499534   0.00005017  -0.67371269
C       0.72516766  -0.00000138  -0.76153459
C      -1.12081942  -0.00002477   0.63132911
C       1.07702503   0.00000045   0.58434770
O      -0.01589857   0.00000276   1.43505209
H      -1.32092526  -0.00023642  -1.52186770
H       1.34238388  -0.00009837  -1.65091973
H      -2.15522801   0.00002100   0.95139385
H       2.07181144  -0.00002165   1.00545678
9
 Vibration 11 Frame 28
C      -0.65769554   0.00004631  -0.67708598
C       0.72246999  -0.00000127  -0.75815235
C      -1.11914098  -0.00002286   0.62952436
C       1.07871539   0.00000041   0.58615691
O      -0.01467560   0.00000255   1.43503991
H      -1.32174764  -0.00021823  -1.52683030
H       1.34155559  -0.00009081  -1.64595526
H      -2.15202066   0.00001939   0.95348916
H       2.07502075  -0.00001998   1.00339340
9
 Vibration 11 Frame 29
C      -0.66039574   0.00004245  -0.68045928
C       0.71977232  -0.00000117  -0.75477012
C      -1.11746255  -0.00002096   0.62771961
C       1.08040575   0.00000038   0.58796611
O      -0.01345263   0.00000234   1.43502774
H      -1.32257001  -0.00020005  -1.53179291
H       1.34072730  -0.00008324  -1.64099078
H      -2.14881332   0.00001777   0.95558448
H       2.07823007  -0.00001832   1.00133003
9
 Vibration 11 Frame 30
C      -0.66309593   0.00003859  -0.68383258
C       0.71707465  -0.00000106  -0.75138789
C      -1.11578411  -0.00001905   0.62591485
C       1.08209611   0.00000034   0.58977531
O      -0.01222967   0.00000212   1.43501556
H      -1.32339238  -0.00018186  -1.53675551
H       1.33989901  -0.00007567  -1.63602631
H      -2.14560597   0.00001616   0.95767979
H       2.08143938  -0.00001665   0.99926665
9
 Vibration 11 Frame 31
C      -0.66579613   0.00003473  -0.68720588
C       0.71437697  -0.00000095  -0.74800565
C      -1.11410567  -0.00001715   0.62411010
C       1.08378647   0.00000031   0.59158451
O      -0.01100670   0.00000191   1.43500338
H      -1.32421476  -0.00016368  -1.54171812
H       1.33907072  -0.00006811  -1.63106183
H      -2.14239863   0.00001454   0.95977510
H       2.08464869  -0.00001499   0.99720328
9
 Vibration 11 Frame 32
C      -0.66849633   0.00003087  -0.69057918
C       0.71167930  -0.00000085  -0.74462342
C      -1.11242723  -0.00001524   0.62230535
C       1.08547684   0.00000028   0.59339371
O      -0.00978373   0.00000170   1.43499120
H      -1.32503713  -0.00014549  -1.54668072
H       1.33824244  -0.00006054  -1.62609736
H      -2.13919128   0.00001293   0.96187041
H       2.08785801  -0.00001332   0.99513990
9
 Vibration 11 Frame 33
C      -0.67119653   0.00002701  -0.69395247
C       0.70898163  -0.00000074  -0.74124119
C      -1.11074879  -0.00001334   0.62050060
C       1.08716720   0.00000024   0.59520292
O      -0.00856077   0.00000149   1.43497902
H      -1.32585951  -0.00012730  -1.55164333
H       1.33741415  -0.00005297  -1.62113289
H      -2.13598394   0.00001131   0.96396572
H       2.09106732  -0.00001166   0.99307653
9
 Vibration 11 Frame 34
C      -0.67389673   0.00002316  -0.69732577
C       0.70628396  -0.00000064  -0.73785896
C      -1.10907035  -0.00001143   0.61869585
C       1.08885756   0.00000021   0.59701212
O      -0.00733780   0.00000127   1.43496685
H      -1.32668188  -0.00010912  -1.55660593
H       1.33658586  -0.00004540  -1.61616841
H      -2.13277659   0.00000969   0.96606103
H       2.09427663  -0.00000999   0.99101315
9
 Vibration 11 Frame 35
C      -0.67659693   0.00001930  -0.70069907
C       0.70358628  -0.00000053  -0.73447672
C      -1.10739192  -0.00000953   0.61689109
C       1.09054792   0.00000017   0.59882132
O      -0.00611483   0.00000106   1.43495467
H      -1.32750425  -0.00009093  -1.56156854
H       1.33575757  -0.00003784  -1.61120394
H      -2.12956925   0.00000808   0.96815635
H       2.09748595  -0.00000833   0.98894978
9
 Vibration 11 Frame 36
C      -0.67929713   0.00001544  -0.70407237
C       0.70088861  -0.00000042  -0.73109449
C      -1.10571348  -0.00000762   0.61508634
C       1.09223828   0.00000014   0.60063052
O      -0.00489187   0.00000085   1.43494249
H      -1.32832663  -0.00007274  -1.56653115
H       1.33492928  -0.00003027  -1.60623946
H      -2.12636190   0.00000646   0.97025166
H       2.10069526  -0.00000666   0.98688640
9
 Vibration 11 Frame 37
C      -0.68199733   0.00001158  -0.70744567
C       0.69819094  -0.00000032  -0.72771226
C      -1.10403504  -0.00000572   0.61328159
C       1.09392864   0.00000010   0.60243973
O      -0.00366890   0.00000064   1.43493031
H      -1.32914900  -0.00005456  -1.57149375
H       1.33410099  -0.00002270  -1.60127499
H      -2.12315455   0.00000485   0.97234697
H       2.10390458  -0.00000500   0.98482303
9
 Vibration 11 Frame 38
C      -0.68469753   0.00000772  -0.71081896
C       0.69549327  -0.00000021  -0.72433002
C      -1.10235660  -0.00000381   0.61147684
C       1.09561900   0.00000007   0.60424893
O      -0.00244593   0.00000042   1.43491813
H      -1.32997138  -0.00003637  -1.57645636
H       1.33327270  -0.00001513  -1.59631052
H      -2.11994721   0.00000323   0.97444228
H       2.10711389  -0.00000333   0.98275965
9
 Vibration 11 Frame 39
C      -0.68739772   0.00000386  -0.71419226
C       0.69279560  -0.00000011  -0.72094779
C      -1.10067816  -0.00000191   0.60967209
C       1.09730936   0.00000003   0.60605813
O      -0.00122297   0.00000021   1.43490596
H      -1.33079375  -0.00001819  -1.58141896
H       1.33244441  -0.00000757  -1.59134604
H      -2.11673986   0.00000162   0.97653759
H       2.11032320  -0.00000167   0.98069628
