9
 Vibration 7 Frame 0
C      -0.69009792   0.00000000  -0.71756556
C       0.69009792   0.00000000  -0.71756556
C      -1.09899972   0.00000000   0.60786733
C       1.09899972   0.00000000   0.60786733
O       0.00000000   0.00000000   1.43489378
H      -1.33161612   0.00000000  -1.58638157
H       1.33161612   0.00000000  -1.58638157
H      -2.11353252   0.00000000   0.97863290
H       2.11353252   0.00000000   0.97863290
9
 Vibration 7 Frame 1
C      -0.69009742  -0.00395512  -0.71756457
C       0.69009834   0.00395512  -0.71756597
C      -1.09900081   0.00185573   0.60786744
C       1.09900051  -0.00185573   0.60786721
O      -0.00000030   0.00000000   1.43489356
H      -1.33161544  -0.00707908  -1.58638038
H       1.33161393   0.00707910  -1.58638411
H      -2.11353474   0.00835019   0.97863099
H       2.11353367  -0.00835018   0.97863290
9
 Vibration 7 Frame 2
C      -0.69009692  -0.00791024  -0.71756358
C       0.69009875   0.00791024  -0.71756638
C      -1.09900190   0.00371146   0.60786755
C       1.09900130  -0.00371147   0.60786708
O      -0.00000060   0.00000000   1.43489334
H      -1.33161475  -0.01415816  -1.58637919
H       1.33161173   0.01415819  -1.58638666
H      -2.11353695   0.01670038   0.97862908
H       2.11353482  -0.01670037   0.97863290
9
 Vibration 7 Frame 3
C      -0.69009642  -0.01186537  -0.71756259
C       0.69009917   0.01186536  -0.71756678
C      -1.09900300   0.00556719   0.60786766
C       1.09900209  -0.00556720   0.60786696
O      -0.00000090   0.00000000   1.43489312
H      -1.33161406  -0.02123724  -1.58637799
H       1.33160953   0.02123729  -1.58638920
H      -2.11353917   0.02505057   0.97862716
H       2.11353598  -0.02505055   0.97863290
9
 Vibration 7 Frame 4
C      -0.69009592  -0.01582049  -0.71756160
C       0.69009959   0.01582048  -0.71756719
C      -1.09900409   0.00742292   0.60786777
C       1.09900288  -0.00742294   0.60786683
O      -0.00000120   0.00000001   1.43489290
H      -1.33161337  -0.02831632  -1.58637680
H       1.33160734   0.02831639  -1.58639174
H      -2.11354139   0.03340076   0.97862525
H       2.11353713  -0.03340074   0.97863290
9
 Vibration 7 Frame 5
C      -0.69009542  -0.01977561  -0.71756061
C       0.69010000   0.01977560  -0.71756760
C      -1.09900518   0.00927865   0.60786788
C       1.09900367  -0.00927867   0.60786671
O      -0.00000150   0.00000001   1.43489268
H      -1.33161269  -0.03539540  -1.58637561
H       1.33160514   0.03539549  -1.58639429
H      -2.11354361   0.04175096   0.97862334
H       2.11353829  -0.04175092   0.97863290
9
 Vibration 7 Frame 6
C      -0.69009491  -0.02373073  -0.71755962
C       0.69010042   0.02373073  -0.71756801
C      -1.09900627   0.01113438   0.60786800
C       1.09900446  -0.01113440   0.60786658
O      -0.00000180   0.00000001   1.43489247
H      -1.33161200  -0.04247448  -1.58637442
H       1.33160294   0.04247458  -1.58639683
H      -2.11354583   0.05010115   0.97862142
H       2.11353944  -0.05010111   0.97863290
9
 Vibration 7 Frame 7
C      -0.69009441  -0.02768585  -0.71755864
C       0.69010083   0.02768585  -0.71756842
C      -1.09900736   0.01299011   0.60786811
C       1.09900525  -0.01299014   0.60786646
O      -0.00000210   0.00000001   1.43489225
H      -1.33161131  -0.04955356  -1.58637323
H       1.33160075   0.04955368  -1.58639938
H      -2.11354804   0.05845134   0.97861951
H       2.11354059  -0.05845129   0.97863290
9
 Vibration 7 Frame 8
C      -0.69009391  -0.03164097  -0.71755765
C       0.69010125   0.03164097  -0.71756883
C      -1.09900845   0.01484584   0.60786822
C       1.09900604  -0.01484587   0.60786633
O      -0.00000240   0.00000001   1.43489203
H      -1.33161062  -0.05663264  -1.58637204
H       1.33159855   0.05663278  -1.58640192
H      -2.11355026   0.06680153   0.97861760
H       2.11354175  -0.06680148   0.97863290
9
 Vibration 7 Frame 9
C      -0.69009341  -0.03559610  -0.71755666
C       0.69010166   0.03559609  -0.71756923
C      -1.09900954   0.01670158   0.60786833
C       1.09900682  -0.01670160   0.60786620
O      -0.00000270   0.00000001   1.43489181
H      -1.33160994  -0.06371172  -1.58637085
H       1.33159635   0.06371188  -1.58640447
H      -2.11355248   0.07515172   0.97861568
H       2.11354290  -0.07515166   0.97863290
9
 Vibration 7 Frame 10
C      -0.69009291  -0.03955122  -0.71755567
C       0.69010208   0.03955121  -0.71756964
C      -1.09901063   0.01855731   0.60786844
C       1.09900761  -0.01855734   0.60786608
O      -0.00000300   0.00000002   1.43489159
H      -1.33160925  -0.07079080  -1.58636966
H       1.33159416   0.07079097  -1.58640701
H      -2.11355470   0.08350191   0.97861377
H       2.11354406  -0.08350185   0.97863290
9
 Vibration 7 Frame 11
C      -0.69009241  -0.04350634  -0.71755468
C       0.69010250   0.04350633  -0.71757005
C      -1.09901172   0.02041304   0.60786855
C       1.09900840  -0.02041307   0.60786595
O      -0.00000330   0.00000002   1.43489137
H      -1.33160856  -0.07786988  -1.58636847
H       1.33159196   0.07787007  -1.58640956
H      -2.11355692   0.09185210   0.97861186
H       2.11354521  -0.09185203   0.97863290
9
 Vibration 7 Frame 12
C      -0.69009190  -0.04746146  -0.71755369
C       0.69010291   0.04746145  -0.71757046
C      -1.09901281   0.02226877   0.60786866
C       1.09900919  -0.02226881   0.60786583
O      -0.00000360   0.00000002   1.43489115
H      -1.33160787  -0.08494897  -1.58636728
H       1.33158976   0.08494917  -1.58641210
H      -2.11355913   0.10020229   0.97860994
H       2.11354636  -0.10020222   0.97863290
9
 Vibration 7 Frame 13
C      -0.69009140  -0.05141658  -0.71755270
C       0.69010333   0.05141657  -0.71757087
C      -1.09901390   0.02412450   0.60786877
C       1.09900998  -0.02412454   0.60786570
O      -0.00000390   0.00000002   1.43489094
H      -1.33160719  -0.09202805  -1.58636608
H       1.33158756   0.09202827  -1.58641464
H      -2.11356135   0.10855248   0.97860803
H       2.11354752  -0.10855240   0.97863290
9
 Vibration 7 Frame 14
C      -0.69009090  -0.05537171  -0.71755171
C       0.69010374   0.05537169  -0.71757128
C      -1.09901499   0.02598023   0.60786888
C       1.09901077  -0.02598027   0.60786558
O      -0.00000420   0.00000002   1.43489072
H      -1.33160650  -0.09910713  -1.58636489
H       1.33158537   0.09910736  -1.58641719
H      -2.11356357   0.11690267   0.97860612
H       2.11354867  -0.11690259   0.97863290
9
 Vibration 7 Frame 15
C      -0.69009040  -0.05932683  -0.71755072
C       0.69010416   0.05932681  -0.71757168
C      -1.09901608   0.02783596   0.60786899
C       1.09901156  -0.02783601   0.60786545
O      -0.00000450   0.00000002   1.43489050
H      -1.33160581  -0.10618621  -1.58636370
H       1.33158317   0.10618646  -1.58641973
H      -2.11356579   0.12525287   0.97860420
H       2.11354982  -0.12525277   0.97863290
9
 Vibration 7 Frame 16
C      -0.69008990  -0.06328195  -0.71754973
C       0.69010457   0.06328194  -0.71757209
C      -1.09901717   0.02969169   0.60786910
C       1.09901235  -0.02969174   0.60786533
O      -0.00000480   0.00000003   1.43489028
H      -1.33160512  -0.11326529  -1.58636251
H       1.33158097   0.11326556  -1.58642228
H      -2.11356801   0.13360306   0.97860229
H       2.11355098  -0.13360296   0.97863290
9
 Vibration 7 Frame 17
C      -0.69008940  -0.06723707  -0.71754875
C       0.69010499   0.06723706  -0.71757250
C      -1.09901826   0.03154742   0.60786921
C       1.09901314  -0.03154747   0.60786520
O      -0.00000510   0.00000003   1.43489006
H      -1.33160444  -0.12034437  -1.58636132
H       1.33157878   0.12034465  -1.58642482
H      -2.11357023   0.14195325   0.97860038
H       2.11355213  -0.14195314   0.97863290
9
 Vibration 7 Frame 18
C      -0.69008889  -0.07119219  -0.71754776
C       0.69010541   0.07119218  -0.71757291
C      -1.09901935   0.03340315   0.60786932
C       1.09901392  -0.03340321   0.60786507
O      -0.00000540   0.00000003   1.43488984
H      -1.33160375  -0.12742345  -1.58636013
H       1.33157658   0.12742375  -1.58642737
H      -2.11357244   0.15030344   0.97859846
H       2.11355329  -0.15030333   0.97863289
9
 Vibration 7 Frame 19
C      -0.69008839  -0.07514732  -0.71754677
C       0.69010582   0.07514730  -0.71757332
C      -1.09902044   0.03525888   0.60786943
C       1.09901471  -0.03525894   0.60786495
O      -0.00000570   0.00000003   1.43488962
H      -1.33160306  -0.13450253  -1.58635894
H       1.33157438   0.13450285  -1.58642991
H      -2.11357466   0.15865363   0.97859655
H       2.11355444  -0.15865351   0.97863289
9
 Vibration 7 Frame 20
C      -0.69008789  -0.07910244  -0.71754578
C       0.69010624   0.07910242  -0.71757373
C      -1.09902153   0.03711461   0.60786954
C       1.09901550  -0.03711468   0.60786482
O      -0.00000600   0.00000003   1.43488941
H      -1.33160237  -0.14158161  -1.58635775
H       1.33157219   0.14158195  -1.58643245
H      -2.11357688   0.16700382   0.97859464
H       2.11355559  -0.16700370   0.97863289
9
 Vibration 7 Frame 21
C      -0.69008839  -0.07514732  -0.71754677
C       0.69010582   0.07514730  -0.71757332
C      -1.09902044   0.03525888   0.60786943
C       1.09901471  -0.03525894   0.60786495
O      -0.00000570   0.00000003   1.43488962
H      -1.33160306  -0.13450253  -1.58635894
H       1.33157438   0.13450285  -1.58642991
H      -2.11357466   0.15865363   0.97859655
H       2.11355444  -0.15865351   0.97863289
9
 Vibration 7 Frame 22
C      -0.69008889  -0.07119219  -0.71754776
C       0.69010541   0.07119218  -0.71757291
C      -1.09901935   0.03340315   0.60786932
C       1.09901392  -0.03340321   0.60786507
O      -0.00000540   0.00000003   1.43488984
H      -1.33160375  -0.12742345  -1.58636013
H       1.33157658   0.12742375  -1.58642737
H      -2.11357244   0.15030344   0.97859846
H       2.11355329  -0.15030333   0.97863289
9
 Vibration 7 Frame 23
C      -0.69008940  -0.06723707  -0.71754875
C       0.69010499   0.06723706  -0.71757250
C      -1.09901826   0.03154742   0.60786921
C       1.09901314  -0.03154747   0.60786520
O      -0.00000510   0.00000003   1.43489006
H      -1.33160444  -0.12034437  -1.58636132
H       1.33157878   0.12034465  -1.58642482
H      -2.11357023   0.14195325   0.97860038
H       2.11355213  -0.14195314   0.97863290
9
 Vibration 7 Frame 24
C      -0.69008990  -0.06328195  -0.71754973
C       0.69010457   0.06328194  -0.71757209
C      -1.09901717   0.02969169   0.60786910
C       1.09901235  -0.02969174   0.60786533
O      -0.00000480   0.00000003   1.43489028
H      -1.33160512  -0.11326529  -1.58636251
H       1.33158097   0.11326556  -1.58642228
H      -2.11356801   0.13360306   0.97860229
H       2.11355098  -0.13360296   0.97863290
9
 Vibration 7 Frame 25
C      -0.69009040  -0.05932683  -0.71755072
C       0.69010416   0.05932681  -0.71757168
C      -1.09901608   0.02783596   0.60786899
C       1.09901156  -0.02783601   0.60786545
O      -0.00000450   0.00000002   1.43489050
H      -1.33160581  -0.10618621  -1.58636370
H       1.33158317   0.10618646  -1.58641973
H      -2.11356579   0.12525287   0.97860420
H       2.11354982  -0.12525277   0.97863290
9
 Vibration 7 Frame 26
C      -0.69009090  -0.05537171  -0.71755171
C       0.69010374   0.05537169  -0.71757128
C      -1.09901499   0.02598023   0.60786888
C       1.09901077  -0.02598027   0.60786558
O      -0.00000420   0.00000002   1.43489072
H      -1.33160650  -0.09910713  -1.58636489
H       1.33158537   0.09910736  -1.58641719
H      -2.11356357   0.11690267   0.97860612
H       2.11354867  -0.11690259   0.97863290
9
 Vibration 7 Frame 27
C      -0.69009140  -0.05141658  -0.71755270
C       0.69010333   0.05141657  -0.71757087
C      -1.09901390   0.02412450   0.60786877
C       1.09900998  -0.02412454   0.60786570
O      -0.00000390   0.00000002   1.43489094
H      -1.33160719  -0.09202805  -1.58636608
H       1.33158756   0.09202827  -1.58641464
H      -2.11356135   0.10855248   0.97860803
H       2.11354752  -0.10855240   0.97863290
9
 Vibration 7 Frame 28
C      -0.69009190  -0.04746146  -0.71755369
C       0.69010291   0.04746145  -0.71757046
C      -1.09901281   0.02226877   0.60786866
C       1.09900919  -0.02226881   0.60786583
O      -0.00000360   0.00000002   1.43489115
H      -1.33160787  -0.08494897  -1.58636728
H       1.33158976   0.08494917  -1.58641210
H      -2.11355913   0.10020229   0.97860994
H       2.11354636  -0.10020222   0.97863290
9
 Vibration 7 Frame 29
C      -0.69009241  -0.04350634  -0.71755468
C       0.69010250   0.04350633  -0.71757005
C      -1.09901172   0.02041304   0.60786855
C       1.09900840  -0.02041307   0.60786595
O      -0.00000330   0.00000002   1.43489137
H      -1.33160856  -0.07786988  -1.58636847
H       1.33159196   0.07787007  -1.58640956
H      -2.11355692   0.09185210   0.97861186
H       2.11354521  -0.09185203   0.97863290
9
 Vibration 7 Frame 30
C      -0.69009291  -0.03955122  -0.71755567
C       0.69010208   0.03955121  -0.71756964
C      -1.09901063   0.01855731   0.60786844
C       1.09900761  -0.01855734   0.60786608
O      -0.00000300   0.00000002   1.43489159
H      -1.33160925  -0.07079080  -1.58636966
H       1.33159416   0.07079097  -1.58640701
H      -2.11355470   0.08350191   0.97861377
H       2.11354406  -0.08350185   0.97863290
9
 Vibration 7 Frame 31
C      -0.69009341  -0.03559610  -0.71755666
C       0.69010166   0.03559609  -0.71756923
C      -1.09900954   0.01670158   0.60786833
C       1.09900682  -0.01670160   0.60786620
O      -0.00000270   0.00000001   1.43489181
H      -1.33160994  -0.06371172  -1.58637085
H       1.33159635   0.06371188  -1.58640447
H      -2.11355248   0.07515172   0.97861568
H       2.11354290  -0.07515166   0.97863290
9
 Vibration 7 Frame 32
C      -0.69009391  -0.03164097  -0.71755765
C       0.69010125   0.03164097  -0.71756883
C      -1.09900845   0.01484584   0.60786822
C       1.09900604  -0.01484587   0.60786633
O      -0.00000240   0.00000001   1.43489203
H      -1.33161062  -0.05663264  -1.58637204
H       1.33159855   0.05663278  -1.58640192
H      -2.11355026   0.06680153   0.97861760
H       2.11354175  -0.06680148   0.97863290
9
 Vibration 7 Frame 33
C      -0.69009441  -0.02768585  -0.71755864
C       0.69010083   0.02768585  -0.71756842
C      -1.09900736   0.01299011   0.60786811
C       1.09900525  -0.01299014   0.60786646
O      -0.00000210   0.00000001   1.43489225
H      -1.33161131  -0.04955356  -1.58637323
H       1.33160075   0.04955368  -1.58639938
H      -2.11354804   0.05845134   0.97861951
H       2.11354059  -0.05845129   0.97863290
9
 Vibration 7 Frame 34
C      -0.69009491  -0.02373073  -0.71755962
C       0.69010042   0.02373073  -0.71756801
C      -1.09900627   0.01113438   0.60786800
C       1.09900446  -0.01113440   0.60786658
O      -0.00000180   0.00000001   1.43489247
H      -1.33161200  -0.04247448  -1.58637442
H       1.33160294   0.04247458  -1.58639683
H      -2.11354583   0.05010115   0.97862142
H       2.11353944  -0.05010111   0.97863290
9
 Vibration 7 Frame 35
C      -0.69009542  -0.01977561  -0.71756061
C       0.69010000   0.01977560  -0.71756760
C      -1.09900518   0.00927865   0.60786788
C       1.09900367  -0.00927867   0.60786671
O      -0.00000150   0.00000001   1.43489268
H      -1.33161269  -0.03539540  -1.58637561
H       1.33160514   0.03539549  -1.58639429
H      -2.11354361   0.04175096   0.97862334
H       2.11353829  -0.04175092   0.97863290
9
 Vibration 7 Frame 36
C      -0.69009592  -0.01582049  -0.71756160
C       0.69009959   0.01582048  -0.71756719
C      -1.09900409   0.00742292   0.60786777
C       1.09900288  -0.00742294   0.60786683
O      -0.00000120   0.00000001   1.43489290
H      -1.33161337  -0.02831632  -1.58637680
H       1.33160734   0.02831639  -1.58639174
H      -2.11354139   0.03340076   0.97862525
H       2.11353713  -0.03340074   0.97863290
9
 Vibration 7 Frame 37
C      -0.69009642  -0.01186537  -0.71756259
C       0.69009917   0.01186536  -0.71756678
C      -1.09900300   0.00556719   0.60786766
C       1.09900209  -0.00556720   0.60786696
O      -0.00000090   0.00000000   1.43489312
H      -1.33161406  -0.02123724  -1.58637799
H       1.33160953   0.02123729  -1.58638920
H      -2.11353917   0.02505057   0.97862716
H       2.11353598  -0.02505055   0.97863290
9
 Vibration 7 Frame 38
C      -0.69009692  -0.00791024  -0.71756358
C       0.69009875   0.00791024  -0.71756638
C      -1.09900190   0.00371146   0.60786755
C       1.09900130  -0.00371147   0.60786708
O      -0.00000060   0.00000000   1.43489334
H      -1.33161475  -0.01415816  -1.58637919
H       1.33161173   0.01415819  -1.58638666
H      -2.11353695   0.01670038   0.97862908
H       2.11353482  -0.01670037   0.97863290
9
 Vibration 7 Frame 39
C      -0.69009742  -0.00395512  -0.71756457
C       0.69009834   0.00395512  -0.71756597
C      -1.09900081   0.00185573   0.60786744
C       1.09900051  -0.00185573   0.60786721
O      -0.00000030   0.00000000   1.43489356
H      -1.33161544  -0.00707908  -1.58638038
H       1.33161393   0.00707910  -1.58638411
H      -2.11353474   0.00835019   0.97863099
H       2.11353367  -0.00835018   0.97863290
