9

C1 -0.690097923 0.000000000 -0.717565559
C2  0.690097923 0.000000000 -0.717565559
C3 -1.098999724 0.000000000  0.607867334
C4  1.098999724 0.000000000  0.607867334
O5  0.000000000 0.000000000  1.434893777
H6 -1.331616124 0.000000000 -1.586381567
H7  1.331616124 0.000000000 -1.586381567
H8 -2.113532517 0.000000000  0.978632903
H9  2.113532517 0.000000000  0.978632903
