
 Primary working directories    : /scr/kumo
 Secondary working directories  : /scr/kumo
 Wavefunction directory         : /valhalla/home/kumo/wfu/
 Main file repository           : /scr/kumo/

 SHA1      : 5b1d074a25eef39b04831e9568c159f1d25e52e7
 ARCHNAME  : Linux/x86_64
 FC        : /opt/intel_2011p10/composer_xe_2011_sp1.10.319/bin/intel64/ifort
 FCVERSION : 12.1.4
 BLASLIB   : -L/opt/intel_2011p10/composer_xe_2011_sp1.10.319/mkl/lib/intel64 -lmkl_intel_ilp64 -lmkl_sequential -lmkl_core
 id        : kumo

 Nodes     nprocs
 hel06        1

 Using customized tuning parameters: mindgm=1; mindgv=20; mindgc=4; mindgr=1; noblas=0; minvec=7
 default implementation of scratch files=df  

 memory,100,m
 geomtyp=xyz
 geometry={
 9
 C1    -0.69009792   0.00000000  -0.71756556
 C2     0.69009792   0.00000000  -0.71756556
 C3    -1.09899972   0.00000000   0.60786733
 C4     1.09899972   0.00000000   0.60786733
 O5     0.00000000   0.00000000   1.43489378
 H6    -1.33161612   0.00000000  -1.58638157
 H7     1.33161612   0.00000000  -1.58638157
 H8    -2.10824074   0.00000000   0.97863290
 H9     2.10824074   0.00000000   0.97863290
 }
 basis=sto-3G
 hf
 

 Variables initialized (801), CPU time= 0.01 sec
 Commands  initialized (611), CPU time= 0.01 sec, 523 directives.
 Default parameters read. Elapsed time= 1.72 sec

 Checking input...
 Passed
1


                                         ***  PROGRAM SYSTEM MOLPRO  ***
                         Copyright, University College Cardiff Consultants Limited, 2008

                                    Version 2099.9 linked 31 Mar 2014 17:15:48


 **********************************************************************************************************************************
 LABEL *                                                                                 
 Linux-3.13.0-24-generic/hel06(x86_64) 64 bit serial version                             DATE: 05-Mar-15          TIME: 14:57:49  
 **********************************************************************************************************************************

 SHA1:             5b1d074a25eef39b04831e9568c159f1d25e52e7

 Develop Directory: /home/kumo/development/regions_orbital_inp_parallel

 Included files:    ccmp2_loc3.F ccsd_loc.F ciinp.F local_init.F orbdom.F r12dom.F
                    region.F
 **********************************************************************************************************************************
 SETTING GEOMTYP        =    XYZ

 Variable memory set to  100000000 words,  buffer space   230000 words

 SETTING BASIS          =    STO-3G


 Recomputing integrals since basis changed


 Using spherical harmonics

 Library entry C      S STO-3G               selected for orbital group  1
 Library entry C      P STO-3G               selected for orbital group  1
 Library entry O      S STO-3G               selected for orbital group  2
 Library entry O      P STO-3G               selected for orbital group  2
 Library entry H      S STO-3G               selected for orbital group  3

1PROGRAM * SEWARD (Integral evaluation for generally contracted gaussian basis sets)     Author: Roland Lindh, 1990

 Geometry written to block  1 of record 700


 Point group  C2v 



 ATOMIC COORDINATES

 NR  ATOM    CHARGE       X              Y              Z

   1  C1      6.00   -1.304096073    0.000000000   -1.356002390
   2  C2      6.00    1.304096073    0.000000000   -1.356002390
   3  C3      6.00   -2.076808489    0.000000000    1.148702778
   4  C4      6.00    2.076808489    0.000000000    1.148702778
   5  O5      8.00    0.000000000    0.000000000    2.711556272
   6  H6      1.00   -2.516389779    0.000000000   -2.997826707
   7  H7      1.00    2.516389779    0.000000000   -2.997826707
   8  H8      1.00   -3.983997618    0.000000000    1.849348164
   9  H9      1.00    3.983997618    0.000000000    1.849348164

 Bond lengths in Bohr (Angstrom)

 1-2  2.608192145  1-3  2.621189130  1-6  2.040892726  2-4  2.621189130  2-7  2.040892726
     ( 1.380195840)     ( 1.387073548)     ( 1.079993917)     ( 1.387073548)     ( 1.079993917)

 3-5  2.599162278  3-8  2.031815525  4-5  2.599162278  4-9  2.031815525
     ( 1.375417440)     ( 1.075190469)     ( 1.375417440)     ( 1.075190469)

 Bond angles

  1-2-4  107.14522146   1-2-7  126.44149675   1-3-5  109.81721012   1-3-8  127.31707391

  2-1-3  107.14522146   2-1-6  126.44149675   2-4-5  109.81721012   2-4-9  127.31707391

  3-1-6  126.41328180   3-5-4  106.07513686   4-2-7  126.41328180   5-3-8  122.86571598

  5-4-9  122.86571598

 NUCLEAR CHARGE:                   36
 NUMBER OF PRIMITIVE AOS:          87
 NUMBER OF SYMMETRY AOS:           87
 NUMBER OF CONTRACTIONS:           29   (  13A1  +  11B1  +   3B2  +   2A2  )
 NUMBER OF CORE ORBITALS:           5   (   3A1  +   2B1  +   0B2  +   0A2  )
 NUMBER OF VALENCE ORBITALS:       24   (  10A1  +   9B1  +   3B2  +   2A2  )


 NUCLEAR REPULSION ENERGY  160.18320059


 Eigenvalues of metric

         1 0.227E+00 0.301E+00 0.314E+00 0.388E+00 0.876E+00 0.934E+00 0.960E+00 0.107E+01
         2 0.175E+00 0.269E+00 0.289E+00 0.347E+00 0.442E+00 0.930E+00 0.984E+00 0.127E+01
         3 0.747E+00 0.106E+01 0.145E+01
         4 0.669E+00 0.107E+01


 Contracted 2-electron integrals neglected if value below      1.0D-11
 AO integral compression algorithm  1   Integral accuracy      1.0D-11

     0.262 MB (compressed) written to integral file (100.0%)


 NUMBER OF SORTED TWO-ELECTRON INTEGRALS:      31309.     BUFFER LENGTH:  32768
 NUMBER OF SEGMENTS:   1  SEGMENT LENGTH:      31309      RECORD LENGTH: 524288

 Memory used in sort:       0.59 MW

 SORT1 READ       39671. AND WROTE       30467. INTEGRALS IN      1 RECORDS. CPU TIME:     0.01 SEC, REAL TIME:     0.01 SEC
 SORT2 READ       30467. AND WROTE       31309. INTEGRALS IN      1 RECORDS. CPU TIME:     0.00 SEC, REAL TIME:     0.01 SEC

 FILE SIZES:   FILE 1:     7.9 MBYTE,  FILE 4:     4.2 MBYTE,   TOTAL:     12.2 MBYTE

 OPERATOR DM      FOR CENTER  0  COORDINATES:    0.000000    0.000000    0.000000


 **********************************************************************************************************************************
 DATASETS  * FILE   NREC   LENGTH (MB)   RECORD NAMES
              1      19        7.82       500      610      700      900      950      970     1000      129      960     1100   
                                          VAR    BASINP    GEOM    SYMINP    ZMAT    AOBASIS   BASIS     P2S    ABASIS      S 
                                         1400     1410     1200     1210     1080     1600     1650     1300     1700   
                                           T        V       H0       H01     AOSYM     SMH    MOLCAS    ERIS     OPER   

 PROGRAMS   *        TOTAL       INT
 CPU TIMES  *         0.30      0.20
 REAL TIME  *         5.21 SEC
 DISK USED  *        12.57 MB      
 **********************************************************************************************************************************

1PROGRAM * RHF-SCF (CLOSED SHELL)       Authors: W. Meyer, H.-J. Werner


 NUMBER OF ELECTRONS:      18+   18-
 CONVERGENCE THRESHOLDS:    1.00E-05 (Density)    1.00E-07 (Energy)
 MAX. NUMBER OF ITERATIONS:       60
 INTERPOLATION TYPE:            DIIS
 INTERPOLATION STEPS:              2 (START)      1 (STEP)
 LEVEL SHIFTS:                  0.00 (CLOSED)  0.00 (OPEN) 



 Orbital guess generated from atomic densities. Full valence occupancy:   13  11   3   2

 Molecular orbital dump at record        2100.2

 Initial occupancy:   9   6   2   1

 ITERATION    DDIFF          GRAD             ENERGY        2-EL.EN.            DIPOLE MOMENTS         DIIS   ORB.
    1      0.000D+00      0.000D+00      -225.66728891    484.251344    0.00000    0.00000   -0.33747    0    start
    2      0.000D+00      0.264D-01      -225.73704544    479.213274    0.00000    0.00000   -0.28018    1    diag
    3      0.503D-01      0.704D-02      -225.74067450    479.242377    0.00000    0.00000   -0.12224    2    diag
    4      0.113D-01      0.177D-02      -225.74098096    479.225600    0.00000    0.00000   -0.19134    3    diag
    5      0.303D-02      0.464D-03      -225.74100148    479.210882    0.00000    0.00000   -0.17659    4    diag
    6      0.744D-03      0.135D-03      -225.74100560    479.216192    0.00000    0.00000   -0.18336    5    diag
    7      0.343D-03      0.618D-04      -225.74100647    479.216449    0.00000    0.00000   -0.18323    6    diag
    8      0.205D-03      0.105D-04      -225.74100650    479.216533    0.00000    0.00000   -0.18321    7    diag
    9      0.436D-04      0.282D-05      -225.74100650    479.216562    0.00000    0.00000   -0.18320    8    diag
   10      0.127D-04      0.489D-06      -225.74100650    479.216570    0.00000    0.00000   -0.18320    9    orth
   11      0.184D-05      0.701D-07      -225.74100650    479.216570    0.00000    0.00000   -0.18320    0    orth

 Final occupancy:   9   6   2   1

 !RHF STATE 1.1 Energy               -225.741006504382
 Nuclear energy                       160.18320059
 One-electron energy                 -625.53249185
 Two-electron energy                  239.60828475
 Virial quotient                       -1.00965686
 !RHF STATE 1.1 Dipole moment           0.00000000     0.00000000    -0.18320378
 Dipole moment /Debye                   0.00000000     0.00000000    -0.46562706

 Orbital energies:

         1.1          2.1          3.1          4.1          5.1          6.1          7.1          8.1          9.1         10.1
    -20.382020   -11.066961   -11.016188    -1.386736    -1.024240    -0.734287    -0.676212    -0.501079    -0.449875     0.546473

        11.1
      0.616812

         1.2          2.2          3.2          4.2          5.2          6.2          7.2          8.2
    -11.067295   -11.015852    -0.928868    -0.724439    -0.549480    -0.500264     0.653350     0.703731

         1.3          2.3          3.3
     -0.554123    -0.330019     0.272219

         1.4          2.4
     -0.250024     0.393907

 HOMO      1.4    -0.250024 =      -6.8035eV
 LUMO      3.3     0.272219 =       7.4075eV
 LUMO-HOMO         0.522243 =      14.2110eV


 **********************************************************************************************************************************
 DATASETS  * FILE   NREC   LENGTH (MB)   RECORD NAMES
              1      19        7.82       500      610      700      900      950      970     1000      129      960     1100   
                                          VAR    BASINP    GEOM    SYMINP    ZMAT    AOBASIS   BASIS     P2S    ABASIS      S 
                                         1400     1410     1200     1210     1080     1600     1650     1300     1700   
                                           T        V       H0       H01     AOSYM     SMH    MOLCAS    ERIS     OPER   

              2       4        0.51       700     1000      520     2100   
                                         GEOM     BASIS   MCVARS     RHF  

 PROGRAMS   *        TOTAL        HF       INT
 CPU TIMES  *         0.37      0.07      0.20
 REAL TIME  *         6.55 SEC
 DISK USED  *        12.57 MB      
 **********************************************************************************************************************************

        HF-SCF  
   -225.74100650
 **********************************************************************************************************************************
 Variable memory released
