
 Primary working directories    : /scr/kumo
 Secondary working directories  : /scr/kumo
 Wavefunction directory         : /valhalla/home/kumo/wfu/
 Main file repository           : /scr/kumo/

 SHA1      : 5b1d074a25eef39b04831e9568c159f1d25e52e7
 ARCHNAME  : Linux/x86_64
 FC        : /opt/intel_2011p10/composer_xe_2011_sp1.10.319/bin/intel64/ifort
 FCVERSION : 12.1.4
 BLASLIB   : -L/opt/intel_2011p10/composer_xe_2011_sp1.10.319/mkl/lib/intel64 -lmkl_intel_ilp64 -lmkl_sequential -lmkl_core
 id        : kumo

 Nodes     nprocs
 hel06        1

 Using customized tuning parameters: mindgm=1; mindgv=20; mindgc=4; mindgr=1; noblas=0; minvec=7
 default implementation of scratch files=df  

 memory,100,m
 geomtyp=xyz
 geometry={
 9
 C1    -0.69009792   0.00000000  -0.71756556
 C2     0.69009792   0.00000000  -0.71756556
 C3    -1.09899972   0.00000000   0.60786733
 C4     1.09899972   0.00000000   0.60786733
 O5     0.00000000   0.00000000   1.43489378
 H6    -1.33161612   0.00000000  -1.58638157
 H7     1.33690790   0.00000000  -1.58638157
 H8    -2.11353252   0.00000000   0.97863290
 H9     2.11353252  -0.00529177   0.97863290
 }
 basis=sto-3G
 hf
 

 Variables initialized (801), CPU time= 0.00 sec
 Commands  initialized (611), CPU time= 0.01 sec, 523 directives.
 Default parameters read. Elapsed time= 1.11 sec

 Checking input...
 Passed
1


                                         ***  PROGRAM SYSTEM MOLPRO  ***
                         Copyright, University College Cardiff Consultants Limited, 2008

                                    Version 2099.9 linked 31 Mar 2014 17:15:48


 **********************************************************************************************************************************
 LABEL *                                                                                 
 Linux-3.13.0-24-generic/hel06(x86_64) 64 bit serial version                             DATE: 05-Mar-15          TIME: 14:52:05  
 **********************************************************************************************************************************

 SHA1:             5b1d074a25eef39b04831e9568c159f1d25e52e7

 Develop Directory: /home/kumo/development/regions_orbital_inp_parallel

 Included files:    ccmp2_loc3.F ccsd_loc.F ciinp.F local_init.F orbdom.F r12dom.F
                    region.F
 **********************************************************************************************************************************
 SETTING GEOMTYP        =    XYZ

 Variable memory set to  100000000 words,  buffer space   230000 words

 SETTING BASIS          =    STO-3G


 Recomputing integrals since basis changed


 Using spherical harmonics

 Library entry C      S STO-3G               selected for orbital group  1
 Library entry C      P STO-3G               selected for orbital group  1
 Library entry O      S STO-3G               selected for orbital group  2
 Library entry O      P STO-3G               selected for orbital group  2
 Library entry H      S STO-3G               selected for orbital group  3

1PROGRAM * SEWARD (Integral evaluation for generally contracted gaussian basis sets)     Author: Roland Lindh, 1990

 Geometry written to block  1 of record 700


 Point group  C1  



 ATOMIC COORDINATES

 NR  ATOM    CHARGE       X              Y              Z

   1  C1      6.00   -1.304096073    0.000000000   -1.356002390
   2  C2      6.00    1.304096073    0.000000000   -1.356002390
   3  C3      6.00   -2.076808489    0.000000000    1.148702778
   4  C4      6.00    2.076808489    0.000000000    1.148702778
   5  O5      8.00    0.000000000    0.000000000    2.711556272
   6  H6      1.00   -2.516389779    0.000000000   -2.997826707
   7  H7      1.00    2.526389794    0.000000000   -2.997826707
   8  H8      1.00   -3.993997633    0.000000000    1.849348164
   9  H9      1.00    3.993997633   -0.009999996    1.849348164

 Bond lengths in Bohr (Angstrom)

 1-2  2.608192145  1-3  2.621189130  1-6  2.040892726  2-4  2.621189130  2-7  2.046848561
     ( 1.380195840)     ( 1.387073548)     ( 1.079993917)     ( 1.387073548)     ( 1.083145609)

 3-5  2.599162278  3-8  2.041205078  4-5  2.599162278  4-9  2.041229573
     ( 1.375417440)     ( 1.080159206)     ( 1.375417440)     ( 1.080172168)

 Bond angles

  1-2-4  107.14522146   1-2-7  126.66668472   1-3-5  109.81721012   1-3-8  127.22027937

  2-1-3  107.14522146   2-1-6  126.44149675   2-4-5  109.81721012   2-4-9  127.21975710

  3-1-6  126.41328180   3-5-4  106.07513686   4-2-7  126.18809382   5-3-8  122.96251051

  5-4-9  122.96206465

 NUCLEAR CHARGE:                   36
 NUMBER OF PRIMITIVE AOS:          87
 NUMBER OF SYMMETRY AOS:           87
 NUMBER OF CONTRACTIONS:           29   (  29A   )
 NUMBER OF CORE ORBITALS:           5   (   5A   )
 NUMBER OF VALENCE ORBITALS:       24   (  24A   )


 NUCLEAR REPULSION ENERGY  160.12102686


 Eigenvalues of metric

         1 0.175E+00 0.227E+00 0.270E+00 0.291E+00 0.302E+00 0.317E+00 0.348E+00 0.389E+00


 Contracted 2-electron integrals neglected if value below      1.0D-11
 AO integral compression algorithm  1   Integral accuracy      1.0D-11

     0.524 MB (compressed) written to integral file ( 70.8%)


 NUMBER OF SORTED TWO-ELECTRON INTEGRALS:      94830.     BUFFER LENGTH:  32768
 NUMBER OF SEGMENTS:   1  SEGMENT LENGTH:      94830      RECORD LENGTH: 524288

 Memory used in sort:       0.65 MW

 SORT1 READ      112495. AND WROTE       58782. INTEGRALS IN      1 RECORDS. CPU TIME:     0.01 SEC, REAL TIME:     0.03 SEC
 SORT2 READ       58782. AND WROTE       94830. INTEGRALS IN      2 RECORDS. CPU TIME:     0.01 SEC, REAL TIME:     0.01 SEC

 FILE SIZES:   FILE 1:     8.2 MBYTE,  FILE 4:     4.2 MBYTE,   TOTAL:     12.4 MBYTE

 OPERATOR DM      FOR CENTER  0  COORDINATES:    0.000000    0.000000    0.000000


 **********************************************************************************************************************************
 DATASETS  * FILE   NREC   LENGTH (MB)   RECORD NAMES
              1      19        7.97       500      610      700      900      950      970     1000      129      960     1100   
                                          VAR    BASINP    GEOM    SYMINP    ZMAT    AOBASIS   BASIS     P2S    ABASIS      S 
                                         1400     1410     1200     1210     1080     1600     1650     1300     1700   
                                           T        V       H0       H01     AOSYM     SMH    MOLCAS    ERIS     OPER   

 PROGRAMS   *        TOTAL       INT
 CPU TIMES  *         0.34      0.24
 REAL TIME  *         4.76 SEC
 DISK USED  *        12.84 MB      
 **********************************************************************************************************************************

1PROGRAM * RHF-SCF (CLOSED SHELL)       Authors: W. Meyer, H.-J. Werner


 NUMBER OF ELECTRONS:      18+   18-    SPACE SYMMETRY=1    SPIN SYMMETRY: Singlet 
 CONVERGENCE THRESHOLDS:    1.00E-05 (Density)    1.00E-07 (Energy)
 MAX. NUMBER OF ITERATIONS:       60
 INTERPOLATION TYPE:            DIIS
 INTERPOLATION STEPS:              2 (START)      1 (STEP)
 LEVEL SHIFTS:                  0.00 (CLOSED)  0.00 (OPEN) 



 Orbital guess generated from atomic densities. Full valence occupancy:   18

 Molecular orbital dump at record        2100.2

 Initial occupancy:  18

 ITERATION    DDIFF          GRAD             ENERGY        2-EL.EN.            DIPOLE MOMENTS         DIIS   ORB.
    1      0.000D+00      0.000D+00      -225.66675552    484.187817    0.00264   -0.00175   -0.33443    0    start
    2      0.000D+00      0.156D-01      -225.73699250    479.116080    0.00068   -0.00120   -0.27870    1    diag
    3      0.308D-01      0.416D-02      -225.74063142    479.145853    0.00042   -0.00094   -0.12023    2    diag
    4      0.695D-02      0.105D-02      -225.74094053    479.130060    0.00044   -0.00101   -0.19003    3    diag
    5      0.186D-02      0.275D-03      -225.74096126    479.115167    0.00046   -0.00100   -0.17523    4    diag
    6      0.455D-03      0.801D-04      -225.74096538    479.120454    0.00046   -0.00100   -0.18202    5    diag
    7      0.209D-03      0.365D-04      -225.74096625    479.120709    0.00046   -0.00100   -0.18189    6    diag
    8      0.123D-03      0.621D-05      -225.74096629    479.120794    0.00046   -0.00100   -0.18187    7    diag
    9      0.254D-04      0.166D-05      -225.74096629    479.120823    0.00046   -0.00100   -0.18186    8    diag
   10      0.722D-05      0.291D-06      -225.74096629    479.120829    0.00046   -0.00100   -0.18187    0    orth

 Final occupancy:  18

 !RHF STATE 1.1 Energy               -225.740966291188
 Nuclear energy                       160.12102686
 One-electron energy                 -625.42240777
 Two-electron energy                  239.56041462
 Virial quotient                       -1.00969740
 !RHF STATE 1.1 Dipole moment           0.00046339    -0.00100341    -0.18186654
 Dipole moment /Debye                   0.00117775    -0.00255025    -0.46222837

 Orbital energies:

         1.1          2.1          3.1          4.1          5.1          6.1          7.1          8.1          9.1         10.1
    -20.381908   -11.067253   -11.066870   -11.016060   -11.015725    -1.386678    -1.024045    -0.928189    -0.732958    -0.723867

        11.1         12.1         13.1         14.1         15.1         16.1         17.1         18.1         19.1         20.1
     -0.675270    -0.554036    -0.548441    -0.500792    -0.499484    -0.449499    -0.329933    -0.249782     0.272477     0.394125

 HOMO     18.1    -0.249782 =      -6.7969eV
 LUMO     19.1     0.272477 =       7.4145eV
 LUMO-HOMO         0.522258 =      14.2114eV


 **********************************************************************************************************************************
 DATASETS  * FILE   NREC   LENGTH (MB)   RECORD NAMES
              1      19        7.97       500      610      700      900      950      970     1000      129      960     1100   
                                          VAR    BASINP    GEOM    SYMINP    ZMAT    AOBASIS   BASIS     P2S    ABASIS      S 
                                         1400     1410     1200     1210     1080     1600     1650     1300     1700   
                                           T        V       H0       H01     AOSYM     SMH    MOLCAS    ERIS     OPER   

              2       4        0.52       700     1000      520     2100   
                                         GEOM     BASIS   MCVARS     RHF  

 PROGRAMS   *        TOTAL        HF       INT
 CPU TIMES  *         0.43      0.08      0.24
 REAL TIME  *         6.49 SEC
 DISK USED  *        12.84 MB      
 **********************************************************************************************************************************

        HF-SCF  
   -225.74096629
 **********************************************************************************************************************************
 Variable memory released
