
 Primary working directories    : /scr/kumo
 Secondary working directories  : /scr/kumo
 Wavefunction directory         : /valhalla/home/kumo/wfu/
 Main file repository           : /scr/kumo/

 SHA1      : 5b1d074a25eef39b04831e9568c159f1d25e52e7
 ARCHNAME  : Linux/x86_64
 FC        : /opt/intel_2011p10/composer_xe_2011_sp1.10.319/bin/intel64/ifort
 FCVERSION : 12.1.4
 BLASLIB   : -L/opt/intel_2011p10/composer_xe_2011_sp1.10.319/mkl/lib/intel64 -lmkl_intel_ilp64 -lmkl_sequential -lmkl_core
 id        : kumo

 Nodes     nprocs
 hel06        1

 Using customized tuning parameters: mindgm=1; mindgv=20; mindgc=4; mindgr=1; noblas=0; minvec=7
 default implementation of scratch files=df  

 memory,100,m
 geomtyp=xyz
 geometry={
 9
 C1    -0.69009792   0.00000000  -0.71756556
 C2     0.69009792   0.00000000  -0.71756556
 C3    -1.09899972   0.00000000   0.61315911
 C4     1.09899972   0.00000000   0.60257556
 O5     0.00000000   0.00000000   1.43489378
 H6    -1.33161612   0.00000000  -1.58638157
 H7     1.33161612   0.00000000  -1.58638157
 H8    -2.11353252   0.00000000   0.97863290
 H9     2.11353252   0.00000000   0.97863290
 }
 basis=sto-3G
 hf
 

 Variables initialized (801), CPU time= 0.01 sec
 Commands  initialized (611), CPU time= 0.01 sec, 523 directives.
 Default parameters read. Elapsed time= 0.79 sec

 Checking input...
 Passed
1


                                         ***  PROGRAM SYSTEM MOLPRO  ***
                         Copyright, University College Cardiff Consultants Limited, 2008

                                    Version 2099.9 linked 31 Mar 2014 17:15:48


 **********************************************************************************************************************************
 LABEL *                                                                                 
 Linux-3.13.0-24-generic/hel06(x86_64) 64 bit serial version                             DATE: 05-Mar-15          TIME: 14:26:01  
 **********************************************************************************************************************************

 SHA1:             5b1d074a25eef39b04831e9568c159f1d25e52e7

 Develop Directory: /home/kumo/development/regions_orbital_inp_parallel

 Included files:    ccmp2_loc3.F ccsd_loc.F ciinp.F local_init.F orbdom.F r12dom.F
                    region.F
 **********************************************************************************************************************************
 SETTING GEOMTYP        =    XYZ

 Variable memory set to  100000000 words,  buffer space   230000 words

 SETTING BASIS          =    STO-3G


 Recomputing integrals since basis changed


 Using spherical harmonics

 Library entry C      S STO-3G               selected for orbital group  1
 Library entry C      P STO-3G               selected for orbital group  1
 Library entry O      S STO-3G               selected for orbital group  2
 Library entry O      P STO-3G               selected for orbital group  2
 Library entry H      S STO-3G               selected for orbital group  3

1PROGRAM * SEWARD (Integral evaluation for generally contracted gaussian basis sets)     Author: Roland Lindh, 1990

 Geometry written to block  1 of record 700


 Point group  Cs  



 ATOMIC COORDINATES

 NR  ATOM    CHARGE       X              Y              Z

   1  C1      6.00   -1.304096073    0.000000000   -1.356002390
   2  C2      6.00    1.304096073    0.000000000   -1.356002390
   3  C3      6.00   -2.076808489    0.000000000    1.158702793
   4  C4      6.00    2.076808489    0.000000000    1.138702782
   5  O5      8.00    0.000000000    0.000000000    2.711556272
   6  H6      1.00   -2.516389779    0.000000000   -2.997826707
   7  H7      1.00    2.516389779    0.000000000   -2.997826707
   8  H8      1.00   -3.993997633    0.000000000    1.849348164
   9  H9      1.00    3.993997633    0.000000000    1.849348164

 Bond lengths in Bohr (Angstrom)

 1-2  2.608192145  1-3  2.630746403  1-6  2.040892726  2-4  2.611635191  2-7  2.040892726
     ( 1.380195840)     ( 1.392131039)     ( 1.079993917)     ( 1.382017821)     ( 1.079993917)

 3-5  2.593161666  3-8  2.037794210  4-5  2.605187441  4-9  2.044659158
     ( 1.372242053)     ( 1.078354252)     ( 1.378605819)     ( 1.081987026)

 Bond angles

  1-2-4  107.20989543   1-2-7  126.44149675   1-3-5  109.70486857   1-3-8  126.89199066

  2-1-3  107.08101718   2-1-6  126.44149675   2-4-5  109.92826667   2-4-9  127.54815062

  3-1-6  126.47748607   3-5-4  106.07595214   4-2-7  126.34860782   5-3-8  123.40314077

  5-4-9  122.52358271

 NUCLEAR CHARGE:                   36
 NUMBER OF PRIMITIVE AOS:          87
 NUMBER OF SYMMETRY AOS:           87
 NUMBER OF CONTRACTIONS:           29   (  24A'  +   5A"  )
 NUMBER OF CORE ORBITALS:           5   (   5A'  +   0A"  )
 NUMBER OF VALENCE ORBITALS:       24   (  19A'  +   5A"  )


 NUCLEAR REPULSION ENERGY  160.13581572


 Eigenvalues of metric

         1 0.175E+00 0.227E+00 0.270E+00 0.290E+00 0.301E+00 0.317E+00 0.348E+00 0.388E+00
         2 0.669E+00 0.747E+00 0.106E+01 0.107E+01 0.145E+01


 Contracted 2-electron integrals neglected if value below      1.0D-11
 AO integral compression algorithm  1   Integral accuracy      1.0D-11

     0.524 MB (compressed) written to integral file (100.0%)


 NUMBER OF SORTED TWO-ELECTRON INTEGRALS:      58770.     BUFFER LENGTH:  32768
 NUMBER OF SEGMENTS:   1  SEGMENT LENGTH:      58770      RECORD LENGTH: 524288

 Memory used in sort:       0.62 MW

 SORT1 READ       66565. AND WROTE       56549. INTEGRALS IN      1 RECORDS. CPU TIME:     0.00 SEC, REAL TIME:     0.00 SEC
 SORT2 READ       56549. AND WROTE       58770. INTEGRALS IN      2 RECORDS. CPU TIME:     0.01 SEC, REAL TIME:     0.01 SEC

 FILE SIZES:   FILE 1:     8.2 MBYTE,  FILE 4:     4.2 MBYTE,   TOTAL:     12.4 MBYTE

 OPERATOR DM      FOR CENTER  0  COORDINATES:    0.000000    0.000000    0.000000


 **********************************************************************************************************************************
 DATASETS  * FILE   NREC   LENGTH (MB)   RECORD NAMES
              1      19        7.95       500      610      700      900      950      970     1000      129      960     1100   
                                          VAR    BASINP    GEOM    SYMINP    ZMAT    AOBASIS   BASIS     P2S    ABASIS      S 
                                         1400     1410     1200     1210     1080     1600     1650     1300     1700   
                                           T        V       H0       H01     AOSYM     SMH    MOLCAS    ERIS     OPER   

 PROGRAMS   *        TOTAL       INT
 CPU TIMES  *         0.36      0.26
 REAL TIME  *         4.06 SEC
 DISK USED  *        12.84 MB      
 **********************************************************************************************************************************

1PROGRAM * RHF-SCF (CLOSED SHELL)       Authors: W. Meyer, H.-J. Werner


 NUMBER OF ELECTRONS:      18+   18-
 CONVERGENCE THRESHOLDS:    1.00E-05 (Density)    1.00E-07 (Energy)
 MAX. NUMBER OF ITERATIONS:       60
 INTERPOLATION TYPE:            DIIS
 INTERPOLATION STEPS:              2 (START)      1 (STEP)
 LEVEL SHIFTS:                  0.00 (CLOSED)  0.00 (OPEN) 



 Orbital guess generated from atomic densities. Full valence occupancy:   24   5

 Molecular orbital dump at record        2100.2

 Initial occupancy:  15   3

 ITERATION    DDIFF          GRAD             ENERGY        2-EL.EN.            DIPOLE MOMENTS         DIIS   ORB.
    1      0.000D+00      0.000D+00      -225.66676140    484.202326   -0.00465    0.00000   -0.33106    0    start
    2      0.000D+00      0.185D-01      -225.73690480    479.141086    0.00302    0.00000   -0.27852    1    diag
    3      0.362D-01      0.494D-02      -225.74054685    479.169112   -0.00224    0.00000   -0.11975    2    diag
    4      0.817D-02      0.125D-02      -225.74085632    479.153387   -0.00105    0.00000   -0.18972    3    diag
    5      0.219D-02      0.327D-03      -225.74087711    479.138452   -0.00133    0.00000   -0.17493    4    diag
    6      0.536D-03      0.950D-04      -225.74088124    479.143746   -0.00130    0.00000   -0.18172    5    diag
    7      0.246D-03      0.433D-04      -225.74088211    479.143996   -0.00131    0.00000   -0.18159    6    diag
    8      0.145D-03      0.735D-05      -225.74088215    479.144081   -0.00132    0.00000   -0.18157    7    diag
    9      0.297D-04      0.199D-05      -225.74088215    479.144109   -0.00131    0.00000   -0.18156    8    diag
   10      0.836D-05      0.464D-06      -225.74088215    479.144116   -0.00131    0.00000   -0.18157    0    orth

 Final occupancy:  15   3

 !RHF STATE 1.1 Energy               -225.740882148366
 Nuclear energy                       160.13581572
 One-electron energy                 -625.44875598
 Two-electron energy                  239.57205812
 Virial quotient                       -1.00968594
 !RHF STATE 1.1 Dipole moment          -0.00131472     0.00000000    -0.18156914
 Dipole moment /Debye                  -0.00334146     0.00000000    -0.46147250

 Orbital energies:

         1.1          2.1          3.1          4.1          5.1          6.1          7.1          8.1          9.1         10.1
    -20.381967   -11.067593   -11.066660   -11.016610   -11.015026    -1.386719    -1.024165    -0.928191    -0.733178    -0.724056

        11.1         12.1         13.1         14.1         15.1         16.1         17.1
     -0.675579    -0.548552    -0.500815    -0.499842    -0.449526     0.545033     0.614477

         1.2          2.2          3.2          4.2          5.2
     -0.554063    -0.330020    -0.249757     0.272444     0.394093

 HOMO      3.2    -0.249757 =      -6.7962eV
 LUMO      4.2     0.272444 =       7.4136eV
 LUMO-HOMO         0.522201 =      14.2098eV


 **********************************************************************************************************************************
 DATASETS  * FILE   NREC   LENGTH (MB)   RECORD NAMES
              1      19        7.95       500      610      700      900      950      970     1000      129      960     1100   
                                          VAR    BASINP    GEOM    SYMINP    ZMAT    AOBASIS   BASIS     P2S    ABASIS      S 
                                         1400     1410     1200     1210     1080     1600     1650     1300     1700   
                                           T        V       H0       H01     AOSYM     SMH    MOLCAS    ERIS     OPER   

              2       4        0.51       700     1000      520     2100   
                                         GEOM     BASIS   MCVARS     RHF  

 PROGRAMS   *        TOTAL        HF       INT
 CPU TIMES  *         0.44      0.08      0.26
 REAL TIME  *         5.06 SEC
 DISK USED  *        12.84 MB      
 **********************************************************************************************************************************

        HF-SCF  
   -225.74088215
 **********************************************************************************************************************************
 Variable memory released
