
 Primary working directories    : /scr/kumo
 Secondary working directories  : /scr/kumo
 Wavefunction directory         : /valhalla/home/kumo/wfu/
 Main file repository           : /scr/kumo/

 SHA1      : 5b1d074a25eef39b04831e9568c159f1d25e52e7
 ARCHNAME  : Linux/x86_64
 FC        : /opt/intel_2011p10/composer_xe_2011_sp1.10.319/bin/intel64/ifort
 FCVERSION : 12.1.4
 BLASLIB   : -L/opt/intel_2011p10/composer_xe_2011_sp1.10.319/mkl/lib/intel64 -lmkl_intel_ilp64 -lmkl_sequential -lmkl_core
 id        : kumo

 Nodes     nprocs
 hel06        1

 Using customized tuning parameters: mindgm=1; mindgv=20; mindgc=4; mindgr=1; noblas=0; minvec=7
 default implementation of scratch files=df  

 memory,100,m
 geomtyp=xyz
 geometry={
 9
 C1    -0.69009792   0.00000000  -0.71756556
 C2     0.69009792   0.00000000  -0.71756556
 C3    -1.09899972   0.00000000   0.60786733
 C4     1.09899972   0.00000000   0.60786733
 O5     0.00000000   0.00000000   1.44018555
 H6    -1.33161612   0.00000000  -1.58638157
 H7     1.33161612   0.00000000  -1.58638157
 H8    -2.11353252   0.00000000   0.97863290
 H9     2.11353252   0.00000000   0.97863290
 }
 basis=sto-3G
 hf
 

 Variables initialized (801), CPU time= 0.00 sec
 Commands  initialized (611), CPU time= 0.01 sec, 523 directives.
 Default parameters read. Elapsed time= 0.54 sec

 Checking input...
 Passed
1


                                         ***  PROGRAM SYSTEM MOLPRO  ***
                         Copyright, University College Cardiff Consultants Limited, 2008

                                    Version 2099.9 linked 31 Mar 2014 17:15:48


 **********************************************************************************************************************************
 LABEL *                                                                                 
 Linux-3.13.0-24-generic/hel06(x86_64) 64 bit serial version                             DATE: 05-Mar-15          TIME: 14:38:54  
 **********************************************************************************************************************************

 SHA1:             5b1d074a25eef39b04831e9568c159f1d25e52e7

 Develop Directory: /home/kumo/development/regions_orbital_inp_parallel

 Included files:    ccmp2_loc3.F ccsd_loc.F ciinp.F local_init.F orbdom.F r12dom.F
                    region.F
 **********************************************************************************************************************************
 SETTING GEOMTYP        =    XYZ

 Variable memory set to  100000000 words,  buffer space   230000 words

 SETTING BASIS          =    STO-3G


 Recomputing integrals since basis changed


 Using spherical harmonics

 Library entry C      S STO-3G               selected for orbital group  1
 Library entry C      P STO-3G               selected for orbital group  1
 Library entry O      S STO-3G               selected for orbital group  2
 Library entry O      P STO-3G               selected for orbital group  2
 Library entry H      S STO-3G               selected for orbital group  3

1PROGRAM * SEWARD (Integral evaluation for generally contracted gaussian basis sets)     Author: Roland Lindh, 1990

 Geometry written to block  1 of record 700


 Point group  C2v 



 ATOMIC COORDINATES

 NR  ATOM    CHARGE       X              Y              Z

   1  C1      6.00   -1.304096073    0.000000000   -1.356002390
   2  C2      6.00    1.304096073    0.000000000   -1.356002390
   3  C3      6.00   -2.076808489    0.000000000    1.148702778
   4  C4      6.00    2.076808489    0.000000000    1.148702778
   5  O5      8.00    0.000000000    0.000000000    2.721556268
   6  H6      1.00   -2.516389779    0.000000000   -2.997826707
   7  H7      1.00    2.516389779    0.000000000   -2.997826707
   8  H8      1.00   -3.993997633    0.000000000    1.849348164
   9  H9      1.00    3.993997633    0.000000000    1.849348164

 Bond lengths in Bohr (Angstrom)

 1-2  2.608192145  1-3  2.621189130  1-6  2.040892726  2-4  2.621189130  2-7  2.040892726
     ( 1.380195840)     ( 1.387073548)     ( 1.079993917)     ( 1.387073548)     ( 1.079993917)

 3-5  2.605187441  3-8  2.041205078  4-5  2.605187441  4-9  2.041205078
     ( 1.378605819)     ( 1.080159206)     ( 1.378605819)     ( 1.080159206)

 Bond angles

  1-2-4  107.14522146   1-2-7  126.44149675   1-3-5  109.99294065   1-3-8  127.22027937

  2-1-3  107.14522146   2-1-6  126.44149675   2-4-5  109.99294065   2-4-9  127.22027937

  3-1-6  126.41328180   3-5-4  105.72367580   4-2-7  126.41328180   5-3-8  122.78677998

  5-4-9  122.78677998

 NUCLEAR CHARGE:                   36
 NUMBER OF PRIMITIVE AOS:          87
 NUMBER OF SYMMETRY AOS:           87
 NUMBER OF CONTRACTIONS:           29   (  13A1  +  11B1  +   3B2  +   2A2  )
 NUMBER OF CORE ORBITALS:           5   (   3A1  +   2B1  +   0B2  +   0A2  )
 NUMBER OF VALENCE ORBITALS:       24   (  10A1  +   9B1  +   3B2  +   2A2  )


 NUCLEAR REPULSION ENERGY  159.99436610


 Eigenvalues of metric

         1 0.227E+00 0.302E+00 0.317E+00 0.389E+00 0.876E+00 0.934E+00 0.960E+00 0.107E+01
         2 0.175E+00 0.270E+00 0.290E+00 0.348E+00 0.445E+00 0.930E+00 0.984E+00 0.127E+01
         3 0.748E+00 0.106E+01 0.145E+01
         4 0.669E+00 0.107E+01


 Contracted 2-electron integrals neglected if value below      1.0D-11
 AO integral compression algorithm  1   Integral accuracy      1.0D-11

     0.262 MB (compressed) written to integral file (100.0%)


 NUMBER OF SORTED TWO-ELECTRON INTEGRALS:      31309.     BUFFER LENGTH:  32768
 NUMBER OF SEGMENTS:   1  SEGMENT LENGTH:      31309      RECORD LENGTH: 524288

 Memory used in sort:       0.59 MW

 SORT1 READ       39671. AND WROTE       30465. INTEGRALS IN      1 RECORDS. CPU TIME:     0.00 SEC, REAL TIME:     0.01 SEC
 SORT2 READ       30465. AND WROTE       31309. INTEGRALS IN      1 RECORDS. CPU TIME:     0.01 SEC, REAL TIME:     0.01 SEC

 FILE SIZES:   FILE 1:     7.9 MBYTE,  FILE 4:     4.2 MBYTE,   TOTAL:     12.2 MBYTE

 OPERATOR DM      FOR CENTER  0  COORDINATES:    0.000000    0.000000    0.000000


 **********************************************************************************************************************************
 DATASETS  * FILE   NREC   LENGTH (MB)   RECORD NAMES
              1      19        7.82       500      610      700      900      950      970     1000      129      960     1100   
                                          VAR    BASINP    GEOM    SYMINP    ZMAT    AOBASIS   BASIS     P2S    ABASIS      S 
                                         1400     1410     1200     1210     1080     1600     1650     1300     1700   
                                           T        V       H0       H01     AOSYM     SMH    MOLCAS    ERIS     OPER   

 PROGRAMS   *        TOTAL       INT
 CPU TIMES  *         0.29      0.19
 REAL TIME  *         3.41 SEC
 DISK USED  *        12.57 MB      
 **********************************************************************************************************************************

1PROGRAM * RHF-SCF (CLOSED SHELL)       Authors: W. Meyer, H.-J. Werner


 NUMBER OF ELECTRONS:      18+   18-
 CONVERGENCE THRESHOLDS:    1.00E-05 (Density)    1.00E-07 (Energy)
 MAX. NUMBER OF ITERATIONS:       60
 INTERPOLATION TYPE:            DIIS
 INTERPOLATION STEPS:              2 (START)      1 (STEP)
 LEVEL SHIFTS:                  0.00 (CLOSED)  0.00 (OPEN) 



 Orbital guess generated from atomic densities. Full valence occupancy:   13  11   3   2

 Molecular orbital dump at record        2100.2

 Initial occupancy:   9   6   2   1

 ITERATION    DDIFF          GRAD             ENERGY        2-EL.EN.            DIPOLE MOMENTS         DIIS   ORB.
    1      0.000D+00      0.000D+00      -225.66686467    483.935410    0.00000    0.00000   -0.34279    0    start
    2      0.000D+00      0.264D-01      -225.73691528    478.881969    0.00000    0.00000   -0.28296    1    diag
    3      0.504D-01      0.706D-02      -225.74056784    478.910586    0.00000    0.00000   -0.12719    2    diag
    4      0.114D-01      0.179D-02      -225.74088060    478.893944    0.00000    0.00000   -0.19623    3    diag
    5      0.304D-02      0.468D-03      -225.74090211    478.879349    0.00000    0.00000   -0.18152    4    diag
    6      0.762D-03      0.139D-03      -225.74090659    478.884775    0.00000    0.00000   -0.18854    5    diag
    7      0.358D-03      0.648D-04      -225.74090756    478.885049    0.00000    0.00000   -0.18838    6    diag
    8      0.219D-03      0.109D-04      -225.74090760    478.885138    0.00000    0.00000   -0.18835    7    diag
    9      0.455D-04      0.292D-05      -225.74090760    478.885168    0.00000    0.00000   -0.18834    8    diag
   10      0.130D-04      0.497D-06      -225.74090760    478.885175    0.00000    0.00000   -0.18834    9    orth
   11      0.183D-05      0.723D-07      -225.74090760    478.885175    0.00000    0.00000   -0.18834    0    orth

 Final occupancy:   9   6   2   1

 !RHF STATE 1.1 Energy               -225.740907604499
 Nuclear energy                       159.99436610
 One-electron energy                 -625.17786136
 Two-electron energy                  239.44258766
 Virial quotient                       -1.00970784
 !RHF STATE 1.1 Dipole moment           0.00000000     0.00000000    -0.18834410
 Dipole moment /Debye                   0.00000000     0.00000000    -0.47869160

 Orbital energies:

         1.1          2.1          3.1          4.1          5.1          6.1          7.1          8.1          9.1         10.1
    -20.381120   -11.066728   -11.016411    -1.384481    -1.024547    -0.733405    -0.675140    -0.500608    -0.450111     0.544250

        11.1
      0.614350

         1.2          2.2          3.2          4.2          5.2          6.2          7.2          8.2
    -11.067062   -11.016077    -0.927377    -0.723456    -0.547046    -0.500037     0.649991     0.699998

         1.3          2.3          3.3
     -0.552734    -0.330343     0.271529

         1.4          2.4
     -0.249659     0.394011

 HOMO      1.4    -0.249659 =      -6.7936eV
 LUMO      3.3     0.271529 =       7.3887eV
 LUMO-HOMO         0.521188 =      14.1822eV


 **********************************************************************************************************************************
 DATASETS  * FILE   NREC   LENGTH (MB)   RECORD NAMES
              1      19        7.82       500      610      700      900      950      970     1000      129      960     1100   
                                          VAR    BASINP    GEOM    SYMINP    ZMAT    AOBASIS   BASIS     P2S    ABASIS      S 
                                         1400     1410     1200     1210     1080     1600     1650     1300     1700   
                                           T        V       H0       H01     AOSYM     SMH    MOLCAS    ERIS     OPER   

              2       4        0.51       700     1000      520     2100   
                                         GEOM     BASIS   MCVARS     RHF  

 PROGRAMS   *        TOTAL        HF       INT
 CPU TIMES  *         0.37      0.08      0.19
 REAL TIME  *         4.97 SEC
 DISK USED  *        12.57 MB      
 **********************************************************************************************************************************

        HF-SCF  
   -225.74090760
 **********************************************************************************************************************************
 Variable memory released
