Initialized Optimizer. Doing the optimization with the following options:
Method:       RF
Coordinates:  REDU
Hessian:      LINDH
Update:       BFGS
----------------------- STARTING MINIMIZATION ------------------------
Doing    54 single points for numerical gradient.
Did    54 single points.
--------- Hessian evaluation ---------
Getting Lindh's Hessian.
Iteration  Energy/Eh          dE/a.u.            Grad max           Grad norm          isConverged

       0 9.64442e-06 7.97605e-03 7.96641e-03
       1 1.52063e-10 9.64442e-06 9.64427e-06
         1  -225.744241425285    -0.003270404910     0.048539024397     0.088604028228 False

Doing    54 single points for numerical gradient.
Did    54 single points.
--------- Hessian evaluation ---------
Updating the Hessian using BFGS and 1 steps.
*** Optimization done. ***
Optimization did not converge!
*** Final XYZ in Angstrom
9
  
C1    -0.69646947   0.00000000  -0.71233354
C2     0.69646947   0.00000000  -0.71233354
C3    -1.09829283   0.00000000   0.60180236
C4     1.09829283   0.00000000   0.60180236
O5    -0.00000000   0.00000000   1.42642658
H6    -1.33894115   0.00000000  -1.58003092
H7     1.33894115   0.00000000  -1.58003092
H8    -2.11150976   0.00000000   0.97734881
H9     2.11150976   0.00000000   0.97734881

