
 Primary working directories    : /scr/kumo
 Secondary working directories  : /scr/kumo
 Wavefunction directory         : /valhalla/home/kumo/wfu/
 Main file repository           : /scr/kumo/

 SHA1      : 5b1d074a25eef39b04831e9568c159f1d25e52e7
 ARCHNAME  : Linux/x86_64
 FC        : /opt/intel_2011p10/composer_xe_2011_sp1.10.319/bin/intel64/ifort
 FCVERSION : 12.1.4
 BLASLIB   : -L/opt/intel_2011p10/composer_xe_2011_sp1.10.319/mkl/lib/intel64 -lmkl_intel_ilp64 -lmkl_sequential -lmkl_core
 id        : kumo

 Nodes     nprocs
 hel06        1

 Using customized tuning parameters: mindgm=1; mindgv=20; mindgc=4; mindgr=1; noblas=0; minvec=7
 default implementation of scratch files=df  

 memory,100,m
 geomtyp=xyz
 geometry={
 9
 C1    -0.69009792   0.00000000  -0.71756556
 C2     0.68480615   0.00000000  -0.71756556
 C3    -1.09899972   0.00000000   0.60786733
 C4     1.09899972   0.00000000   0.60786733
 O5     0.00000000   0.00000000   1.43489378
 H6    -1.33161612   0.00000000  -1.58108979
 H7     1.33161612   0.00000000  -1.58638157
 H8    -2.11353252   0.00000000   0.97863290
 H9     2.11353252   0.00000000   0.97863290
 }
 basis=sto-3G
 hf
 

 Variables initialized (801), CPU time= 0.01 sec
 Commands  initialized (611), CPU time= 0.00 sec, 523 directives.
 Default parameters read. Elapsed time= 0.15 sec

 Checking input...
 Passed
1


                                         ***  PROGRAM SYSTEM MOLPRO  ***
                         Copyright, University College Cardiff Consultants Limited, 2008

                                    Version 2099.9 linked 31 Mar 2014 17:15:48


 **********************************************************************************************************************************
 LABEL *                                                                                 
 Linux-3.13.0-24-generic/hel06(x86_64) 64 bit serial version                             DATE: 05-Mar-15          TIME: 13:59:32  
 **********************************************************************************************************************************

 SHA1:             5b1d074a25eef39b04831e9568c159f1d25e52e7

 Develop Directory: /home/kumo/development/regions_orbital_inp_parallel

 Included files:    ccmp2_loc3.F ccsd_loc.F ciinp.F local_init.F orbdom.F r12dom.F
                    region.F
 **********************************************************************************************************************************
 SETTING GEOMTYP        =    XYZ

 Variable memory set to  100000000 words,  buffer space   230000 words

 SETTING BASIS          =    STO-3G


 Recomputing integrals since basis changed


 Using spherical harmonics

 Library entry C      S STO-3G               selected for orbital group  1
 Library entry C      P STO-3G               selected for orbital group  1
 Library entry O      S STO-3G               selected for orbital group  2
 Library entry O      P STO-3G               selected for orbital group  2
 Library entry H      S STO-3G               selected for orbital group  3

1PROGRAM * SEWARD (Integral evaluation for generally contracted gaussian basis sets)     Author: Roland Lindh, 1990

 Geometry written to block  1 of record 700


 Point group  Cs  



 ATOMIC COORDINATES

 NR  ATOM    CHARGE       X              Y              Z

   1  C1      6.00   -1.304096073    0.000000000   -1.356002390
   2  C2      6.00    1.294096077    0.000000000   -1.356002390
   3  C3      6.00   -2.076808489    0.000000000    1.148702778
   4  C4      6.00    2.076808489    0.000000000    1.148702778
   5  O5      8.00    0.000000000    0.000000000    2.711556272
   6  H6      1.00   -2.516389779    0.000000000   -2.987826692
   7  H7      1.00    2.516389779    0.000000000   -2.997826707
   8  H8      1.00   -3.993997633    0.000000000    1.849348164
   9  H9      1.00    3.993997633    0.000000000    1.849348164

 Bond lengths in Bohr (Angstrom)

 1-2  2.598192149  1-3  2.621189130  1-6  2.032856755  2-4  2.624154473  2-7  2.046848549
     ( 1.374904070)     ( 1.387073548)     ( 1.075741464)     ( 1.388642740)     ( 1.083145603)

 3-5  2.599162278  3-8  2.041205078  4-5  2.599162278  4-9  2.041205078
     ( 1.375417440)     ( 1.080159206)     ( 1.375417440)     ( 1.080159206)

 Bond angles

  1-2-4  107.35385891   1-2-7  126.66668430   1-3-5  109.81721012   1-3-8  127.22027937

  2-1-3  107.14522146   2-1-6  126.60891577   2-4-5  109.60857266   2-4-9  127.42891683

  3-1-6  126.24586278   3-5-4  106.07513686   4-2-7  125.97945679   5-3-8  122.96251051

  5-4-9  122.96251051

 NUCLEAR CHARGE:                   36
 NUMBER OF PRIMITIVE AOS:          87
 NUMBER OF SYMMETRY AOS:           87
 NUMBER OF CONTRACTIONS:           29   (  24A'  +   5A"  )
 NUMBER OF CORE ORBITALS:           5   (   5A'  +   0A"  )
 NUMBER OF VALENCE ORBITALS:       24   (  19A'  +   5A"  )


 NUCLEAR REPULSION ENERGY  160.21116230


 Eigenvalues of metric

         1 0.174E+00 0.227E+00 0.269E+00 0.290E+00 0.301E+00 0.316E+00 0.346E+00 0.389E+00
         2 0.668E+00 0.747E+00 0.106E+01 0.107E+01 0.145E+01


 Contracted 2-electron integrals neglected if value below      1.0D-11
 AO integral compression algorithm  1   Integral accuracy      1.0D-11

     0.524 MB (compressed) written to integral file (100.0%)


 NUMBER OF SORTED TWO-ELECTRON INTEGRALS:      58770.     BUFFER LENGTH:  32768
 NUMBER OF SEGMENTS:   1  SEGMENT LENGTH:      58770      RECORD LENGTH: 524288

 Memory used in sort:       0.62 MW

 SORT1 READ       66565. AND WROTE       56230. INTEGRALS IN      1 RECORDS. CPU TIME:     0.01 SEC, REAL TIME:     0.00 SEC
 SORT2 READ       56230. AND WROTE       58770. INTEGRALS IN      2 RECORDS. CPU TIME:     0.01 SEC, REAL TIME:     0.01 SEC

 FILE SIZES:   FILE 1:     8.2 MBYTE,  FILE 4:     4.2 MBYTE,   TOTAL:     12.4 MBYTE

 OPERATOR DM      FOR CENTER  0  COORDINATES:    0.000000    0.000000    0.000000


 **********************************************************************************************************************************
 DATASETS  * FILE   NREC   LENGTH (MB)   RECORD NAMES
              1      19        7.95       500      610      700      900      950      970     1000      129      960     1100   
                                          VAR    BASINP    GEOM    SYMINP    ZMAT    AOBASIS   BASIS     P2S    ABASIS      S 
                                         1400     1410     1200     1210     1080     1600     1650     1300     1700   
                                           T        V       H0       H01     AOSYM     SMH    MOLCAS    ERIS     OPER   

 PROGRAMS   *        TOTAL       INT
 CPU TIMES  *         0.35      0.25
 REAL TIME  *         1.32 SEC
 DISK USED  *        12.84 MB      
 **********************************************************************************************************************************

1PROGRAM * RHF-SCF (CLOSED SHELL)       Authors: W. Meyer, H.-J. Werner


 NUMBER OF ELECTRONS:      18+   18-
 CONVERGENCE THRESHOLDS:    1.00E-05 (Density)    1.00E-07 (Energy)
 MAX. NUMBER OF ITERATIONS:       60
 INTERPOLATION TYPE:            DIIS
 INTERPOLATION STEPS:              2 (START)      1 (STEP)
 LEVEL SHIFTS:                  0.00 (CLOSED)  0.00 (OPEN) 



 Orbital guess generated from atomic densities. Full valence occupancy:   24   5

 Molecular orbital dump at record        2100.2

 Initial occupancy:  15   3

 ITERATION    DDIFF          GRAD             ENERGY        2-EL.EN.            DIPOLE MOMENTS         DIIS   ORB.
    1      0.000D+00      0.000D+00      -225.66608987    484.342212    0.00685    0.00000   -0.32355    0    start
    2      0.000D+00      0.185D-01      -225.73632565    479.274309   -0.00042    0.00000   -0.27690    1    diag
    3      0.363D-01      0.496D-02      -225.74000503    479.305224    0.00087    0.00000   -0.11686    2    diag
    4      0.821D-02      0.124D-02      -225.74031322    479.288596    0.00013    0.00000   -0.18670    3    diag
    5      0.218D-02      0.323D-03      -225.74033338    479.273768    0.00026    0.00000   -0.17203    4    diag
    6      0.529D-03      0.934D-04      -225.74033729    479.278971    0.00020    0.00000   -0.17873    5    diag
    7      0.239D-03      0.422D-04      -225.74033810    479.279209    0.00019    0.00000   -0.17861    6    diag
    8      0.139D-03      0.727D-05      -225.74033814    479.279292    0.00020    0.00000   -0.17859    7    diag
    9      0.293D-04      0.196D-05      -225.74033814    479.279321    0.00019    0.00000   -0.17858    8    diag
   10      0.850D-05      0.358D-06      -225.74033814    479.279327    0.00019    0.00000   -0.17858    0    orth

 Final occupancy:  15   3

 !RHF STATE 1.1 Energy               -225.740338140461
 Nuclear energy                       160.21116230
 One-electron energy                 -625.59116402
 Two-electron energy                  239.63966358
 Virial quotient                       -1.00965361
 !RHF STATE 1.1 Dipole moment           0.00019133     0.00000000    -0.17858344
 Dipole moment /Debye                   0.00048628     0.00000000    -0.45388410

 Orbital energies:

         1.1          2.1          3.1          4.1          5.1          6.1          7.1          8.1          9.1         10.1
    -20.382442   -11.067148   -11.066625   -11.016151   -11.015785    -1.386953    -1.025193    -0.928003    -0.733549    -0.724118

        11.1         12.1         13.1         14.1         15.1         16.1         17.1
     -0.675914    -0.548586    -0.502582    -0.498773    -0.449833     0.545196     0.613778

         1.2          2.2          3.2          4.2          5.2
     -0.554212    -0.330927    -0.249124     0.271776     0.395111

 HOMO      3.2    -0.249124 =      -6.7790eV
 LUMO      4.2     0.271776 =       7.3954eV
 LUMO-HOMO         0.520900 =      14.1744eV


 **********************************************************************************************************************************
 DATASETS  * FILE   NREC   LENGTH (MB)   RECORD NAMES
              1      19        7.95       500      610      700      900      950      970     1000      129      960     1100   
                                          VAR    BASINP    GEOM    SYMINP    ZMAT    AOBASIS   BASIS     P2S    ABASIS      S 
                                         1400     1410     1200     1210     1080     1600     1650     1300     1700   
                                           T        V       H0       H01     AOSYM     SMH    MOLCAS    ERIS     OPER   

              2       4        0.51       700     1000      520     2100   
                                         GEOM     BASIS   MCVARS     RHF  

 PROGRAMS   *        TOTAL        HF       INT
 CPU TIMES  *         0.43      0.08      0.25
 REAL TIME  *         1.71 SEC
 DISK USED  *        12.84 MB      
 **********************************************************************************************************************************

        HF-SCF  
   -225.74033814
 **********************************************************************************************************************************
 Variable memory released
