
 Primary working directories    : /scr/kumo
 Secondary working directories  : /scr/kumo
 Wavefunction directory         : /valhalla/home/kumo/wfu/
 Main file repository           : /scr/kumo/

 SHA1      : 5b1d074a25eef39b04831e9568c159f1d25e52e7
 ARCHNAME  : Linux/x86_64
 FC        : /opt/intel_2011p10/composer_xe_2011_sp1.10.319/bin/intel64/ifort
 FCVERSION : 12.1.4
 BLASLIB   : -L/opt/intel_2011p10/composer_xe_2011_sp1.10.319/mkl/lib/intel64 -lmkl_intel_ilp64 -lmkl_sequential -lmkl_core
 id        : kumo

 Nodes     nprocs
 hel06        1

 Using customized tuning parameters: mindgm=1; mindgv=20; mindgc=4; mindgr=1; noblas=0; minvec=7
 default implementation of scratch files=df  

 memory,100,m
 geomtyp=xyz
 geometry={
 9
 C1    -0.69009792   0.00000000  -0.71756556
 C2     0.69009792   0.00000000  -0.71756556
 C3    -1.10429150   0.00000000   0.60786733
 C4     1.09899972   0.00000000   0.60786733
 O5     0.00000000   0.00000000   1.43489378
 H6    -1.33161612   0.00000000  -1.58638157
 H7     1.33161612   0.00000000  -1.58638157
 H8    -2.11353252   0.00529177   0.97863290
 H9     2.11353252   0.00000000   0.97863290
 }
 basis=sto-3G
 hf
 

 Variables initialized (801), CPU time= 0.01 sec
 Commands  initialized (611), CPU time= 0.01 sec, 523 directives.
 Default parameters read. Elapsed time= 0.22 sec

 Checking input...
 Passed
1


                                         ***  PROGRAM SYSTEM MOLPRO  ***
                         Copyright, University College Cardiff Consultants Limited, 2008

                                    Version 2099.9 linked 31 Mar 2014 17:15:48


 **********************************************************************************************************************************
 LABEL *                                                                                 
 Linux-3.13.0-24-generic/hel06(x86_64) 64 bit serial version                             DATE: 05-Mar-15          TIME: 14:18:13  
 **********************************************************************************************************************************

 SHA1:             5b1d074a25eef39b04831e9568c159f1d25e52e7

 Develop Directory: /home/kumo/development/regions_orbital_inp_parallel

 Included files:    ccmp2_loc3.F ccsd_loc.F ciinp.F local_init.F orbdom.F r12dom.F
                    region.F
 **********************************************************************************************************************************
 SETTING GEOMTYP        =    XYZ

 Variable memory set to  100000000 words,  buffer space   230000 words

 SETTING BASIS          =    STO-3G


 Recomputing integrals since basis changed


 Using spherical harmonics

 Library entry C      S STO-3G               selected for orbital group  1
 Library entry C      P STO-3G               selected for orbital group  1
 Library entry O      S STO-3G               selected for orbital group  2
 Library entry O      P STO-3G               selected for orbital group  2
 Library entry H      S STO-3G               selected for orbital group  3

1PROGRAM * SEWARD (Integral evaluation for generally contracted gaussian basis sets)     Author: Roland Lindh, 1990

 Geometry written to block  1 of record 700


 Point group  C1  



 ATOMIC COORDINATES

 NR  ATOM    CHARGE       X              Y              Z

   1  C1      6.00   -1.304096073    0.000000000   -1.356002390
   2  C2      6.00    1.304096073    0.000000000   -1.356002390
   3  C3      6.00   -2.086808504    0.000000000    1.148702778
   4  C4      6.00    2.076808489    0.000000000    1.148702778
   5  O5      8.00    0.000000000    0.000000000    2.711556272
   6  H6      1.00   -2.516389779    0.000000000   -2.997826707
   7  H7      1.00    2.516389779    0.000000000   -2.997826707
   8  H8      1.00   -3.993997633    0.009999996    1.849348164
   9  H9      1.00    3.993997633    0.000000000    1.849348164

 Bond lengths in Bohr (Angstrom)

 1-2  2.608192145  1-3  2.624154479  1-6  2.040892726  2-4  2.621189130  2-7  2.040892726
     ( 1.380195840)     ( 1.388642743)     ( 1.079993917)     ( 1.387073548)     ( 1.079993917)

 3-5  2.607159523  3-8  2.031840134  4-5  2.599162278  4-9  2.041205078
     ( 1.379649400)     ( 1.075203491)     ( 1.375417440)     ( 1.080159206)

 Bond angles

  1-2-4  107.14522146   1-2-7  126.44149675   1-3-5  109.47643025   1-3-8  127.52517879

  2-1-3  107.35385931   2-1-6  126.44149675   2-4-5  109.81721012   2-4-9  127.22027937

  3-1-6  126.20464395   3-5-4  106.20727888   4-2-7  126.41328180   5-3-8  122.99740739

  5-4-9  122.96251051

 NUCLEAR CHARGE:                   36
 NUMBER OF PRIMITIVE AOS:          87
 NUMBER OF SYMMETRY AOS:           87
 NUMBER OF CONTRACTIONS:           29   (  29A   )
 NUMBER OF CORE ORBITALS:           5   (   5A   )
 NUMBER OF VALENCE ORBITALS:       24   (  24A   )


 NUCLEAR REPULSION ENERGY  160.03741218


 Eigenvalues of metric

         1 0.175E+00 0.227E+00 0.269E+00 0.290E+00 0.302E+00 0.315E+00 0.347E+00 0.389E+00


 Contracted 2-electron integrals neglected if value below      1.0D-11
 AO integral compression algorithm  1   Integral accuracy      1.0D-11

     0.524 MB (compressed) written to integral file ( 70.8%)


 NUMBER OF SORTED TWO-ELECTRON INTEGRALS:      94830.     BUFFER LENGTH:  32768
 NUMBER OF SEGMENTS:   1  SEGMENT LENGTH:      94830      RECORD LENGTH: 524288

 Memory used in sort:       0.65 MW

 SORT1 READ      112495. AND WROTE       58791. INTEGRALS IN      1 RECORDS. CPU TIME:     0.00 SEC, REAL TIME:     0.01 SEC
 SORT2 READ       58791. AND WROTE       94830. INTEGRALS IN      2 RECORDS. CPU TIME:     0.02 SEC, REAL TIME:     0.02 SEC

 FILE SIZES:   FILE 1:     8.2 MBYTE,  FILE 4:     4.2 MBYTE,   TOTAL:     12.4 MBYTE

 OPERATOR DM      FOR CENTER  0  COORDINATES:    0.000000    0.000000    0.000000


 **********************************************************************************************************************************
 DATASETS  * FILE   NREC   LENGTH (MB)   RECORD NAMES
              1      19        7.97       500      610      700      900      950      970     1000      129      960     1100   
                                          VAR    BASINP    GEOM    SYMINP    ZMAT    AOBASIS   BASIS     P2S    ABASIS      S 
                                         1400     1410     1200     1210     1080     1600     1650     1300     1700   
                                           T        V       H0       H01     AOSYM     SMH    MOLCAS    ERIS     OPER   

 PROGRAMS   *        TOTAL       INT
 CPU TIMES  *         0.34      0.24
 REAL TIME  *         2.97 SEC
 DISK USED  *        12.84 MB      
 **********************************************************************************************************************************

1PROGRAM * RHF-SCF (CLOSED SHELL)       Authors: W. Meyer, H.-J. Werner


 NUMBER OF ELECTRONS:      18+   18-    SPACE SYMMETRY=1    SPIN SYMMETRY: Singlet 
 CONVERGENCE THRESHOLDS:    1.00E-05 (Density)    1.00E-07 (Energy)
 MAX. NUMBER OF ITERATIONS:       60
 INTERPOLATION TYPE:            DIIS
 INTERPOLATION STEPS:              2 (START)      1 (STEP)
 LEVEL SHIFTS:                  0.00 (CLOSED)  0.00 (OPEN) 



 Orbital guess generated from atomic densities. Full valence occupancy:   18

 Molecular orbital dump at record        2100.2

 Initial occupancy:  18

 ITERATION    DDIFF          GRAD             ENERGY        2-EL.EN.            DIPOLE MOMENTS         DIIS   ORB.
    1      0.000D+00      0.000D+00      -225.66639237    484.026853    0.00077    0.00174   -0.33595    0    start
    2      0.000D+00      0.156D-01      -225.73666415    478.959981    0.00464    0.00122   -0.27847    1    diag
    3      0.309D-01      0.421D-02      -225.74038544    478.996855    0.00062    0.00096   -0.12206    2    diag
    4      0.700D-02      0.105D-02      -225.74069392    478.978605    0.00176    0.00102   -0.19077    3    diag
    5      0.185D-02      0.274D-03      -225.74071469    478.963956    0.00156    0.00102   -0.17607    4    diag
    6      0.456D-03      0.807D-04      -225.74071892    478.969328    0.00162    0.00102   -0.18297    5    diag
    7      0.212D-03      0.371D-04      -225.74071982    478.969587    0.00166    0.00102   -0.18283    6    diag
    8      0.126D-03      0.628D-05      -225.74071986    478.969673    0.00164    0.00102   -0.18281    7    diag
    9      0.257D-04      0.171D-05      -225.74071986    478.969700    0.00167    0.00102   -0.18280    8    diag
   10      0.714D-05      0.427D-06      -225.74071986    478.969707    0.00165    0.00102   -0.18281    0    orth

 Final occupancy:  18

 !RHF STATE 1.1 Energy               -225.740719863556
 Nuclear energy                       160.03741218
 One-electron energy                 -625.26298565
 Two-electron energy                  239.48485361
 Virial quotient                       -1.00970203
 !RHF STATE 1.1 Dipole moment           0.00165001     0.00101753    -0.18280793
 Dipole moment /Debye                   0.00419364     0.00258613    -0.46462098

 Orbital energies:

         1.1          2.1          3.1          4.1          5.1          6.1          7.1          8.1          9.1         10.1
    -20.380782   -11.067596   -11.066368   -11.016295   -11.015688    -1.384741    -1.023627    -0.928138    -0.733878    -0.723566

        11.1         12.1         13.1         14.1         15.1         16.1         17.1         18.1         19.1         20.1
     -0.675286    -0.552822    -0.548873    -0.500853    -0.499709    -0.449027    -0.329711    -0.249682     0.271693     0.393877

 HOMO     18.1    -0.249682 =      -6.7942eV
 LUMO     19.1     0.271693 =       7.3932eV
 LUMO-HOMO         0.521376 =      14.1874eV


 **********************************************************************************************************************************
 DATASETS  * FILE   NREC   LENGTH (MB)   RECORD NAMES
              1      19        7.97       500      610      700      900      950      970     1000      129      960     1100   
                                          VAR    BASINP    GEOM    SYMINP    ZMAT    AOBASIS   BASIS     P2S    ABASIS      S 
                                         1400     1410     1200     1210     1080     1600     1650     1300     1700   
                                           T        V       H0       H01     AOSYM     SMH    MOLCAS    ERIS     OPER   

              2       4        0.52       700     1000      520     2100   
                                         GEOM     BASIS   MCVARS     RHF  

 PROGRAMS   *        TOTAL        HF       INT
 CPU TIMES  *         0.43      0.09      0.24
 REAL TIME  *         4.54 SEC
 DISK USED  *        12.84 MB      
 **********************************************************************************************************************************

        HF-SCF  
   -225.74071986
 **********************************************************************************************************************************
 Variable memory released
