
 Primary working directories    : /scr/kumo
 Secondary working directories  : /scr/kumo
 Wavefunction directory         : /valhalla/home/kumo/wfu/
 Main file repository           : /scr/kumo/

 SHA1      : 5b1d074a25eef39b04831e9568c159f1d25e52e7
 ARCHNAME  : Linux/x86_64
 FC        : /opt/intel_2011p10/composer_xe_2011_sp1.10.319/bin/intel64/ifort
 FCVERSION : 12.1.4
 BLASLIB   : -L/opt/intel_2011p10/composer_xe_2011_sp1.10.319/mkl/lib/intel64 -lmkl_intel_ilp64 -lmkl_sequential -lmkl_core
 id        : kumo

 Nodes     nprocs
 hel06        1

 Using customized tuning parameters: mindgm=1; mindgv=20; mindgc=4; mindgr=1; noblas=0; minvec=7
 default implementation of scratch files=df  

 memory,100,m
 geomtyp=xyz
 geometry={
 9
 C1    -0.69009792   0.00000000  -0.71756556
 C2     0.69009792   0.00000000  -0.71756556
 C3    -1.09899972   0.00000000   0.60786733
 C4     1.10429150   0.00000000   0.60786733
 O5     0.00000000   0.00000000   1.42960200
 H6    -1.33161612   0.00000000  -1.58638157
 H7     1.33161612   0.00000000  -1.58638157
 H8    -2.11353252   0.00000000   0.97863290
 H9     2.11353252   0.00000000   0.97863290
 }
 basis=sto-3G
 hf
 

 Variables initialized (801), CPU time= 0.00 sec
 Commands  initialized (611), CPU time= 0.01 sec, 523 directives.
 Default parameters read. Elapsed time= 0.07 sec

 Checking input...
 Passed
1


                                         ***  PROGRAM SYSTEM MOLPRO  ***
                         Copyright, University College Cardiff Consultants Limited, 2008

                                    Version 2099.9 linked 31 Mar 2014 17:15:48


 **********************************************************************************************************************************
 LABEL *                                                                                 
 Linux-3.13.0-24-generic/hel06(x86_64) 64 bit serial version                             DATE: 05-Mar-15          TIME: 15:00:12  
 **********************************************************************************************************************************

 SHA1:             5b1d074a25eef39b04831e9568c159f1d25e52e7

 Develop Directory: /home/kumo/development/regions_orbital_inp_parallel

 Included files:    ccmp2_loc3.F ccsd_loc.F ciinp.F local_init.F orbdom.F r12dom.F
                    region.F
 **********************************************************************************************************************************
 SETTING GEOMTYP        =    XYZ

 Variable memory set to  100000000 words,  buffer space   230000 words

 SETTING BASIS          =    STO-3G


 Recomputing integrals since basis changed


 Using spherical harmonics

 Library entry C      S STO-3G               selected for orbital group  1
 Library entry C      P STO-3G               selected for orbital group  1
 Library entry O      S STO-3G               selected for orbital group  2
 Library entry O      P STO-3G               selected for orbital group  2
 Library entry H      S STO-3G               selected for orbital group  3

1PROGRAM * SEWARD (Integral evaluation for generally contracted gaussian basis sets)     Author: Roland Lindh, 1990

 Geometry written to block  1 of record 700


 Point group  Cs  



 ATOMIC COORDINATES

 NR  ATOM    CHARGE       X              Y              Z

   1  C1      6.00   -1.304096073    0.000000000   -1.356002390
   2  C2      6.00    1.304096073    0.000000000   -1.356002390
   3  C3      6.00   -2.076808489    0.000000000    1.148702778
   4  C4      6.00    2.086808504    0.000000000    1.148702778
   5  O5      8.00    0.000000000    0.000000000    2.701556257
   6  H6      1.00   -2.516389779    0.000000000   -2.997826707
   7  H7      1.00    2.516389779    0.000000000   -2.997826707
   8  H8      1.00   -3.993997633    0.000000000    1.849348164
   9  H9      1.00    3.993997633    0.000000000    1.849348164

 Bond lengths in Bohr (Angstrom)

 1-2  2.608192145  1-3  2.621189130  1-6  2.040892726  2-4  2.624154479  2-7  2.040892726
     ( 1.380195840)     ( 1.387073548)     ( 1.079993917)     ( 1.388642743)     ( 1.079993917)

 3-5  2.593161666  3-8  2.041205078  4-5  2.601177360  4-9  2.031815525
     ( 1.372242053)     ( 1.080159206)     ( 1.376483776)     ( 1.075190469)

 Bond angles

  1-2-4  107.35385931   1-2-7  126.44149675   1-3-5  109.64066430   1-3-8  127.22027937

  2-1-3  107.14522146   2-1-6  126.44149675   2-4-5  109.30012348   2-4-9  127.52571175

  3-1-6  126.41328180   3-5-4  106.56013146   4-2-7  126.20464395   5-3-8  123.13905633

  5-4-9  123.17416477

 NUCLEAR CHARGE:                   36
 NUMBER OF PRIMITIVE AOS:          87
 NUMBER OF SYMMETRY AOS:           87
 NUMBER OF CONTRACTIONS:           29   (  24A'  +   5A"  )
 NUMBER OF CORE ORBITALS:           5   (   5A'  +   0A"  )
 NUMBER OF VALENCE ORBITALS:       24   (  19A'  +   5A"  )


 NUCLEAR REPULSION ENERGY  160.17852344


 Eigenvalues of metric

         1 0.175E+00 0.227E+00 0.269E+00 0.290E+00 0.301E+00 0.315E+00 0.347E+00 0.389E+00
         2 0.669E+00 0.747E+00 0.106E+01 0.107E+01 0.145E+01


 Contracted 2-electron integrals neglected if value below      1.0D-11
 AO integral compression algorithm  1   Integral accuracy      1.0D-11

     0.524 MB (compressed) written to integral file (100.0%)


 NUMBER OF SORTED TWO-ELECTRON INTEGRALS:      58770.     BUFFER LENGTH:  32768
 NUMBER OF SEGMENTS:   1  SEGMENT LENGTH:      58770      RECORD LENGTH: 524288

 Memory used in sort:       0.62 MW

 SORT1 READ       66565. AND WROTE       56228. INTEGRALS IN      1 RECORDS. CPU TIME:     0.00 SEC, REAL TIME:     0.01 SEC
 SORT2 READ       56228. AND WROTE       58770. INTEGRALS IN      2 RECORDS. CPU TIME:     0.01 SEC, REAL TIME:     0.00 SEC

 FILE SIZES:   FILE 1:     8.2 MBYTE,  FILE 4:     4.2 MBYTE,   TOTAL:     12.4 MBYTE

 OPERATOR DM      FOR CENTER  0  COORDINATES:    0.000000    0.000000    0.000000


 **********************************************************************************************************************************
 DATASETS  * FILE   NREC   LENGTH (MB)   RECORD NAMES
              1      19        7.95       500      610      700      900      950      970     1000      129      960     1100   
                                          VAR    BASINP    GEOM    SYMINP    ZMAT    AOBASIS   BASIS     P2S    ABASIS      S 
                                         1400     1410     1200     1210     1080     1600     1650     1300     1700   
                                           T        V       H0       H01     AOSYM     SMH    MOLCAS    ERIS     OPER   

 PROGRAMS   *        TOTAL       INT
 CPU TIMES  *         0.36      0.26
 REAL TIME  *         0.52 SEC
 DISK USED  *        12.84 MB      
 **********************************************************************************************************************************

1PROGRAM * RHF-SCF (CLOSED SHELL)       Authors: W. Meyer, H.-J. Werner


 NUMBER OF ELECTRONS:      18+   18-
 CONVERGENCE THRESHOLDS:    1.00E-05 (Density)    1.00E-07 (Energy)
 MAX. NUMBER OF ITERATIONS:       60
 INTERPOLATION TYPE:            DIIS
 INTERPOLATION STEPS:              2 (START)      1 (STEP)
 LEVEL SHIFTS:                  0.00 (CLOSED)  0.00 (OPEN) 



 Orbital guess generated from atomic densities. Full valence occupancy:   24   5

 Molecular orbital dump at record        2100.2

 Initial occupancy:  15   3

 ITERATION    DDIFF          GRAD             ENERGY        2-EL.EN.            DIPOLE MOMENTS         DIIS   ORB.
    1      0.000D+00      0.000D+00      -225.66633538    484.293226   -0.00080    0.00000   -0.32439    0    start
    2      0.000D+00      0.186D-01      -225.73669622    479.218622   -0.00466    0.00000   -0.27397    1    diag
    3      0.363D-01      0.498D-02      -225.74040503    479.254970   -0.00064    0.00000   -0.11475    2    diag
    4      0.822D-02      0.124D-02      -225.74071001    479.237601   -0.00178    0.00000   -0.18430    3    diag
    5      0.217D-02      0.324D-03      -225.74073011    479.222624   -0.00159    0.00000   -0.16953    4    diag
    6      0.528D-03      0.930D-04      -225.74073401    479.227868   -0.00164    0.00000   -0.17621    5    diag
    7      0.239D-03      0.419D-04      -225.74073481    479.228102   -0.00168    0.00000   -0.17611    6    diag
    8      0.139D-03      0.719D-05      -225.74073485    479.228183   -0.00166    0.00000   -0.17609    7    diag
    9      0.289D-04      0.195D-05      -225.74073485    479.228209   -0.00169    0.00000   -0.17608    8    diag
   10      0.813D-05      0.501D-06      -225.74073485    479.228217   -0.00167    0.00000   -0.17609    0    orth

 Final occupancy:  15   3

 !RHF STATE 1.1 Energy               -225.740734848450
 Nuclear energy                       160.17852344
 One-electron energy                 -625.53336655
 Two-electron energy                  239.61410825
 Virial quotient                       -1.00968103
 !RHF STATE 1.1 Dipole moment          -0.00167183     0.00000000    -0.17608774
 Dipole moment /Debye                  -0.00424908     0.00000000    -0.44754107

 Orbital energies:

         1.1          2.1          3.1          4.1          5.1          6.1          7.1          8.1          9.1         10.1
    -20.381618   -11.067826   -11.066591   -11.015877   -11.015267    -1.386959    -1.023211    -0.928985    -0.733630    -0.724181

        11.1         12.1         13.1         14.1         15.1         16.1         17.1
     -0.675721    -0.550377    -0.500976    -0.499571    -0.448485     0.544518     0.615652

         1.2          2.2          3.2          4.2          5.2
     -0.554136    -0.329335    -0.249829     0.272612     0.393939

 HOMO      3.2    -0.249829 =      -6.7982eV
 LUMO      4.2     0.272612 =       7.4182eV
 LUMO-HOMO         0.522441 =      14.2164eV


 **********************************************************************************************************************************
 DATASETS  * FILE   NREC   LENGTH (MB)   RECORD NAMES
              1      19        7.95       500      610      700      900      950      970     1000      129      960     1100   
                                          VAR    BASINP    GEOM    SYMINP    ZMAT    AOBASIS   BASIS     P2S    ABASIS      S 
                                         1400     1410     1200     1210     1080     1600     1650     1300     1700   
                                           T        V       H0       H01     AOSYM     SMH    MOLCAS    ERIS     OPER   

              2       4        0.51       700     1000      520     2100   
                                         GEOM     BASIS   MCVARS     RHF  

 PROGRAMS   *        TOTAL        HF       INT
 CPU TIMES  *         0.43      0.07      0.26
 REAL TIME  *         0.63 SEC
 DISK USED  *        12.84 MB      
 **********************************************************************************************************************************

        HF-SCF  
   -225.74073485
 **********************************************************************************************************************************
 Variable memory released
