
 Primary working directories    : /scr/kumo
 Secondary working directories  : /scr/kumo
 Wavefunction directory         : /valhalla/home/kumo/wfu/
 Main file repository           : /scr/kumo/

 SHA1      : 5b1d074a25eef39b04831e9568c159f1d25e52e7
 ARCHNAME  : Linux/x86_64
 FC        : /opt/intel_2011p10/composer_xe_2011_sp1.10.319/bin/intel64/ifort
 FCVERSION : 12.1.4
 BLASLIB   : -L/opt/intel_2011p10/composer_xe_2011_sp1.10.319/mkl/lib/intel64 -lmkl_intel_ilp64 -lmkl_sequential -lmkl_core
 id        : kumo

 Nodes     nprocs
 hel06        1

 Using customized tuning parameters: mindgm=1; mindgv=20; mindgc=4; mindgr=1; noblas=0; minvec=7
 default implementation of scratch files=df  

 memory,100,m
 geomtyp=xyz
 geometry={
 9
 C1    -0.69009792   0.00529177  -0.71756556
 C2     0.69009792   0.00000000  -0.71756556
 C3    -1.09899972   0.00000000   0.60786733
 C4     1.09899972   0.00000000   0.60786733
 O5     0.00000000   0.00000000   1.43489378
 H6    -1.33161612   0.00000000  -1.58638157
 H7     1.32632435   0.00000000  -1.58638157
 H8    -2.11353252   0.00000000   0.97863290
 H9     2.11353252   0.00000000   0.97863290
 }
 basis=sto-3G
 hf
 

 Variables initialized (801), CPU time= 0.01 sec
 Commands  initialized (611), CPU time= 0.01 sec, 523 directives.
 Default parameters read. Elapsed time= 1.14 sec

 Checking input...
 Passed
1


                                         ***  PROGRAM SYSTEM MOLPRO  ***
                         Copyright, University College Cardiff Consultants Limited, 2008

                                    Version 2099.9 linked 31 Mar 2014 17:15:48


 **********************************************************************************************************************************
 LABEL *                                                                                 
 Linux-3.13.0-24-generic/hel06(x86_64) 64 bit serial version                             DATE: 05-Mar-15          TIME: 13:46:44  
 **********************************************************************************************************************************

 SHA1:             5b1d074a25eef39b04831e9568c159f1d25e52e7

 Develop Directory: /home/kumo/development/regions_orbital_inp_parallel

 Included files:    ccmp2_loc3.F ccsd_loc.F ciinp.F local_init.F orbdom.F r12dom.F
                    region.F
 **********************************************************************************************************************************
 SETTING GEOMTYP        =    XYZ

 Variable memory set to  100000000 words,  buffer space   230000 words

 SETTING BASIS          =    STO-3G


 Recomputing integrals since basis changed


 Using spherical harmonics

 Library entry C      S STO-3G               selected for orbital group  1
 Library entry C      P STO-3G               selected for orbital group  1
 Library entry O      S STO-3G               selected for orbital group  2
 Library entry O      P STO-3G               selected for orbital group  2
 Library entry H      S STO-3G               selected for orbital group  3

1PROGRAM * SEWARD (Integral evaluation for generally contracted gaussian basis sets)     Author: Roland Lindh, 1990

 Geometry written to block  1 of record 700


 Point group  C1  



 ATOMIC COORDINATES

 NR  ATOM    CHARGE       X              Y              Z

   1  C1      6.00   -1.304096073    0.009999996   -1.356002390
   2  C2      6.00    1.304096073    0.000000000   -1.356002390
   3  C3      6.00   -2.076808489    0.000000000    1.148702778
   4  C4      6.00    2.076808489    0.000000000    1.148702778
   5  O5      8.00    0.000000000    0.000000000    2.711556272
   6  H6      1.00   -2.516389779    0.000000000   -2.997826707
   7  H7      1.00    2.506389783    0.000000000   -2.997826707
   8  H8      1.00   -3.993997633    0.000000000    1.849348164
   9  H9      1.00    3.993997633    0.000000000    1.849348164

 Bond lengths in Bohr (Angstrom)

 1-2  2.608211316  1-3  2.621208205  1-6  2.040917225  2-4  2.621189130  2-7  2.034968613
     ( 1.380205984)     ( 1.387083642)     ( 1.080006881)     ( 1.387073548)     ( 1.076859011)

 3-5  2.599162278  3-8  2.041205078  4-5  2.599162278  4-9  2.041205078
     ( 1.375417440)     ( 1.080159206)     ( 1.375417440)     ( 1.080159206)

 Bond angles

  1-2-4  107.14509154   1-2-7  126.21468618   1-3-5  109.81705986   1-3-8  127.21996265

  2-1-3  107.14408587   2-1-6  126.43934002   2-4-5  109.81721012   2-4-9  127.22027937

  3-1-6  126.41113610   3-5-4  106.07513686   4-2-7  126.63978398   5-3-8  122.96251051

  5-4-9  122.96251051

 NUCLEAR CHARGE:                   36
 NUMBER OF PRIMITIVE AOS:          87
 NUMBER OF SYMMETRY AOS:           87
 NUMBER OF CONTRACTIONS:           29   (  29A   )
 NUMBER OF CORE ORBITALS:           5   (   5A   )
 NUMBER OF VALENCE ORBITALS:       24   (  24A   )


 NUCLEAR REPULSION ENERGY  160.14978026


 Eigenvalues of metric

         1 0.175E+00 0.227E+00 0.270E+00 0.290E+00 0.301E+00 0.316E+00 0.348E+00 0.388E+00


 Contracted 2-electron integrals neglected if value below      1.0D-11
 AO integral compression algorithm  1   Integral accuracy      1.0D-11

     0.524 MB (compressed) written to integral file ( 85.3%)


 NUMBER OF SORTED TWO-ELECTRON INTEGRALS:      94830.     BUFFER LENGTH:  32768
 NUMBER OF SEGMENTS:   1  SEGMENT LENGTH:      94830      RECORD LENGTH: 524288

 Memory used in sort:       0.65 MW

 SORT1 READ      112495. AND WROTE       73963. INTEGRALS IN      1 RECORDS. CPU TIME:     0.01 SEC, REAL TIME:     0.01 SEC
 SORT2 READ       73963. AND WROTE       94830. INTEGRALS IN      2 RECORDS. CPU TIME:     0.01 SEC, REAL TIME:     0.01 SEC

 FILE SIZES:   FILE 1:     8.2 MBYTE,  FILE 4:     4.2 MBYTE,   TOTAL:     12.4 MBYTE

 OPERATOR DM      FOR CENTER  0  COORDINATES:    0.000000    0.000000    0.000000


 **********************************************************************************************************************************
 DATASETS  * FILE   NREC   LENGTH (MB)   RECORD NAMES
              1      19        8.03       500      610      700      900      950      970     1000      129      960     1100   
                                          VAR    BASINP    GEOM    SYMINP    ZMAT    AOBASIS   BASIS     P2S    ABASIS      S 
                                         1400     1410     1200     1210     1080     1600     1650     1300     1700   
                                           T        V       H0       H01     AOSYM     SMH    MOLCAS    ERIS     OPER   

 PROGRAMS   *        TOTAL       INT
 CPU TIMES  *         0.34      0.24
 REAL TIME  *         4.24 SEC
 DISK USED  *        12.84 MB      
 **********************************************************************************************************************************

1PROGRAM * RHF-SCF (CLOSED SHELL)       Authors: W. Meyer, H.-J. Werner


 NUMBER OF ELECTRONS:      18+   18-    SPACE SYMMETRY=1    SPIN SYMMETRY: Singlet 
 CONVERGENCE THRESHOLDS:    1.00E-05 (Density)    1.00E-07 (Energy)
 MAX. NUMBER OF ITERATIONS:       60
 INTERPOLATION TYPE:            DIIS
 INTERPOLATION STEPS:              2 (START)      1 (STEP)
 LEVEL SHIFTS:                  0.00 (CLOSED)  0.00 (OPEN) 



 Orbital guess generated from atomic densities. Full valence occupancy:   18

 Molecular orbital dump at record        2100.2

 Initial occupancy:  18

 ITERATION    DDIFF          GRAD             ENERGY        2-EL.EN.            DIPOLE MOMENTS         DIIS   ORB.
    1      0.000D+00      0.000D+00      -225.66693077    484.215343   -0.00264   -0.00355   -0.32807    0    start
    2      0.000D+00      0.156D-01      -225.73696895    479.164853   -0.00068   -0.00016   -0.27828    1    diag
    3      0.308D-01      0.417D-02      -225.74060911    479.191166   -0.00043   -0.00114   -0.11955    2    diag
    4      0.695D-02      0.105D-02      -225.74091831    479.175459   -0.00045   -0.00088   -0.18955    3    diag
    5      0.186D-02      0.276D-03      -225.74093912    479.160508   -0.00047   -0.00093   -0.17479    4    diag
    6      0.456D-03      0.801D-04      -225.74094326    479.165815   -0.00047   -0.00092   -0.18160    5    diag
    7      0.210D-03      0.366D-04      -225.74094413    479.166059   -0.00047   -0.00092   -0.18147    6    diag
    8      0.124D-03      0.620D-05      -225.74094416    479.166144   -0.00047   -0.00092   -0.18144    7    diag
    9      0.253D-04      0.167D-05      -225.74094416    479.166174   -0.00048   -0.00092   -0.18143    8    diag
   10      0.727D-05      0.292D-06      -225.74094416    479.166180   -0.00047   -0.00092   -0.18144    0    orth

 Final occupancy:  18

 !RHF STATE 1.1 Energy               -225.740944164853
 Nuclear energy                       160.14978026
 One-electron energy                 -625.47381424
 Two-electron energy                  239.58308982
 Virial quotient                       -1.00967726
 !RHF STATE 1.1 Dipole moment          -0.00047408    -0.00092092    -0.18143890
 Dipole moment /Debye                  -0.00120491    -0.00234059    -0.46114147

 Orbital energies:

         1.1          2.1          3.1          4.1          5.1          6.1          7.1          8.1          9.1         10.1
    -20.382022   -11.067368   -11.066986   -11.015927   -11.015591    -1.386744    -1.024220    -0.928241    -0.733340    -0.724294

        11.1         12.1         13.1         14.1         15.1         16.1         17.1         18.1         19.1         20.1
     -0.675884    -0.554090    -0.548624    -0.500787    -0.500228    -0.449645    -0.330001    -0.249825     0.272417     0.393998

 HOMO     18.1    -0.249825 =      -6.7981eV
 LUMO     19.1     0.272417 =       7.4128eV
 LUMO-HOMO         0.522242 =      14.2109eV


 **********************************************************************************************************************************
 DATASETS  * FILE   NREC   LENGTH (MB)   RECORD NAMES
              1      19        8.03       500      610      700      900      950      970     1000      129      960     1100   
                                          VAR    BASINP    GEOM    SYMINP    ZMAT    AOBASIS   BASIS     P2S    ABASIS      S 
                                         1400     1410     1200     1210     1080     1600     1650     1300     1700   
                                           T        V       H0       H01     AOSYM     SMH    MOLCAS    ERIS     OPER   

              2       4        0.52       700     1000      520     2100   
                                         GEOM     BASIS   MCVARS     RHF  

 PROGRAMS   *        TOTAL        HF       INT
 CPU TIMES  *         0.43      0.09      0.24
 REAL TIME  *         5.44 SEC
 DISK USED  *        12.84 MB      
 **********************************************************************************************************************************

        HF-SCF  
   -225.74094416
 **********************************************************************************************************************************
 Variable memory released
