
 Primary working directories    : /scr/kumo
 Secondary working directories  : /scr/kumo
 Wavefunction directory         : /valhalla/home/kumo/wfu/
 Main file repository           : /scr/kumo/

 SHA1      : 5b1d074a25eef39b04831e9568c159f1d25e52e7
 ARCHNAME  : Linux/x86_64
 FC        : /opt/intel_2011p10/composer_xe_2011_sp1.10.319/bin/intel64/ifort
 FCVERSION : 12.1.4
 BLASLIB   : -L/opt/intel_2011p10/composer_xe_2011_sp1.10.319/mkl/lib/intel64 -lmkl_intel_ilp64 -lmkl_sequential -lmkl_core
 id        : kumo

 Nodes     nprocs
 hel06        1

 Using customized tuning parameters: mindgm=1; mindgv=20; mindgc=4; mindgr=1; noblas=0; minvec=7
 default implementation of scratch files=df  

 memory,100,m
 geomtyp=xyz
 geometry={
 9
 C1    -0.69009792   0.00000000  -0.71756556
 C2     0.69009792   0.00000000  -0.72285733
 C3    -1.09899972   0.00000000   0.60786733
 C4     1.09899972   0.00000000   0.61315911
 O5     0.00000000   0.00000000   1.43489378
 H6    -1.33161612   0.00000000  -1.58638157
 H7     1.33161612   0.00000000  -1.58638157
 H8    -2.11353252   0.00000000   0.97863290
 H9     2.11353252   0.00000000   0.97863290
 }
 basis=sto-3G
 hf
 

 Variables initialized (801), CPU time= 0.01 sec
 Commands  initialized (611), CPU time= 0.01 sec, 523 directives.
 Default parameters read. Elapsed time= 0.38 sec

 Checking input...
 Passed
1


                                         ***  PROGRAM SYSTEM MOLPRO  ***
                         Copyright, University College Cardiff Consultants Limited, 2008

                                    Version 2099.9 linked 31 Mar 2014 17:15:48


 **********************************************************************************************************************************
 LABEL *                                                                                 
 Linux-3.13.0-24-generic/hel06(x86_64) 64 bit serial version                             DATE: 05-Mar-15          TIME: 14:10:19  
 **********************************************************************************************************************************

 SHA1:             5b1d074a25eef39b04831e9568c159f1d25e52e7

 Develop Directory: /home/kumo/development/regions_orbital_inp_parallel

 Included files:    ccmp2_loc3.F ccsd_loc.F ciinp.F local_init.F orbdom.F r12dom.F
                    region.F
 **********************************************************************************************************************************
 SETTING GEOMTYP        =    XYZ

 Variable memory set to  100000000 words,  buffer space   230000 words

 SETTING BASIS          =    STO-3G


 Recomputing integrals since basis changed


 Using spherical harmonics

 Library entry C      S STO-3G               selected for orbital group  1
 Library entry C      P STO-3G               selected for orbital group  1
 Library entry O      S STO-3G               selected for orbital group  2
 Library entry O      P STO-3G               selected for orbital group  2
 Library entry H      S STO-3G               selected for orbital group  3

1PROGRAM * SEWARD (Integral evaluation for generally contracted gaussian basis sets)     Author: Roland Lindh, 1990

 Geometry written to block  1 of record 700


 Point group  Cs  



 ATOMIC COORDINATES

 NR  ATOM    CHARGE       X              Y              Z

   1  C1      6.00   -1.304096073    0.000000000   -1.356002390
   2  C2      6.00    1.304096073    0.000000000   -1.366002386
   3  C3      6.00   -2.076808489    0.000000000    1.148702778
   4  C4      6.00    2.076808489    0.000000000    1.158702793
   5  O5      8.00    0.000000000    0.000000000    2.711556272
   6  H6      1.00   -2.516389779    0.000000000   -2.997826707
   7  H7      1.00    2.516389779    0.000000000   -2.997826707
   8  H8      1.00   -3.993997633    0.000000000    1.849348164
   9  H9      1.00    3.993997633    0.000000000    1.849348164

 Bond lengths in Bohr (Angstrom)

 1-2  2.608211316  1-3  2.621189130  1-6  2.040892726  2-4  2.640306936  2-7  2.032856770
     ( 1.380205984)     ( 1.387073548)     ( 1.079993917)     ( 1.397190255)     ( 1.075741472)

 3-5  2.599162278  3-8  2.041205078  4-5  2.593161666  4-9  2.037794210
     ( 1.375417440)     ( 1.080159206)     ( 1.372242053)     ( 1.078354252)

 Bond angles

  1-2-4  106.79760286   1-2-7  126.82859051   1-3-5  109.81721012   1-3-8  127.22027937

  2-1-3  107.36489651   2-1-6  126.22182169   2-4-5  109.76860783   2-4-9  126.82825139

  3-1-6  126.41328180   3-5-4  106.25168267   4-2-7  126.37380663   5-3-8  122.96251051

  5-4-9  123.40314077

 NUCLEAR CHARGE:                   36
 NUMBER OF PRIMITIVE AOS:          87
 NUMBER OF SYMMETRY AOS:           87
 NUMBER OF CONTRACTIONS:           29   (  24A'  +   5A"  )
 NUMBER OF CORE ORBITALS:           5   (   5A'  +   0A"  )
 NUMBER OF VALENCE ORBITALS:       24   (  19A'  +   5A"  )


 NUCLEAR REPULSION ENERGY  160.03971720


 Eigenvalues of metric

         1 0.176E+00 0.229E+00 0.270E+00 0.289E+00 0.300E+00 0.316E+00 0.348E+00 0.388E+00
         2 0.671E+00 0.747E+00 0.106E+01 0.107E+01 0.145E+01


 Contracted 2-electron integrals neglected if value below      1.0D-11
 AO integral compression algorithm  1   Integral accuracy      1.0D-11

     0.524 MB (compressed) written to integral file (100.0%)


 NUMBER OF SORTED TWO-ELECTRON INTEGRALS:      58770.     BUFFER LENGTH:  32768
 NUMBER OF SEGMENTS:   1  SEGMENT LENGTH:      58770      RECORD LENGTH: 524288

 Memory used in sort:       0.62 MW

 SORT1 READ       66565. AND WROTE       56899. INTEGRALS IN      1 RECORDS. CPU TIME:     0.00 SEC, REAL TIME:     0.01 SEC
 SORT2 READ       56899. AND WROTE       58770. INTEGRALS IN      2 RECORDS. CPU TIME:     0.01 SEC, REAL TIME:     0.01 SEC

 FILE SIZES:   FILE 1:     8.2 MBYTE,  FILE 4:     4.2 MBYTE,   TOTAL:     12.4 MBYTE

 OPERATOR DM      FOR CENTER  0  COORDINATES:    0.000000    0.000000    0.000000


 **********************************************************************************************************************************
 DATASETS  * FILE   NREC   LENGTH (MB)   RECORD NAMES
              1      19        7.95       500      610      700      900      950      970     1000      129      960     1100   
                                          VAR    BASINP    GEOM    SYMINP    ZMAT    AOBASIS   BASIS     P2S    ABASIS      S 
                                         1400     1410     1200     1210     1080     1600     1650     1300     1700   
                                           T        V       H0       H01     AOSYM     SMH    MOLCAS    ERIS     OPER   

 PROGRAMS   *        TOTAL       INT
 CPU TIMES  *         0.35      0.25
 REAL TIME  *         2.34 SEC
 DISK USED  *        12.84 MB      
 **********************************************************************************************************************************

1PROGRAM * RHF-SCF (CLOSED SHELL)       Authors: W. Meyer, H.-J. Werner


 NUMBER OF ELECTRONS:      18+   18-
 CONVERGENCE THRESHOLDS:    1.00E-05 (Density)    1.00E-07 (Energy)
 MAX. NUMBER OF ITERATIONS:       60
 INTERPOLATION TYPE:            DIIS
 INTERPOLATION STEPS:              2 (START)      1 (STEP)
 LEVEL SHIFTS:                  0.00 (CLOSED)  0.00 (OPEN) 



 Orbital guess generated from atomic densities. Full valence occupancy:   24   5

 Molecular orbital dump at record        2100.2

 Initial occupancy:  15   3

 ITERATION    DDIFF          GRAD             ENERGY        2-EL.EN.            DIPOLE MOMENTS         DIIS   ORB.
    1      0.000D+00      0.000D+00      -225.66621362    483.980331    0.00681    0.00000   -0.31592    0    start
    2      0.000D+00      0.185D-01      -225.73586962    478.955139   -0.00239    0.00000   -0.27732    1    diag
    3      0.361D-01      0.495D-02      -225.73952421    478.977537    0.00354    0.00000   -0.11295    2    diag
    4      0.820D-02      0.125D-02      -225.73983529    478.962828    0.00221    0.00000   -0.18469    3    diag
    5      0.220D-02      0.327D-03      -225.73985552    478.947413    0.00248    0.00000   -0.16966    4    diag
    6      0.528D-03      0.929D-04      -225.73985934    478.952611    0.00247    0.00000   -0.17629    5    diag
    7      0.237D-03      0.413D-04      -225.73986011    478.952820    0.00248    0.00000   -0.17619    6    diag
    8      0.135D-03      0.714D-05      -225.73986014    478.952901    0.00249    0.00000   -0.17617    7    diag
    9      0.284D-04      0.198D-05      -225.73986014    478.952928    0.00248    0.00000   -0.17616    8    diag
   10      0.793D-05      0.609D-06      -225.73986014    478.952936    0.00249    0.00000   -0.17617    0    orth

 Final occupancy:  15   3

 !RHF STATE 1.1 Energy               -225.739860143211
 Nuclear energy                       160.03971720
 One-electron energy                 -625.25604531
 Two-electron energy                  239.47646797
 Virial quotient                       -1.00973365
 !RHF STATE 1.1 Dipole moment           0.00248889     0.00000000    -0.17617204
 Dipole moment /Debye                   0.00632571     0.00000000    -0.44775533

 Orbital energies:

         1.1          2.1          3.1          4.1          5.1          6.1          7.1          8.1          9.1         10.1
    -20.383721   -11.067244   -11.066523   -11.016065   -11.014861    -1.387923    -1.022897    -0.927528    -0.733238    -0.724457

        11.1         12.1         13.1         14.1         15.1         16.1         17.1
     -0.675670    -0.549924    -0.501954    -0.498548    -0.448973     0.545323     0.616492

         1.2          2.2          3.2          4.2          5.2
     -0.554346    -0.329429    -0.248253     0.271619     0.392673

 HOMO      3.2    -0.248253 =      -6.7553eV
 LUMO      4.2     0.271619 =       7.3911eV
 LUMO-HOMO         0.519871 =      14.1464eV


 **********************************************************************************************************************************
 DATASETS  * FILE   NREC   LENGTH (MB)   RECORD NAMES
              1      19        7.95       500      610      700      900      950      970     1000      129      960     1100   
                                          VAR    BASINP    GEOM    SYMINP    ZMAT    AOBASIS   BASIS     P2S    ABASIS      S 
                                         1400     1410     1200     1210     1080     1600     1650     1300     1700   
                                           T        V       H0       H01     AOSYM     SMH    MOLCAS    ERIS     OPER   

              2       4        0.51       700     1000      520     2100   
                                         GEOM     BASIS   MCVARS     RHF  

 PROGRAMS   *        TOTAL        HF       INT
 CPU TIMES  *         0.43      0.08      0.25
 REAL TIME  *         4.29 SEC
 DISK USED  *        12.84 MB      
 **********************************************************************************************************************************

        HF-SCF  
   -225.73986014
 **********************************************************************************************************************************
 Variable memory released
