
 Primary working directories    : /scr/kumo
 Secondary working directories  : /scr/kumo
 Wavefunction directory         : /valhalla/home/kumo/wfu/
 Main file repository           : /scr/kumo/

 SHA1      : 5b1d074a25eef39b04831e9568c159f1d25e52e7
 ARCHNAME  : Linux/x86_64
 FC        : /opt/intel_2011p10/composer_xe_2011_sp1.10.319/bin/intel64/ifort
 FCVERSION : 12.1.4
 BLASLIB   : -L/opt/intel_2011p10/composer_xe_2011_sp1.10.319/mkl/lib/intel64 -lmkl_intel_ilp64 -lmkl_sequential -lmkl_core
 id        : kumo

 Nodes     nprocs
 hel06        1

 Using customized tuning parameters: mindgm=1; mindgv=20; mindgc=4; mindgr=1; noblas=0; minvec=7
 default implementation of scratch files=df  

 memory,100,m
 geomtyp=xyz
 geometry={
 9
 C1    -0.69009792   0.00000000  -0.71756556
 C2     0.69009792   0.00000000  -0.71756556
 C3    -1.09899972   0.00000000   0.60257556
 C4     1.09899972   0.00000000   0.60786733
 O5     0.00529177   0.00000000   1.43489378
 H6    -1.33161612   0.00000000  -1.58638157
 H7     1.33161612   0.00000000  -1.58638157
 H8    -2.11353252   0.00000000   0.97863290
 H9     2.11353252   0.00000000   0.97863290
 }
 basis=sto-3G
 hf
 

 Variables initialized (801), CPU time= 0.00 sec
 Commands  initialized (611), CPU time= 0.02 sec, 523 directives.
 Default parameters read. Elapsed time= 0.95 sec

 Checking input...
 Passed
1


                                         ***  PROGRAM SYSTEM MOLPRO  ***
                         Copyright, University College Cardiff Consultants Limited, 2008

                                    Version 2099.9 linked 31 Mar 2014 17:15:48


 **********************************************************************************************************************************
 LABEL *                                                                                 
 Linux-3.13.0-24-generic/hel06(x86_64) 64 bit serial version                             DATE: 05-Mar-15          TIME: 14:26:27  
 **********************************************************************************************************************************

 SHA1:             5b1d074a25eef39b04831e9568c159f1d25e52e7

 Develop Directory: /home/kumo/development/regions_orbital_inp_parallel

 Included files:    ccmp2_loc3.F ccsd_loc.F ciinp.F local_init.F orbdom.F r12dom.F
                    region.F
 **********************************************************************************************************************************
 SETTING GEOMTYP        =    XYZ

 Variable memory set to  100000000 words,  buffer space   230000 words

 SETTING BASIS          =    STO-3G


 Recomputing integrals since basis changed


 Using spherical harmonics

 Library entry C      S STO-3G               selected for orbital group  1
 Library entry C      P STO-3G               selected for orbital group  1
 Library entry O      S STO-3G               selected for orbital group  2
 Library entry O      P STO-3G               selected for orbital group  2
 Library entry H      S STO-3G               selected for orbital group  3

1PROGRAM * SEWARD (Integral evaluation for generally contracted gaussian basis sets)     Author: Roland Lindh, 1990

 Geometry written to block  1 of record 700


 Point group  Cs  



 ATOMIC COORDINATES

 NR  ATOM    CHARGE       X              Y              Z

   1  C1      6.00   -1.304096073    0.000000000   -1.356002390
   2  C2      6.00    1.304096073    0.000000000   -1.356002390
   3  C3      6.00   -2.076808489    0.000000000    1.138702782
   4  C4      6.00    2.076808489    0.000000000    1.148702778
   5  O5      8.00    0.009999996    0.000000000    2.711556272
   6  H6      1.00   -2.516389779    0.000000000   -2.997826707
   7  H7      1.00    2.516389779    0.000000000   -2.997826707
   8  H8      1.00   -3.993997633    0.000000000    1.849348164
   9  H9      1.00    3.993997633    0.000000000    1.849348164

 Bond lengths in Bohr (Angstrom)

 1-2  2.608192145  1-3  2.611635191  1-6  2.040892726  2-4  2.621189130  2-7  2.040892726
     ( 1.380195840)     ( 1.382017821)     ( 1.079993917)     ( 1.387073548)     ( 1.079993917)

 3-5  2.613166232  3-8  2.044659158  4-5  2.591178958  4-9  2.041205078
     ( 1.382828013)     ( 1.081987026)     ( 1.371192849)     ( 1.080159206)

 Bond angles

  1-2-4  107.14522146   1-2-7  126.44149675   1-3-5  109.79589193   1-3-8  127.54815062

  2-1-3  107.20989543   2-1-6  126.44149675   2-4-5  109.95016684   2-4-9  127.22027937

  3-1-6  126.34860782   3-5-4  105.89882434   4-2-7  126.41328180   5-3-8  122.65595744

  5-4-9  122.82955379

 NUCLEAR CHARGE:                   36
 NUMBER OF PRIMITIVE AOS:          87
 NUMBER OF SYMMETRY AOS:           87
 NUMBER OF CONTRACTIONS:           29   (  24A'  +   5A"  )
 NUMBER OF CORE ORBITALS:           5   (   5A'  +   0A"  )
 NUMBER OF VALENCE ORBITALS:       24   (  19A'  +   5A"  )


 NUCLEAR REPULSION ENERGY  160.15514241


 Eigenvalues of metric

         1 0.174E+00 0.226E+00 0.270E+00 0.290E+00 0.301E+00 0.317E+00 0.347E+00 0.388E+00
         2 0.668E+00 0.747E+00 0.106E+01 0.107E+01 0.145E+01


 Contracted 2-electron integrals neglected if value below      1.0D-11
 AO integral compression algorithm  1   Integral accuracy      1.0D-11

     0.524 MB (compressed) written to integral file (100.0%)


 NUMBER OF SORTED TWO-ELECTRON INTEGRALS:      58770.     BUFFER LENGTH:  32768
 NUMBER OF SEGMENTS:   1  SEGMENT LENGTH:      58770      RECORD LENGTH: 524288

 Memory used in sort:       0.62 MW

 SORT1 READ       66565. AND WROTE       56572. INTEGRALS IN      1 RECORDS. CPU TIME:     0.00 SEC, REAL TIME:     0.01 SEC
 SORT2 READ       56572. AND WROTE       58770. INTEGRALS IN      2 RECORDS. CPU TIME:     0.01 SEC, REAL TIME:     0.01 SEC

 FILE SIZES:   FILE 1:     8.2 MBYTE,  FILE 4:     4.2 MBYTE,   TOTAL:     12.4 MBYTE

 OPERATOR DM      FOR CENTER  0  COORDINATES:    0.000000    0.000000    0.000000


 **********************************************************************************************************************************
 DATASETS  * FILE   NREC   LENGTH (MB)   RECORD NAMES
              1      19        7.95       500      610      700      900      950      970     1000      129      960     1100   
                                          VAR    BASINP    GEOM    SYMINP    ZMAT    AOBASIS   BASIS     P2S    ABASIS      S 
                                         1400     1410     1200     1210     1080     1600     1650     1300     1700   
                                           T        V       H0       H01     AOSYM     SMH    MOLCAS    ERIS     OPER   

 PROGRAMS   *        TOTAL       INT
 CPU TIMES  *         0.35      0.25
 REAL TIME  *         3.55 SEC
 DISK USED  *        12.84 MB      
 **********************************************************************************************************************************

1PROGRAM * RHF-SCF (CLOSED SHELL)       Authors: W. Meyer, H.-J. Werner


 NUMBER OF ELECTRONS:      18+   18-
 CONVERGENCE THRESHOLDS:    1.00E-05 (Density)    1.00E-07 (Energy)
 MAX. NUMBER OF ITERATIONS:       60
 INTERPOLATION TYPE:            DIIS
 INTERPOLATION STEPS:              2 (START)      1 (STEP)
 LEVEL SHIFTS:                  0.00 (CLOSED)  0.00 (OPEN) 



 Orbital guess generated from atomic densities. Full valence occupancy:   24   5

 Molecular orbital dump at record        2100.2

 Initial occupancy:  15   3

 ITERATION    DDIFF          GRAD             ENERGY        2-EL.EN.            DIPOLE MOMENTS         DIIS   ORB.
    1      0.000D+00      0.000D+00      -225.66714305    484.253968   -0.00510    0.00000   -0.33810    0    start
    2      0.000D+00      0.185D-01      -225.73746708    479.180338   -0.00083    0.00000   -0.27895    1    diag
    3      0.362D-01      0.493D-02      -225.74110405    479.210760   -0.00094    0.00000   -0.12420    2    diag
    4      0.815D-02      0.125D-02      -225.74141314    479.194178   -0.00033    0.00000   -0.19293    3    diag
    5      0.218D-02      0.326D-03      -225.74143433    479.179580   -0.00025    0.00000   -0.17831    4    diag
    6      0.542D-03      0.965D-04      -225.74143869    479.184954   -0.00020    0.00000   -0.18524    5    diag
    7      0.252D-03      0.447D-04      -225.74143963    479.185226   -0.00014    0.00000   -0.18509    6    diag
    8      0.152D-03      0.751D-05      -225.74143967    479.185313   -0.00016    0.00000   -0.18507    7    diag
    9      0.305D-04      0.205D-05      -225.74143967    479.185341   -0.00013    0.00000   -0.18505    8    diag
   10      0.819D-05      0.547D-06      -225.74143967    479.185348   -0.00016    0.00000   -0.18506    0    orth

 Final occupancy:  15   3

 !RHF STATE 1.1 Energy               -225.741439670752
 Nuclear energy                       160.15514241
 One-electron energy                 -625.48925607
 Two-electron energy                  239.59267399
 Virial quotient                       -1.00966263
 !RHF STATE 1.1 Dipole moment          -0.00015562     0.00000000    -0.18506160
 Dipole moment /Debye                  -0.00039552     0.00000000    -0.47034886

 Orbital energies:

         1.1          2.1          3.1          4.1          5.1          6.1          7.1          8.1          9.1         10.1
    -20.380834   -11.068270   -11.066160   -11.017067   -11.015183    -1.385591    -1.024937    -0.928332    -0.733092    -0.723971

        11.1         12.1         13.1         14.1         15.1         16.1         17.1
     -0.675546    -0.547342    -0.501130    -0.500010    -0.449975     0.544806     0.613654

         1.2          2.2          3.2          4.2          5.2
     -0.553599    -0.330425    -0.250492     0.272662     0.394717

 HOMO      3.2    -0.250492 =      -6.8162eV
 LUMO      4.2     0.272662 =       7.4195eV
 LUMO-HOMO         0.523154 =      14.2357eV


 **********************************************************************************************************************************
 DATASETS  * FILE   NREC   LENGTH (MB)   RECORD NAMES
              1      19        7.95       500      610      700      900      950      970     1000      129      960     1100   
                                          VAR    BASINP    GEOM    SYMINP    ZMAT    AOBASIS   BASIS     P2S    ABASIS      S 
                                         1400     1410     1200     1210     1080     1600     1650     1300     1700   
                                           T        V       H0       H01     AOSYM     SMH    MOLCAS    ERIS     OPER   

              2       4        0.51       700     1000      520     2100   
                                         GEOM     BASIS   MCVARS     RHF  

 PROGRAMS   *        TOTAL        HF       INT
 CPU TIMES  *         0.43      0.08      0.25
 REAL TIME  *         4.37 SEC
 DISK USED  *        12.84 MB      
 **********************************************************************************************************************************

        HF-SCF  
   -225.74143967
 **********************************************************************************************************************************
 Variable memory released
