memory,100,m
geomtyp=xyz
geometry={
9
  
C1    -0.69009792   0.00000000  -0.71756556
C2     0.69009792   0.00000000  -0.71756556
C3    -1.09899972   0.00000000   0.60786733
C4     1.09899972   0.00000000   0.60786733
O5     0.00000000   0.00000000   1.42960200
H6    -1.33161612   0.00529177  -1.58638157
H7     1.33161612   0.00000000  -1.58638157
H8    -2.11353252   0.00000000   0.97863290
H9     2.11353252   0.00000000   0.97863290

}
basis=sto-3G
hf

