
 Primary working directories    : /scr/kumo
 Secondary working directories  : /scr/kumo
 Wavefunction directory         : /valhalla/home/kumo/wfu/
 Main file repository           : /scr/kumo/

 SHA1      : 5b1d074a25eef39b04831e9568c159f1d25e52e7
 ARCHNAME  : Linux/x86_64
 FC        : /opt/intel_2011p10/composer_xe_2011_sp1.10.319/bin/intel64/ifort
 FCVERSION : 12.1.4
 BLASLIB   : -L/opt/intel_2011p10/composer_xe_2011_sp1.10.319/mkl/lib/intel64 -lmkl_intel_ilp64 -lmkl_sequential -lmkl_core
 id        : kumo

 Nodes     nprocs
 hel06        1

 Using customized tuning parameters: mindgm=1; mindgv=20; mindgc=4; mindgr=1; noblas=0; minvec=7
 default implementation of scratch files=df  

 memory,100,m
 geomtyp=xyz
 geometry={
 9
 C1    -0.69009792   0.00000000  -0.71756556
 C2     0.69009792   0.00000000  -0.71756556
 C3    -1.09899972   0.00000000   0.60786733
 C4     1.09899972   0.00000000   0.60786733
 O5     0.00000000   0.00000000   1.43489378
 H6    -1.33161612   0.00000000  -1.58638157
 H7     1.33161612   0.00000000  -1.58638157
 H8    -2.11353252   0.00000000   0.97863290
 H9     2.10824074   0.00000000   0.97863290
 }
 basis=sto-3G
 hf
 

 Variables initialized (801), CPU time= 0.01 sec
 Commands  initialized (611), CPU time= 0.01 sec, 523 directives.
 Default parameters read. Elapsed time= 1.33 sec

 Checking input...
 Passed
1


                                         ***  PROGRAM SYSTEM MOLPRO  ***
                         Copyright, University College Cardiff Consultants Limited, 2008

                                    Version 2099.9 linked 31 Mar 2014 17:15:48


 **********************************************************************************************************************************
 LABEL *                                                                                 
 Linux-3.13.0-24-generic/hel06(x86_64) 64 bit serial version                             DATE: 04-Mar-15          TIME: 17:44:49  
 **********************************************************************************************************************************

 SHA1:             5b1d074a25eef39b04831e9568c159f1d25e52e7

 Develop Directory: /home/kumo/development/regions_orbital_inp_parallel

 Included files:    ccmp2_loc3.F ccsd_loc.F ciinp.F local_init.F orbdom.F r12dom.F
                    region.F
 **********************************************************************************************************************************
 SETTING GEOMTYP        =    XYZ

 Variable memory set to  100000000 words,  buffer space   230000 words

 SETTING BASIS          =    STO-3G


 Recomputing integrals since basis changed


 Using spherical harmonics

 Library entry C      S STO-3G               selected for orbital group  1
 Library entry C      P STO-3G               selected for orbital group  1
 Library entry O      S STO-3G               selected for orbital group  2
 Library entry O      P STO-3G               selected for orbital group  2
 Library entry H      S STO-3G               selected for orbital group  3

1PROGRAM * SEWARD (Integral evaluation for generally contracted gaussian basis sets)     Author: Roland Lindh, 1990

 Geometry written to block  1 of record 700


 Point group  Cs  



 ATOMIC COORDINATES

 NR  ATOM    CHARGE       X              Y              Z

   1  C1      6.00   -1.304096073    0.000000000   -1.356002390
   2  C2      6.00    1.304096073    0.000000000   -1.356002390
   3  C3      6.00   -2.076808489    0.000000000    1.148702778
   4  C4      6.00    2.076808489    0.000000000    1.148702778
   5  O5      8.00    0.000000000    0.000000000    2.711556272
   6  H6      1.00   -2.516389779    0.000000000   -2.997826707
   7  H7      1.00    2.516389779    0.000000000   -2.997826707
   8  H8      1.00   -3.993997633    0.000000000    1.849348164
   9  H9      1.00    3.983997618    0.000000000    1.849348164

 Bond lengths in Bohr (Angstrom)

 1-2  2.608192145  1-3  2.621189130  1-6  2.040892726  2-4  2.621189130  2-7  2.040892726
     ( 1.380195840)     ( 1.387073548)     ( 1.079993917)     ( 1.387073548)     ( 1.079993917)

 3-5  2.599162278  3-8  2.041205078  4-5  2.599162278  4-9  2.031815525
     ( 1.375417440)     ( 1.080159206)     ( 1.375417440)     ( 1.075190469)

 Bond angles

  1-2-4  107.14522146   1-2-7  126.44149675   1-3-5  109.81721012   1-3-8  127.22027937

  2-1-3  107.14522146   2-1-6  126.44149675   2-4-5  109.81721012   2-4-9  127.31707391

  3-1-6  126.41328180   3-5-4  106.07513686   4-2-7  126.41328180   5-3-8  122.96251051

  5-4-9  122.86571598

 NUCLEAR CHARGE:                   36
 NUMBER OF PRIMITIVE AOS:          87
 NUMBER OF SYMMETRY AOS:           87
 NUMBER OF CONTRACTIONS:           29   (  24A'  +   5A"  )
 NUMBER OF CORE ORBITALS:           5   (   5A'  +   0A"  )
 NUMBER OF VALENCE ORBITALS:       24   (  19A'  +   5A"  )


 NUCLEAR REPULSION ENERGY  160.15938677


 Eigenvalues of metric

         1 0.175E+00 0.227E+00 0.269E+00 0.290E+00 0.301E+00 0.315E+00 0.347E+00 0.388E+00
         2 0.669E+00 0.747E+00 0.106E+01 0.107E+01 0.145E+01


 Contracted 2-electron integrals neglected if value below      1.0D-11
 AO integral compression algorithm  1   Integral accuracy      1.0D-11

     0.524 MB (compressed) written to integral file (100.0%)


 NUMBER OF SORTED TWO-ELECTRON INTEGRALS:      58770.     BUFFER LENGTH:  32768
 NUMBER OF SEGMENTS:   1  SEGMENT LENGTH:      58770      RECORD LENGTH: 524288

 Memory used in sort:       0.62 MW

 SORT1 READ       66565. AND WROTE       56214. INTEGRALS IN      1 RECORDS. CPU TIME:     0.00 SEC, REAL TIME:     0.04 SEC
 SORT2 READ       56214. AND WROTE       58770. INTEGRALS IN      2 RECORDS. CPU TIME:     0.01 SEC, REAL TIME:     0.01 SEC

 FILE SIZES:   FILE 1:     8.2 MBYTE,  FILE 4:     4.2 MBYTE,   TOTAL:     12.4 MBYTE

 OPERATOR DM      FOR CENTER  0  COORDINATES:    0.000000    0.000000    0.000000


 **********************************************************************************************************************************
 DATASETS  * FILE   NREC   LENGTH (MB)   RECORD NAMES
              1      19        7.95       500      610      700      900      950      970     1000      129      960     1100   
                                          VAR    BASINP    GEOM    SYMINP    ZMAT    AOBASIS   BASIS     P2S    ABASIS      S 
                                         1400     1410     1200     1210     1080     1600     1650     1300     1700   
                                           T        V       H0       H01     AOSYM     SMH    MOLCAS    ERIS     OPER   

 PROGRAMS   *        TOTAL       INT
 CPU TIMES  *         0.38      0.25
 REAL TIME  *         7.38 SEC
 DISK USED  *        12.84 MB      
 **********************************************************************************************************************************

1PROGRAM * RHF-SCF (CLOSED SHELL)       Authors: W. Meyer, H.-J. Werner


 NUMBER OF ELECTRONS:      18+   18-
 CONVERGENCE THRESHOLDS:    1.00E-05 (Density)    1.00E-07 (Energy)
 MAX. NUMBER OF ITERATIONS:       60
 INTERPOLATION TYPE:            DIIS
 INTERPOLATION STEPS:              2 (START)      1 (STEP)
 LEVEL SHIFTS:                  0.00 (CLOSED)  0.00 (OPEN) 



 Orbital guess generated from atomic densities. Full valence occupancy:   24   5

 Molecular orbital dump at record        2100.2

 Initial occupancy:  15   3

 ITERATION    DDIFF          GRAD             ENERGY        2-EL.EN.            DIPOLE MOMENTS         DIIS   ORB.
    1      0.000D+00      0.000D+00      -225.66707466    484.226592   -0.00703    0.00000   -0.33436    0    start
    2      0.000D+00      0.185D-01      -225.73702111    479.177036   -0.00254    0.00000   -0.27934    1    diag
    3      0.362D-01      0.493D-02      -225.74065534    479.205602   -0.00210    0.00000   -0.12107    2    diag
    4      0.816D-02      0.124D-02      -225.74096314    479.189337   -0.00184    0.00000   -0.19057    3    diag
    5      0.218D-02      0.325D-03      -225.74098379    479.174517   -0.00182    0.00000   -0.17580    4    diag
    6      0.534D-03      0.948D-04      -225.74098791    479.179821   -0.00180    0.00000   -0.18259    5    diag
    7      0.246D-03      0.433D-04      -225.74098878    479.180074   -0.00179    0.00000   -0.18246    6    diag
    8      0.145D-03      0.734D-05      -225.74098882    479.180158   -0.00179    0.00000   -0.18244    7    diag
    9      0.298D-04      0.197D-05      -225.74098882    479.180188   -0.00179    0.00000   -0.18243    8    diag
   10      0.848D-05      0.355D-06      -225.74098882    479.180194   -0.00179    0.00000   -0.18244    0    orth

 Final occupancy:  15   3

 !RHF STATE 1.1 Energy               -225.740988818617
 Nuclear energy                       160.15938677
 One-electron energy                 -625.49047240
 Two-electron energy                  239.59009682
 Virial quotient                       -1.00967215
 !RHF STATE 1.1 Dipole moment          -0.00179039     0.00000000    -0.18243600
 Dipole moment /Debye                  -0.00455042     0.00000000    -0.46367568

 Orbital energies:

         1.1          2.1          3.1          4.1          5.1          6.1          7.1          8.1          9.1         10.1
    -20.381992   -11.067309   -11.066938   -11.016103   -11.015743    -1.386723    -1.024187    -0.928542    -0.733719    -0.724256

        11.1         12.1         13.1         14.1         15.1         16.1         17.1
     -0.675899    -0.549006    -0.500937    -0.500062    -0.449724     0.545810     0.615663

         1.2          2.2          3.2          4.2          5.2
     -0.554091    -0.329993    -0.249914     0.272334     0.393989

 HOMO      3.2    -0.249914 =      -6.8005eV
 LUMO      4.2     0.272334 =       7.4106eV
 LUMO-HOMO         0.522248 =      14.2111eV


 **********************************************************************************************************************************
 DATASETS  * FILE   NREC   LENGTH (MB)   RECORD NAMES
              1      19        7.95       500      610      700      900      950      970     1000      129      960     1100   
                                          VAR    BASINP    GEOM    SYMINP    ZMAT    AOBASIS   BASIS     P2S    ABASIS      S 
                                         1400     1410     1200     1210     1080     1600     1650     1300     1700   
                                           T        V       H0       H01     AOSYM     SMH    MOLCAS    ERIS     OPER   

              2       4        0.51       700     1000      520     2100   
                                         GEOM     BASIS   MCVARS     RHF  

 PROGRAMS   *        TOTAL        HF       INT
 CPU TIMES  *         0.46      0.08      0.25
 REAL TIME  *        12.28 SEC
 DISK USED  *        12.84 MB      
 **********************************************************************************************************************************

        HF-SCF  
   -225.74098882
 **********************************************************************************************************************************
 Variable memory released
