
 Primary working directories    : /scr/kumo
 Secondary working directories  : /scr/kumo
 Wavefunction directory         : /valhalla/home/kumo/wfu/
 Main file repository           : /scr/kumo/

 SHA1      : 5b1d074a25eef39b04831e9568c159f1d25e52e7
 ARCHNAME  : Linux/x86_64
 FC        : /opt/intel_2011p10/composer_xe_2011_sp1.10.319/bin/intel64/ifort
 FCVERSION : 12.1.4
 BLASLIB   : -L/opt/intel_2011p10/composer_xe_2011_sp1.10.319/mkl/lib/intel64 -lmkl_intel_ilp64 -lmkl_sequential -lmkl_core
 id        : kumo

 Nodes     nprocs
 hel06        1

 Using customized tuning parameters: mindgm=1; mindgv=20; mindgc=4; mindgr=1; noblas=0; minvec=7
 default implementation of scratch files=df  

 memory,100,m
 geomtyp=xyz
 geometry={
 9
 C1    -0.69009792   0.00000000  -0.71756556
 C2     0.69009792   0.00000000  -0.71756556
 C3    -1.09899972   0.00000000   0.60786733
 C4     1.09899972   0.00000000   0.60786733
 O5     0.00000000   0.00529177   1.43489378
 H6    -1.33161612   0.00000000  -1.58638157
 H7     1.33161612   0.00000000  -1.58638157
 H8    -2.11353252   0.00000000   0.97863290
 H9     2.11353252   0.00000000   0.97863290
 }
 basis=sto-3G
 hf
 

 Variables initialized (801), CPU time= 0.00 sec
 Commands  initialized (611), CPU time= 0.01 sec, 523 directives.
 Default parameters read. Elapsed time= 0.25 sec

 Checking input...
 Passed
1


                                         ***  PROGRAM SYSTEM MOLPRO  ***
                         Copyright, University College Cardiff Consultants Limited, 2008

                                    Version 2099.9 linked 31 Mar 2014 17:15:48


 **********************************************************************************************************************************
 LABEL *                                                                                 
 Linux-3.13.0-24-generic/hel06(x86_64) 64 bit serial version                             DATE: 04-Mar-15          TIME: 17:37:26  
 **********************************************************************************************************************************

 SHA1:             5b1d074a25eef39b04831e9568c159f1d25e52e7

 Develop Directory: /home/kumo/development/regions_orbital_inp_parallel

 Included files:    ccmp2_loc3.F ccsd_loc.F ciinp.F local_init.F orbdom.F r12dom.F
                    region.F
 **********************************************************************************************************************************
 SETTING GEOMTYP        =    XYZ

 Variable memory set to  100000000 words,  buffer space   230000 words

 SETTING BASIS          =    STO-3G


 Recomputing integrals since basis changed


 Using spherical harmonics

 Library entry C      S STO-3G               selected for orbital group  1
 Library entry C      P STO-3G               selected for orbital group  1
 Library entry O      S STO-3G               selected for orbital group  2
 Library entry O      P STO-3G               selected for orbital group  2
 Library entry H      S STO-3G               selected for orbital group  3

1PROGRAM * SEWARD (Integral evaluation for generally contracted gaussian basis sets)     Author: Roland Lindh, 1990

 Geometry written to block  1 of record 700


 Point group  Cs  



 ATOMIC COORDINATES

 NR  ATOM    CHARGE       X              Y              Z

   1  C1      6.00   -1.304096073    0.000000000   -1.356002390
   2  C2      6.00    1.304096073    0.000000000   -1.356002390
   3  C3      6.00   -2.076808489    0.000000000    1.148702778
   4  C4      6.00    2.076808489    0.000000000    1.148702778
   5  O5      8.00    0.000000000    0.009999996    2.711556272
   6  H6      1.00   -2.516389779    0.000000000   -2.997826707
   7  H7      1.00    2.516389779    0.000000000   -2.997826707
   8  H8      1.00   -3.993997633    0.000000000    1.849348164
   9  H9      1.00    3.993997633    0.000000000    1.849348164

 Bond lengths in Bohr (Angstrom)

 1-2  2.608192145  1-3  2.621189130  1-6  2.040892726  2-4  2.621189130  2-7  2.040892726
     ( 1.380195840)     ( 1.387073548)     ( 1.079993917)     ( 1.387073548)     ( 1.079993917)

 3-5  2.599181514  3-8  2.041205078  4-5  2.599181514  4-9  2.041205078
     ( 1.375427619)     ( 1.080159206)     ( 1.375427619)     ( 1.080159206)

 Bond angles

  1-2-4  107.14522146   1-2-7  126.44149675   1-3-5  109.81705730   1-3-8  127.22027937

  2-1-3  107.14522146   2-1-6  126.44149675   2-4-5  109.81705730   2-4-9  127.22027937

  3-1-6  126.41328180   3-5-4  106.07400985   4-2-7  126.41328180   5-3-8  122.96223553

  5-4-9  122.96223553

 NUCLEAR CHARGE:                   36
 NUMBER OF PRIMITIVE AOS:          87
 NUMBER OF SYMMETRY AOS:           87
 NUMBER OF CONTRACTIONS:           29   (  16A'  +  13A"  )
 NUMBER OF CORE ORBITALS:           5   (   3A'  +   2A"  )
 NUMBER OF VALENCE ORBITALS:       24   (  13A'  +  11A"  )


 NUCLEAR REPULSION ENERGY  160.13522337


 Eigenvalues of metric

         1 0.227E+00 0.301E+00 0.317E+00 0.388E+00 0.747E+00 0.876E+00 0.934E+00 0.960E+00
         2 0.175E+00 0.270E+00 0.290E+00 0.348E+00 0.442E+00 0.669E+00 0.930E+00 0.984E+00


 Contracted 2-electron integrals neglected if value below      1.0D-11
 AO integral compression algorithm  1   Integral accuracy      1.0D-11

     0.262 MB (compressed) written to integral file ( 92.7%)


 NUMBER OF SORTED TWO-ELECTRON INTEGRALS:      50630.     BUFFER LENGTH:  32768
 NUMBER OF SEGMENTS:   1  SEGMENT LENGTH:      50630      RECORD LENGTH: 524288

 Memory used in sort:       0.61 MW

 SORT1 READ       67077. AND WROTE       40236. INTEGRALS IN      1 RECORDS. CPU TIME:     0.00 SEC, REAL TIME:     0.01 SEC
 SORT2 READ       40236. AND WROTE       50630. INTEGRALS IN      1 RECORDS. CPU TIME:     0.01 SEC, REAL TIME:     0.01 SEC

 FILE SIZES:   FILE 1:     7.9 MBYTE,  FILE 4:     4.2 MBYTE,   TOTAL:     12.2 MBYTE

 OPERATOR DM      FOR CENTER  0  COORDINATES:    0.000000    0.000000    0.000000


 **********************************************************************************************************************************
 DATASETS  * FILE   NREC   LENGTH (MB)   RECORD NAMES
              1      19        7.86       500      610      700      900      950      970     1000      129      960     1100   
                                          VAR    BASINP    GEOM    SYMINP    ZMAT    AOBASIS   BASIS     P2S    ABASIS      S 
                                         1400     1410     1200     1210     1080     1600     1650     1300     1700   
                                           T        V       H0       H01     AOSYM     SMH    MOLCAS    ERIS     OPER   

 PROGRAMS   *        TOTAL       INT
 CPU TIMES  *         0.29      0.18
 REAL TIME  *         3.87 SEC
 DISK USED  *        12.57 MB      
 **********************************************************************************************************************************

1PROGRAM * RHF-SCF (CLOSED SHELL)       Authors: W. Meyer, H.-J. Werner


 NUMBER OF ELECTRONS:      18+   18-
 CONVERGENCE THRESHOLDS:    1.00E-05 (Density)    1.00E-07 (Energy)
 MAX. NUMBER OF ITERATIONS:       60
 INTERPOLATION TYPE:            DIIS
 INTERPOLATION STEPS:              2 (START)      1 (STEP)
 LEVEL SHIFTS:                  0.00 (CLOSED)  0.00 (OPEN) 



 Orbital guess generated from atomic densities. Full valence occupancy:   16  13

 Molecular orbital dump at record        2100.2

 Initial occupancy:  11   7

 ITERATION    DDIFF          GRAD             ENERGY        2-EL.EN.            DIPOLE MOMENTS         DIIS   ORB.
    1      0.000D+00      0.000D+00      -225.66685404    484.201244    0.00000   -0.00365   -0.33128    0    start
    2      0.000D+00      0.223D-01      -225.73699110    479.140173    0.00000   -0.00042   -0.27851    1    diag
    3      0.431D-01      0.595D-02      -225.74063075    479.168225    0.00000   -0.00113   -0.11992    2    diag
    4      0.971D-02      0.150D-02      -225.74093991    479.152468    0.00000   -0.00102   -0.18982    3    diag
    5      0.260D-02      0.394D-03      -225.74096068    479.137548    0.00000   -0.00098   -0.17504    4    diag
    6      0.640D-03      0.114D-03      -225.74096481    479.142846    0.00000   -0.00100   -0.18184    5    diag
    7      0.294D-03      0.522D-04      -225.74096568    479.143096    0.00000   -0.00100   -0.18171    6    diag
    8      0.175D-03      0.886D-05      -225.74096572    479.143180    0.00000   -0.00100   -0.18168    7    diag
    9      0.373D-04      0.238D-05      -225.74096572    479.143210    0.00000   -0.00100   -0.18168    8    diag
   10      0.109D-04      0.415D-06      -225.74096572    479.143217    0.00000   -0.00100   -0.18167    9    orth
   11      0.159D-05      0.594D-07      -225.74096572    479.143217    0.00000   -0.00100   -0.18168    0    orth

 Final occupancy:  11   7

 !RHF STATE 1.1 Energy               -225.740965719887
 Nuclear energy                       160.13522337
 One-electron energy                 -625.44779768
 Two-electron energy                  239.57160859
 Virial quotient                       -1.00968737
 !RHF STATE 1.1 Dipole moment           0.00000000    -0.00099870    -0.18167510
 Dipole moment /Debye                   0.00000000    -0.00253828    -0.46174179

 Orbital energies:

         1.1          2.1          3.1          4.1          5.1          6.1          7.1          8.1          9.1         10.1
    -20.381961   -11.066952   -11.015994    -1.386703    -1.024133    -0.733144    -0.675579    -0.554055    -0.500767    -0.449574

        11.1         12.1         13.1
     -0.329968     0.272444     0.545137

         1.2          2.2          3.2          4.2          5.2          6.2          7.2          8.2          9.2
    -11.067285   -11.015659    -0.928214    -0.724083    -0.548532    -0.499885    -0.249803     0.394068     0.653428

 HOMO      7.2    -0.249803 =      -6.7975eV
 LUMO     12.1     0.272444 =       7.4136eV
 LUMO-HOMO         0.522246 =      14.2110eV


 **********************************************************************************************************************************
 DATASETS  * FILE   NREC   LENGTH (MB)   RECORD NAMES
              1      19        7.86       500      610      700      900      950      970     1000      129      960     1100   
                                          VAR    BASINP    GEOM    SYMINP    ZMAT    AOBASIS   BASIS     P2S    ABASIS      S 
                                         1400     1410     1200     1210     1080     1600     1650     1300     1700   
                                           T        V       H0       H01     AOSYM     SMH    MOLCAS    ERIS     OPER   

              2       4        0.51       700     1000      520     2100   
                                         GEOM     BASIS   MCVARS     RHF  

 PROGRAMS   *        TOTAL        HF       INT
 CPU TIMES  *         0.37      0.08      0.18
 REAL TIME  *         7.40 SEC
 DISK USED  *        12.57 MB      
 **********************************************************************************************************************************

        HF-SCF  
   -225.74096572
 **********************************************************************************************************************************
 Variable memory released
